nm_005206hsa-mir-133	1111
nm_001126115hsa-mir-485	1100
nm_001126116hsa-mir-485	1000
nm_001025368hsa-mir-133	0001
nm_001126117hsa-mir-485	1111
nm_000546hsa-mir-485	1000
nm_001126113hsa-mir-485	1000
nm_001126112hsa-mir-485	1010
nm_006534hsa-mir-17	0100
nm_001111032hsa-mir-412	1000
nm_145259hsa-mir-376	1000
nm_177410mmu-mir-15	0001
nm_181659hsa-mir-17	1000
nm_005962hsa-mir-375	1000
nm_001122742hsa-mir-206	0000
nm_001128128hsa-mir-429	0000
nm_144488hsa-mir-133	0001
nm_017790hsa-mir-133	0001
nm_001111033hsa-mir-412	0000
nm_019635mmu-mir-141	0101
nm_001171629hsa-mir-133	0001
nm_001171627hsa-mir-133	0000
nm_001122741hsa-mir-206	0001
nm_134427hsa-mir-133	0001
nm_010847mmu-mir-375	1001
nm_028399mmu-mir-16	0000
nm_009741mmu-mir-15	0000
nm_003376hsa-mir-133	0000
nm_001111033hsa-mir-376	1000
nm_080867hsa-mir-98	0100
nm_001025366hsa-mir-133	0001
nm_001171630hsa-mir-133	0001
nm_001171624hsa-mir-133	0001
nm_002188hsa-mir-98	0000
nm_021109hsa-mir-1	0100
xm_001478164mmu-mir-15	0001
nm_016889mmu-mir-375	1001
nm_001122740hsa-mir-206	0001
nm_001025369hsa-mir-133	0001
nm_001171628hsa-mir-133	0000
nm_002970hsa-mir-107	0100
xm_001476583mmu-mir-15	0001
nm_001171626hsa-mir-133	0001
nm_001025370hsa-mir-133	0001
nm_021106hsa-mir-133	0000
nm_001008542mmu-mir-375	0101
nm_001111031hsa-mir-412	0000
nm_009769mmu-mir-141	0001
nm_030751hsa-mir-429	1100
nm_001033756hsa-mir-133	0001
nm_130795hsa-mir-133	0001
nm_001008543mmu-mir-375	0000
nm_145259hsa-mir-412	0000
nm_144489hsa-mir-133	1001
nm_001171623hsa-mir-133	0001
nm_130439hsa-mir-375	1100
nm_001621hsa-mir-375	1000
nm_001126114hsa-mir-485	0000
nm_005027hsa-mir-133	0001
nm_001111032hsa-mir-376	1000
nm_001008541hsa-mir-375	1000
nm_001171625hsa-mir-133	0001
nm_010271mmu-mir-103	0001
nm_013464mmu-mir-375	0000
nm_001025367hsa-mir-133	0001
nm_002196hsa-mir-375	1000
nm_016823hsa-mir-133	1001
nm_000125hsa-mir-206	0001
nm_001111031hsa-mir-376	1000
nm_000546hsa-mir-608	0100
nm_001171622hsa-mir-133	0001
nm_011546mmu-mir-429	0000
nm_011546mmu-mir-200	0000
nm_015753mmu-mir-141	0000
