GOID	Ontology Source	GOTerm	GOLevels	GOGroups	Nr. Genes	% Associated Genes	Term PValue	Term PValue Corrected with Benjamini-Hochberg	Group PValue	Group PValue Corrected with Benjamini-Hochberg	Associated Genes Found	All Associated Genes	OverViewTerm
KEGG:00010	KEGG_21.03.2014	Glycolysis / Gluconeogenesis	[-1]	[Group11, Group4]	5	7.5757575	1.9709679736123413E-4	0.0011646628934982015	{Group11=2.514770103827154E-7, Group4=5.3835046753647226E-6}	{Group11=4.778063197271593E-6, Group4=5.114329441596486E-5}	[Acss1, Aldh3b1, Hk2, Pdha1, Pfkl]	[100048117, 1700055N04Rik, Acss1, Acss2, Adh1, Adh4, Adh5, Adh7, Adpgk, Akr1a1, Aldh1a3, Aldh1b1, Aldh2, Aldh3a1, Aldh3a2, Aldh3b1, Aldh3b2, Aldh7a1, Aldh9a1, Aldoa, Aldoart1, Aldob, Aldoc, Bpgm, Dlat, Dld, Eno1, Eno2, Eno3, Fbp1, Fbp2, G6pc, G6pc2, G6pc3, Galm, Gapdh, Gapdhs, Gck, Gm20899, Gm5506, Gpi1, Hk1, Hk2, Hk3, Hkdc1, Ldha, Ldhal6b, Ldhb, Ldhc, Pck1, Pck2, Pdha1, Pdha2, Pdhb, Pfkl, Pfkm, Pfkp, Pgam1, Pgam2, Pgk1, Pgk2, Pgm1, Pgm2, Pklr, Pkm, Tpi1]	TRUE
WP:157	WikiPathways_21.03.2014	Glycolysis and Gluconeogenesis	[-1]	[Group11]	3	5.5555553	0.009542811099715	0.01170344757512217	{Group11=2.514770103827154E-7}	{Group11=4.778063197271593E-6}	[Hk2, Pdha1, Pfkl]	[100045967, 100048117, 100503183, 100505181, Aldoa, Aldoart1, Aldob, Aldoc, Dlat, Dld, Eno1, Eno2, Eno3, Fbp1, Fbp2, G6pc, Gapdh, Gapdhs, Gck, Gm20899, Gm5506, Gm5514, Got1, Got2, Gpi1, Hk1, Hk2, Hk3, Ldha, Ldhb, Ldhc, Mdh1, Mdh2, Pck1, Pcx, Pdha1, Pdha2, Pdhb, Pdhx, Pfkl, Pfkm, Pfkp, Pgam1, Pgam2, Pgk1, Pgk2, Pklr, Pkm, Slc2a1, Slc2a2, Slc2a3, Slc2a4, Slc2a5, Tpi1]	FALSE
KEGG:00240	KEGG_21.03.2014	Pyrimidine metabolism	[-1]	[Group9]	5	4.854369	0.0015172761629929949	0.0036527018738720246	{Group9=2.3867061961574367E-5}	{Group9=1.1336854431747825E-4}	[Dctd, Entpd5, Entpd6, Rrm2b, Tyms]	[4933425L06Rik, Ak3, Cad, Cant1, Cda, Cmpk1, Cmpk2, Ctps, Ctps2, Dck, Dctd, Dctpp1, Dhodh, Dpyd, Dpys, Dtymk, Dut, Entpd1, Entpd3, Entpd4, Entpd5, Entpd6, Entpd8, Gm21685, Itpa, LOC100862456, Nme1, Nme2, Nme3, Nme4, Nme5, Nme6, Nme7, Nt5c, Nt5c1a, Nt5c1b, Nt5c2, Nt5c3, Nt5c3b, Nt5e, Nt5m, Nudt2, Pnp, Pnp2, Pnpt1, Pola1, Pola2, Pold1, Pold2, Pold3, Pold4, Pole, Pole2, Pole3, Pole4, Polr1a, Polr1b, Polr1c, Polr1d, Polr1e, Polr2a, Polr2b, Polr2c, Polr2d, Polr2e, Polr2f, Polr2g, Polr2h, Polr2i, Polr2j, Polr2l, Polr3a, Polr3b, Polr3c, Polr3d, Polr3e, Polr3f, Polr3g, Polr3gl, Polr3h, Polr3k, Prim1, Prim2, Rrm1, Rrm2, Rrm2b, Tk1, Tk2, Twistnb, Txnrd1, Txnrd2, Txnrd3, Tymp, Tyms, Uck1, Uck2, Uckl1, Umps, Upb1, Upp1, Upp2, Uprt, Znrd1]	FALSE
WP:297	WikiPathways_21.03.2014	IL-7 Signaling Pathway	[-1]	[Group17]	3	6.521739	0.006121852211968393	0.009043645313135125	{Group17=3.9553094811740723E-4}	{Group17=0.0010735840020329626}	[Cblb, Gsk3b, Stat3]	[640611, Akt1, Bad, Bax, Bcl2l11, Blk, Cbl, Cblb, Ccna2, Ccnd2, Cdk2, Cdk4, Cltc, Foxo1, Foxo3, Fyn, Gm11787, Grb2, Gsk3b, Hras, Il2rg, Il7r, Irf1, Irs1, Irs2, Jak1, Jak3, Lyn, Map2k1, Map2k2, Mapk1, Mapk3, Mcl1, Muc1, Pik3r1, Ptk2b, Raf1, Rb1, Shc1, Sos1, Stam, Stam2, Stat1, Stat3, Stat5a, Stat5b]	FALSE
WP:307	WikiPathways_21.03.2014	Translation Factors	[-1]	[Group16]	3	5.263158	0.011060504805454799	0.013071505679173853	{Group16=0.02715172882712314}	{Group16=0.02715172882712314}	[Eif2b3, Eif3b, Eif4e]	[100047658, 631966, Eef1a1, Eef1a2, Eef1b2, Eef1d, Eef1g, Eef2, Eef2k, Eif1, Eif1a, Eif2ak1, Eif2ak2, Eif2ak3, Eif2b1, Eif2b2, Eif2b3, Eif2b4, Eif2b5, Eif2s1, Eif2s2, Eif2s3x, Eif2s3y, Eif3a, Eif3b, Eif3c, Eif3d, Eif3e, Eif3f, Eif3g, Eif3h, Eif3i, Eif3j1, Eif4a1, Eif4a2, Eif4b, Eif4e, Eif4ebp1, Eif4ebp2, Eif4ebp3, Eif4g1, Eif4g2, Eif4g3, Eif4h, Eif5, Eif5a, Eif6, Etf1, Gm10713, Gm2223, Gm5450, Gm5471, Gm6428, Gm9892, Pabpc1, Pabpc2, Paip1]	FALSE
WP:387	WikiPathways_21.03.2014	IL-6 signaling Pathway	[-1]	[Group17]	4	4.0	0.008897542485256009	0.01112192810657001	{Group17=3.9553094811740723E-4}	{Group17=0.0010735840020329626}	[Eif4e, Gsk3b, Inppl1, Stat3]	[Akt1, Ar, Bad, Bmx, Btk, Casp3, Casp9, Cd40, Cdk5, Cdk5r1, Cdk9, Cebpb, Crebbp, Daxx, Eif2a, Eif4e, Eif4ebp1, Ep300, Erbb2, Erbb3, Fes, Fgr, Fos, Foxo1, Foxo3, Foxo4, Fyn, Gab1, Gab2, Gm11787, Grb2, Gsk3b, Hck, Hdac1, Hnf1a, Hras, Hsp90aa1, Hspb1, Il6, Il6ra, Il6st, Inpp5d, Inppl1, Jak1, Jak2, Jun, Lyn, Map2k1, Map2k2, Map2k4, Map2k6, Map3k4, Map3k7, Mapk1, Mapk14, Mapk3, Mapk8, Mapkapk2, Mapt, Ncoa1, Nfkb1, Nlk, Pik3r1, Pik3r2, Plcg1, Ppp2ca, Ppp2cb, Ppp2r1a, Ppp2r1b, Ppp2r2a, Ppp2r2b, Ppp2r2c, Ppp2r3a, Ppp2r4, Ppp2r5a, Ppp2r5b, Ppp2r5c, Ppp2r5d, Ppp2r5e, Prkcd, Ptk2, Ptk2b, Ptpn11, Pxn, Rac1, Raf1, Rb1, Rps6ka2, Rps6kb1, Sgk1, Shc1, Socs3, Sos1, Stat1, Stat3, Stat5a, Stat5b, Tec, Tyk2, Vav1]	FALSE
WP:662	WikiPathways_21.03.2014	Amino Acid metabolism	[-1]	[Group11, Group4]	4	4.0816326	0.008299000291979866	0.010788700379573826	{Group11=2.514770103827154E-7, Group4=5.3835046753647226E-6}	{Group11=4.778063197271593E-6, Group4=5.114329441596486E-5}	[Acss1, Aldh18a1, Iars, Pdha1]	[100504962, 640248, Acaa1a, Acadm, Acly, Aco2, Acss1, Adh1, Adh4, Adh5, Adh7, Aldh18a1, Aldh1a1, Aldh7a1, Aoc3, Arg1, Arg2, Asl, Asns, Ass1, Auh, Bcat1, Bhmt, Cad, Cbs, Cps1, Cs, Cth, Dbh, Ddc, Dld, Dlst, Ehhadh, Eprs, Fah, Farsb, Fh1, Ftcd, G6pc2, Gclm, Gls, Glud1, Glul, Gm14680, Got1, Got2, Gpt2, Gsr, Gss, Gsta4, Hadh, Hal, Hdc, Hibadh, Hibch, Hmgcl, Hmgcs2, Hnmt, Iars, Idh1, Lars2, Ldha, Maoa, Mars2, Mccc1, Mdh1, Mdh2, Mpst, Mut, Oat, Odc1, Ogdh, Otc, P4ha2, Pck1, Pcx, Pdha1, Pdhx, Pdk4, Pkm, Pnmt, Ppm1l, Prodh, Pycr1, Rars, Sdha, Sdhd, Sds, Sms, Srm, Suclg1, Tat, Tdo2, Th, Tph1, Tpo, Vars, Wars]	FALSE
KEGG:01040	KEGG_21.03.2014	Biosynthesis of unsaturated fatty acids	[-1]	[Group12]	3	12.0	0.0010503871946660327	0.0031034167115132783	{Group12=2.0840665123408425E-4}	{Group12=7.919452746895201E-4}	[Acox3, Elovl6, Pecr]	[Acaa1a, Acaa1b, Acot1, Acot2, Acot3, Acot4, Acot5, Acot7, Acox1, Acox3, Baat, Elovl2, Elovl5, Elovl6, Fads1, Fads2, Hadha, Hsd17b12, Pecr, Ptplb, Scd1, Scd2, Scd3, Scd4, Tecr]	TRUE
WP:1266	WikiPathways_21.03.2014	SIDS Susceptibility Pathways	[-1]	[None]	3	4.9180326	0.013288986837444373	0.01542471686489079	{None=NaN}	{None=NaN}	[Cdca7l, Ctcf, Ece1]	[675521, Adcyap1, Adcyap1r1, Ar, Ascl1, Avp, C4b, Cav3, Cc2d1a, Cdca7l, Chrna4, Chrnb2, Chrnb4, Creb1, Ctcf, Ddc, Deaf1, Ece1, En1, Ep300, Fev, Foxm1, Gata2, Gata3, Gnb3, Hes1, Hes5, Hspd1, Htr1a, Htr2a, Il10, Il6, Il6ra, Kcnh2, Kcnq1, Lmx1b, Maoa, Nfkb1, Nfya, Nkx2-2, Nkx3-1, Nr3c1, Phox2a, Phox2b, Pou3f2, Ppargc1a, Ppargc1b, Rest, Ret, Rora, Ryr2, Scn5a, Slc6a4, Sp1, Tlx3, Tnf, Tph1, Tph2, Vipr1, Vipr2, Ybx1]	TRUE
KEGG:03008	KEGG_21.03.2014	Ribosome biogenesis in eukaryotes	[-1]	[Group10]	4	4.5454545	0.005701354814509898	0.00882352530817008	{Group10=0.001190116844368458}	{Group10=0.002055656367545518}	[Dkc1, Gtpbp4, Nat10, Nhp2]	[100044829, 100045148, 100045968, 100045999, 100047957, 1700009N14Rik, 2610020H08Rik, 633406, Bms1, Cirh1a, Csnk2a1, Csnk2a2, Csnk2b, Dkc1, Drosha, Eftud1, Eif6, Emg1, Fbl, Fbll1, Fcf1, Gar1, Gm12372, Gnl2, Gnl3, Gnl3l, Gtpbp4, Heatr1, Imp3, Imp4, LOC100862468, Lsg1, Mdn1, Mphosph10, Nat10, Nhp2, Nhp2l1, Nmd3, Nob1, Nol6, Nop10, Nop56, Nop58, Nvl, Nxf1, Nxf2, Nxf3, Nxf7, Nxt1, Nxt2, Pop1, Pop4, Pop5, Pop7, Pwp2, Ran, Rasl2-9, Rbm28, Rcl1, Rexo1, Rexo2, Riok1, Riok2, Rnr1, Rnr2, Rpp25, Rpp25l, Rpp30, Rpp38, Rpp40, Rrp7a, Sbds, Spata5, Taf9, Tbl3, Tcof1, Utp14a, Utp14b, Utp15, Utp18, Utp6, Wdr3, Wdr36, Wdr43, Wdr75, Xpo1, Xrn1, Xrn2]	FALSE
GO:0003729	GO_MolecularFunction_20.03.2014_19h52	mRNA binding	[6]	[Group9]	5	4.347826	0.002460991633718848	0.00499888925599141	{Group9=2.3867061961574367E-5}	{Group9=1.1336854431747825E-4}	[Carhsp1, Igf2bp2, Nudt16, Tsn, Tyms]	[A1cf, Aco1, Ago2, Auh, B4galnt2, C1qbp, Calr, Carhsp1, Ccdc55, Celf1, Celf4, Cirbp, Cpeb1, Cpeb2, Cpeb3, Cpsf1, Cpsf3, Cpsf6, Cryz, Dazl, Ddx3x, Dhfr, Dppa5a, Dxo, Eef1a1, Eefsec, Eif4a3, Elavl1, Esrp1, Esrp2, Fech, Fxr1, Fyttd1, G3bp1, Hnrnpa3, Hnrnpc, Hnrnpll, Hsp90aa1, Igf2bp1, Igf2bp2, Igf2bp3, Ireb2, Jrk, Khsrp, Lin28a, Luc7l, Luc7l2, Luc7l3, Mbd2, Mecp2, Mex3d, Mir124a-1, Mir124a-2, Mir124a-3, Mir124b, Mir294, Nanos2, Nova1, Nudt16, Nudt21, Nxf1, Nxf2, Nxf3, Nxf7, Pabpc1, Paip2, Park7, Piwil1, Piwil2, Ptbp2, Purb, Rara, Rbfox2, Rbm24, Rbm25, Rbm38, Rbm4, Rbm5, Rbm8a, Rbms3, Rbmx, Rbmxl1, Rc3h1, Rc3h2, Rnps1, Rpl13a, Rpl7, Rps13, Rps14, Rps2, Rps26, Rps3, Rps5, Secisbp2, Serbp1, Slbp, Srrm4, Srsf1, Tardbp, Tdrd7, Tpr, Tra2b, Tsn, Tut1, Tyms, Upf3a, Upf3b, Ybx1, Ybx2, Ybx3, Zfp36, Zfp36l1, Zfp36l2, Zfp385a, mmu-mir-466l]	FALSE
GO:0003743	GO_MolecularFunction_20.03.2014_19h52	translation initiation factor activity	[6]	[Group16]	3	5.4545455	0.010034212642136157	0.012078218921089819	{Group16=0.02715172882712314}	{Group16=0.02715172882712314}	[Eif2b3, Eif3b, Eif4e]	[Brf1, Denr, Dhx29, Eif1, Eif1a, Eif1ad, Eif1ax, Eif1b, Eif2a, Eif2ak2, Eif2ak3, Eif2b1, Eif2b2, Eif2b3, Eif2b4, Eif2b5, Eif2d, Eif2s1, Eif2s2, Eif2s3x, Eif2s3y, Eif3a, Eif3b, Eif3c, Eif3d, Eif3e, Eif3f, Eif3g, Eif3h, Eif3i, Eif3k, Eif3l, Eif3m, Eif4a1, Eif4a2, Eif4b, Eif4e, Eif4e1b, Eif4e2, Eif4e3, Eif4g1, Eif4g2, Eif4g3, Eif4h, Eif5, Eif5b, Eif6, Gm2016, Gm2046, Gm21319, Gm21936, Mtif2, Mtif3, Trmt6, Zfp36l1]	TRUE
KEGG:04066	KEGG_21.03.2014	HIF-1 signaling pathway	[-1]	[Group11, Group13]	6	5.263158	3.356100432327459E-4	0.0013634158006330303	{Group11=2.514770103827154E-7, Group13=9.192120326722086E-6}	{Group11=4.778063197271593E-6, Group13=5.821676206923987E-5}	[Eif4e, Hk2, Pdha1, Pfkl, Stat3, Vegfa]	[100048117, 101056616, 1300017J02Rik, Akt1, Akt2, Akt3, Aldoa, Angpt1, Angpt2, Angpt4, Arnt, Bcl2, Camk2a, Camk2b, Camk2d, Camk2g, Cdkn1a, Cdkn1b, Crebbp, Cul2, Cybb, Edn1, Egf, Egfr, Egln1, Egln2, Egln3, Eif4e, Eif4e1b, Eif4e2, Eif4ebp1, Eno1, Eno2, Eno3, Ep300, Epo, Erbb2, Flt1, Gapdh, Gm20899, Gm5506, Gm9840, Hif1a, Hk1, Hk2, Hk3, Hkdc1, Hmox1, Ifng, Ifngr1, Ifngr2, Igf1, Igf1r, Il6, Il6ra, Ins1, Ins2, Insr, Ldha, Ltbr, Map2k1, Map2k2, Mapk1, Mapk3, Mknk1, Mknk2, Mtor, Nfkb1, Nos2, Nos3, Nox1, Nox3, Nppa, Pdha1, Pdha2, Pdhb, Pdk1, Pfkfb1, Pfkfb2, Pfkfb3, Pfkfb4, Pfkl, Pgk1, Pik3ca, Pik3cb, Pik3cd, Pik3cg, Pik3r1, Pik3r2, Pik3r3, Pik3r5, Plcg1, Plcg2, Prkca, Prkcb, Prkcg, Rbx1, Rela, Rps6, Rps6-ps4, Rps6kb1, Rps6kb2, Serpine1, Slc2a1, Stat3, Tceb1, Tceb2, Tek, Tfrc, Timp1, Tlr4, Trf, Vegfa, Vhl]	TRUE
KEGG:04115	KEGG_21.03.2014	p53 signaling pathway	[-1]	[None]	3	4.347826	0.018461252103293947	0.019354538495388814	{None=NaN}	{None=NaN}	[Cycs, Ppm1d, Rrm2b]	[640611, Apaf1, Atm, Atr, Bai1, Bax, Bbc3, Bid, Casp3, Casp8, Casp9, Ccnb1, Ccnb2, Ccnb3, Ccnd1, Ccnd2, Ccnd3, Ccne1, Ccne2, Ccng1, Ccng2, Cd82, Cdk1, Cdk2, Cdk4, Cdk6, Cdkn1a, Cdkn2a, Chek1, Chek2, Cycs, Cyct, Ddb2, Ei24, Fas, Gadd45a, Gadd45b, Gadd45g, Gm5593, Gtse1, Igf1, Igfbp3, Lrdd, Mdm2, Mdm4, Perp, Pmaip1, Ppm1d, Pten, Rchy1, Rfwd2, Rprm, Rrm2, Rrm2b, Serpinb5, Serpine1, Sesn1, Sesn2, Sesn3, Sfn, Shisa5, Siah1a, Siah1b, Steap3, Thbs1, Trp53, Trp73, Tsc2, Zmat3]	TRUE
KEGG:04146	KEGG_21.03.2014	Peroxisome	[-1]	[Group12]	4	4.878049	0.00443941757226339	0.007798976816138388	{Group12=2.0840665123408425E-4}	{Group12=7.919452746895201E-4}	[Acox3, Cat, Pecr, Phyh]	[101056392, Abcd1, Abcd2, Abcd3, Abcd4, Acaa1a, Acaa1b, Acot8, Acox1, Acox2, Acox3, Acsl1, Acsl3, Acsl4, Acsl5, Acsl6, Agps, Agxt, Amacr, Baat, Cat, Crat, Crot, Dao, Ddo, Decr2, Dhrs4, Ech1, Eci2, Ehhadh, Ephx2, Far1, Far2, Gnpat, Gstk1, Hacl1, Hao1, Hao2, Hmgcl, Hsd17b4, Idh1, Idh2, Mlycd, Mpv17, Mpv17l, Mpv17l2, Mvk, Nos2, Nudt12, Nudt19, Nudt7, Paox, Pecr, Pex1, Pex10, Pex11a, Pex11b, Pex11g, Pex12, Pex13, Pex14, Pex16, Pex19, Pex2, Pex26, Pex3, Pex5, Pex6, Pex7, Phyh, Pipox, Pmvk, Prdx1, Prdx5, Pxmp2, Pxmp4, Scp2, Slc25a17, Slc27a2, Sod1, Sod2, Xdh]	FALSE
KEGG:04150	KEGG_21.03.2014	mTOR signaling pathway	[-1]	[Group11, Group13, Group2]	3	4.83871	0.01388310262627657	0.015831608258034684	{Group11=2.514770103827154E-7, Group13=9.192120326722086E-6, Group2=4.4724159203721913E-4}	{Group11=4.778063197271593E-6, Group13=5.821676206923987E-5, Group2=0.0010621987810883954}	[Eif4e, Rictor, Vegfa]	[Akt1, Akt1s1, Akt2, Akt3, Braf, Cab39, Cab39l, Ddit4, Eif4b, Eif4e, Eif4e1b, Eif4e2, Eif4ebp1, Hif1a, Igf1, Ikbkb, Ins1, Ins2, Irs1, Mapk1, Mapk3, Mlst8, Mtor, Pdpk1, Pik3ca, Pik3cb, Pik3cd, Pik3cg, Pik3r1, Pik3r2, Pik3r3, Pik3r5, Prkaa1, Prkaa2, Prkca, Prkcb, Prkcg, Pten, Rheb, Rictor, Rps6, Rps6-ps4, Rps6ka1, Rps6ka2, Rps6ka3, Rps6ka6, Rps6kb1, Rps6kb2, Rptor, Rraga, Rragb, Rragc, Rragd, Stk11, Strada, Tnf, Tsc1, Tsc2, Ulk1, Ulk2, Ulk3, Vegfa]	FALSE
KEGG:04340	KEGG_21.03.2014	Hedgehog signaling pathway	[-1]	[Group14]	3	6.122449	0.007299885269067742	0.010095586010412834	{Group14=7.715666624015321E-4}	{Group14=0.001465976658562911}	[Btrc, Csnk1e, Gsk3b]	[Bmp2, Bmp4, Btrc, Csnk1a1, Csnk1d, Csnk1e, Csnk1g1, Csnk1g2, Csnk1g3, Dhh, Fbxw11, Gas1, Gli1, Gli2, Gli3, Gsk3b, Hhip, Ihh, Lrp2, Prkaca, Prkacb, Prkx, Ptch1, Ptch2, Rab23, Shh, Smo, Stk36, Sufu, Wnt1, Wnt10a, Wnt10b, Wnt11, Wnt16, Wnt2, Wnt2b, Wnt3, Wnt3a, Wnt4, Wnt5a, Wnt5b, Wnt6, Wnt7a, Wnt7b, Wnt8a, Wnt8b, Wnt9a, Wnt9b, Zic2]	FALSE
GO:0004527	GO_MolecularFunction_20.03.2014_19h52	exonuclease activity	[5]	[Group1]	3	4.477612	0.01707798666584653	0.01819785464393483	{Group1=0.01707798666584653}	{Group1=0.018026763702838004}	[Ccrn4l, Cnot6l, Exo1]	[Aen, Alkbh2, Alkbh3, Apex1, Apex2, Aplf, Aptx, C77370, Ccrn4l, Cnot1, Cnot2, Cnot6, Cnot6l, Cnot7, Cnot8, Cpsf3, Dclre1b, Dclre1c, Ddx1, Dis3, Dis3l, Dis3l2, Dxo, Enpp1, Enpp2, Enpp3, Eri1, Eri2, Eri3, Exd1, Exd2, Exo1, Exo5, Exosc10, Exosc3, Exosc9, Fan1, Fen1, Fscn1, Isg20, Isg20l2, Meiob, Mgme1, Mre11a, Pan2, Pan3, Parn, Pcsk1n, Pde12, Pnpt1, Pola1, Pold1, Polg, Rad1, Rad50, Rad9a, Rexo1, Rexo2, Rexo4, Tcf3, Tdp1, Trex1, Trex2, Usb1, Wrn, Xrn1, Xrn2]	FALSE
KEGG:04662	KEGG_21.03.2014	B cell receptor signaling pathway	[-1]	[Group17]	3	4.0540543	0.022184189893677694	0.022184189893677694	{Group17=3.9553094811740723E-4}	{Group17=0.0010735840020329626}	[Cr2, Gsk3b, Inppl1]	[Akt1, Akt2, Akt3, Bcl10, Blnk, Btk, Card11, Cd19, Cd22, Cd72, Cd79a, Cd79b, Cd81, Chuk, Cr2, Dapp1, Fcgr2b, Fos, Gm11787, Grb2, Gsk3b, Hras, Ifitm1, Igh-VJ558, Ikbkb, Ikbkg, Inpp5d, Inppl1, Jun, Kras, Lyn, Malt1, Map2k1, Map2k2, Mapk1, Mapk3, Nfatc1, Nfatc2, Nfatc3, Nfkb1, Nfkbia, Nfkbib, Nfkbie, Nras, Pik3ap1, Pik3ca, Pik3cb, Pik3cd, Pik3cg, Pik3r1, Pik3r2, Pik3r3, Pik3r5, Pirb, Plcg2, Ppp3ca, Ppp3cb, Ppp3cc, Ppp3r1, Ppp3r2, Prkcb, Ptpn6, Rac1, Rac2, Rac3, Raf1, Rasgrp3, Rela, Sos1, Sos2, Syk, Vav1, Vav2, Vav3]	FALSE
KEGG:04710	KEGG_21.03.2014	Circadian rhythm	[-1]	[Group14]	3	9.67742	0.001980952629083384	0.004292064029680665	{Group14=7.715666624015321E-4}	{Group14=0.001465976658562911}	[Bhlhe40, Btrc, Csnk1e]	[Arntl, Bhlhe40, Bhlhe41, Btrc, Clock, Creb1, Cry1, Cry2, Csnk1d, Csnk1e, Cul1, Fbxl3, Fbxw11, Gm9840, Npas2, Nr1d1, Per1, Per2, Per3, Prkaa1, Prkaa2, Prkab1, Prkab2, Prkag1, Prkag2, Prkag3, Rbx1, Rora, Rorb, Rorc, Skp1a]	FALSE
KEGG:04910	KEGG_21.03.2014	Insulin signaling pathway	[-1]	[Group17]	7	4.895105	1.6863123037226687E-4	0.0012178922193552607	{Group17=3.9553094811740723E-4}	{Group17=0.0010735840020329626}	[Cblb, Eif4e, Gsk3b, Hk2, Inppl1, Pde3b, Ptpn1]	[Acaca, Acacb, Akt1, Akt2, Akt3, Araf, Bad, Braf, Calm1, Calm2, Calm3, Calm4, Calm5, Calml3, Cbl, Cblb, Cblc, Crk, Crkl, Eif4e, Eif4e1b, Eif4e2, Eif4ebp1, Elk1, Exoc7, Fasn, Fbp1, Fbp2, Flot1, Flot2, Foxo1, G6pc, G6pc2, G6pc3, Gck, Grb2, Gsk3b, Gys1, Gys2, Hk1, Hk2, Hk3, Hkdc1, Hras, Ikbkb, Inpp5k, Inppl1, Ins1, Ins2, Insr, Irs1, Irs2, Irs3, Irs4, Kras, Lipe, Map2k1, Map2k2, Mapk1, Mapk10, Mapk3, Mapk8, Mapk9, Mknk1, Mknk2, Mtor, Nras, Pck1, Pck2, Pde3a, Pde3b, Pdpk1, Phka1, Phka2, Phkb, Phkg1, Phkg2, Pik3ca, Pik3cb, Pik3cd, Pik3cg, Pik3r1, Pik3r2, Pik3r3, Pik3r5, Pklr, Ppargc1a, Ppp1ca, Ppp1cb, Ppp1cc, Ppp1r3a, Ppp1r3b, Ppp1r3c, Ppp1r3d, Ppp1r3e, Ppp1r3f, Prkaa1, Prkaa2, Prkab1, Prkab2, Prkaca, Prkacb, Prkag1, Prkag2, Prkag3, Prkar1a, Prkar1b, Prkar2a, Prkar2b, Prkci, Prkcz, Prkx, Ptpn1, Ptprf, Pygb, Pygl, Pygm, Raf1, Rapgef1, Rheb, Rhoq, Rps6, Rps6-ps4, Rps6kb1, Rps6kb2, Rptor, Sh2b2, Shc1, Shc2, Shc3, Shc4, Slc2a4, Socs1, Socs2, Socs3, Socs4, Sorbs1, Sos1, Sos2, Srebf1, Trip10, Tsc1, Tsc2]	TRUE
GO:0006006	GO_BiologicalProcess_20.03.2014_19h52	glucose metabolic process	[6, 7]	[Group11]	9	4.3689322	4.8565077110491285E-5	5.261216686969889E-4	{Group11=2.514770103827154E-7}	{Group11=4.778063197271593E-6}	[Entpd5, Glyr1, Hk2, Inppl1, Pdha1, Pfkl, Pgm2l1, Serp1, Stat3]	[Acadm, Adipoq, Adpgk, Adra1b, Aimp1, Akt1, Akt2, Aldh4a1, Aldh5a1, Aldoa, Aldoart2, Aldob, Aldoc, Apod, Arpp19, Atf3, Atf4, Bad, Bpgm, C1qtnf1, C1qtnf2, C1qtnf3, Cacna1a, Car5a, Ccdc22, Clk2, Cox11, Cpt1a, Crtc2, D7Zem1, D7Zem2, D7Zem3, Dcxr, Ddit4, Dhtkd1, Dlat, Dusp12, Dyrk2, Eno2, Eno3, Eno4, Enpp1, Entpd5, Fabp5, Fam132a, Fbp1, Fbp2, Foxa2, Foxo1, G6pc, G6pc2, G6pc3, G6pd2, G6pdx, Galm, Ganc, Gapdhs, Gcgr, Gck, Gckr, Gdf2, Gdpgp1, Gfpt1, Glyr1, Gm5506, Gm6484, Gnmt, Gpd1, Gpd2, Gpi1, Gpld1, Grb10, H6pd, Hdac4, Hdac5, Hibadh, Hif1a, Hk1, Hk2, Hk3, Hkdc1, Hmgb1, Hnf4a, Hsd11b1, Htr2a, Ier3, Igf1, Igf2, Igfbp3, Igfbp4, Igfbp5, Il3, Il6, Inpp5k, Inppl1, Ins1, Ins2, Insr, Irs1, Irs2, Kcnj11, Khk, Khsrp, Lcmt1, Ldha, Ldhal6b, Ldhb, Ldhc, Lep, Lrp5, Mapk14, Mif, Mir143, Mlxipl, Mlycd, Mtor, Myc, Ncor1, Nkx1-1, Npy1r, Nr1d1, Nr3c1, Ogdh, Ogt, Oma1, Onecut1, Pask, Pck1, Pck2, Pcx, Pdha1, Pdha2, Pdhb, Pdhx, Pdk1, Pdk2, Pdk3, Pdk4, Pdpk1, Pdx1, Pfkfb1, Pfkfb2, Pfkl, Pfkm, Pfkp, Pgam1, Pgam2, Pgd, Pgk1, Pgk2, Pgls, Pgm1, Pgm2, Pgm2l1, Pgm5, Phlda2, Pigq, Pik3ca, Pik3r1, Pklr, Pkm, Pomc, Ppara, Ppargc1a, Ppp1ca, Ppp1cb, Ppp1r3b, Ppp1r3c, Ppp1r3d, Ppp1r3e, Ppp1r3f, Ppp1r3g, Prkaa1, Prkaa2, Prkag2, Pth, Ptpn2, Ranbp2, Rbp4, Rora, Rorc, Rpe, Rpia, Sds, Serp1, Sesn2, Shpk, Sik1, Sirt1, Slc2a8, Slc35b4, Smek1, Smek2, Soga1, Sorbs1, Src, Stat3, Stk11, Taldo1, Tcf7l2, Tfap2b, Tkt, Tnf, Tpi1, Usf1, Wdtc1]	FALSE
GO:0006007	GO_BiologicalProcess_20.03.2014_19h52	glucose catabolic process	[7, 8]	[Group11]	6	7.894737	3.546920410881259E-5	0.0011527491335364091	{Group11=2.514770103827154E-7}	{Group11=4.778063197271593E-6}	[Entpd5, Glyr1, Hk2, Pdha1, Pfkl, Stat3]	[Adpgk, Aldoa, Aldoart2, Aldob, Aldoc, Bad, Bpgm, Ddit4, Dhtkd1, Eno2, Eno3, Eno4, Entpd5, Fbp1, Fbp2, G6pdx, Gapdhs, Gck, Glyr1, Gm5506, Gpd1, Gpi1, H6pd, Hdac4, Hdac5, Hibadh, Hif1a, Hk1, Hk2, Hk3, Hkdc1, Hsd11b1, Htr2a, Ier3, Igf1, Il3, Ins2, Insr, Ldha, Ldhal6b, Ldhb, Ldhc, Lrp5, Mif, Mlxipl, Myc, Ncor1, Ogdh, Ogt, Pdha1, Pdha2, Pfkfb2, Pfkl, Pfkm, Pfkp, Pgam1, Pgam2, Pgd, Pgk1, Pgk2, Pgls, Pigq, Pklr, Pkm, Ppara, Ppargc1a, Prkaa1, Prkaa2, Prkag2, Rpe, Rpia, Shpk, Stat3, Taldo1, Tkt, Tpi1]	FALSE
GO:0006096	GO_BiologicalProcess_20.03.2014_19h52	glycolysis	[3, 4, 8, 9]	[Group11]	5	7.9365077	1.5808485526416752E-4	0.0012844394490213612	{Group11=2.514770103827154E-7}	{Group11=4.778063197271593E-6}	[Entpd5, Hk2, Pdha1, Pfkl, Stat3]	[Adpgk, Aldoa, Aldoart2, Aldob, Aldoc, Bpgm, Ddit4, Dhtkd1, Eno2, Eno3, Eno4, Entpd5, Fbp1, Fbp2, Gapdhs, Gck, Gm5506, Gpd1, Gpi1, H6pd, Hdac4, Hdac5, Hif1a, Hk1, Hk2, Hk3, Hkdc1, Htr2a, Ier3, Igf1, Il3, Ins2, Insr, Ldha, Ldhal6b, Ldhb, Ldhc, Mif, Mlxipl, Myc, Ncor1, Ogdh, Ogt, Pdha1, Pdha2, Pfkfb2, Pfkl, Pfkm, Pfkp, Pgam1, Pgam2, Pgk1, Pgk2, Pigq, Pklr, Pkm, Ppara, Ppargc1a, Prkaa1, Prkaa2, Prkag2, Stat3, Tpi1]	FALSE
GO:0006518	GO_BiologicalProcess_20.03.2014_19h52	peptide metabolic process	[4, 5]	[None]	4	4.6511626	0.005257117018464662	0.008542815155005075	{None=NaN}	{None=NaN}	[Ctns, Ece1, Pnkd, Thop1]	[Ace, Adamts13, Aldh4a1, Aldh5a1, Apeh, Bace1, Bdh2, Becn1, C330021F23Rik, Carns1, Cln5, Cpq, Cth, Ctns, Ctsh, Dmd, Ece1, Ethe1, Fkbp1a, Furin, G6pdx, Gclc, Gclm, Ggct, Ggt1, Ggt5, Ggt6, Ggt7, Glo1, Gpx1, Gpx3, Gpx4, Gsap, Gsr, Gss, Gsta1, Gstk1, Gstm1, Gstm2, Gstm4, Gstm5, Gstm7, Gstp1, Gstp2, Gstt1, Gstt2, Gstt3, Gstz1, Hagh, Haghl, Ide, Idh1, Klk1b1, Lnpep, Lonp2, Lrrtm3, Lta4h, Mgst1, Mgst2, Mme, Mmp13, Mycbp2, Ncstn, Nod2, Olfm1, Oplah, Pam, Pcsk1, Pcsk5, Pnkd, Psen1, Psen2, Sec11a, Sec11c, Sod1, Sod2, Spcs1, Spcs2, Tapbp, Thop1, Tmed10, Tpp1, Txnrd3, Unc13a, Unc13b, Xpnpep1]	TRUE
GO:0006637	GO_BiologicalProcess_20.03.2014_19h52	acyl-CoA metabolic process	[4, 5]	[Group11, Group4]	3	4.6875	0.015116077699175775	0.016940431904248713	{Group11=2.514770103827154E-7, Group4=5.3835046753647226E-6}	{Group11=4.778063197271593E-6, Group4=5.114329441596486E-5}	[Acss1, Gpam, Pdha1]	[Acaa2, Acaca, Acacb, Acadsb, Acly, Acnat1, Acnat2, Acot1, Acot10, Acot12, Acot2, Acot3, Acot4, Acot5, Acot6, Acot8, Acot9, Acsm2, Acsm4, Acss1, Acss2, Agpat6, Baat, Ces1d, Cs, Dbt, Dgat1, Dgat2, Dlat, Dld, Ehhadh, Far1, Far2, Gcdh, Gpam, Hmgcl, Hnf4a, Hsd17b4, Kynu, Mlycd, Mvd, Nudt7, Ogdh, Oxct1, Oxct2a, Oxsm, Pdha1, Pdha2, Pdhb, Pdk1, Pdk2, Pdk3, Pdk4, Pdpk1, Pipox, Pmvk, Scp2, Slc27a3, Snca, Sucla2, Suclg1, Suclg2, Tdo2, Them5]	FALSE
GO:0006638	GO_BiologicalProcess_20.03.2014_19h52	neutral lipid metabolic process	[4, 5]	[Group18]	4	4.6511626	0.005257117018464662	0.008542815155005075	{Group18=6.345784890692751E-4}	{Group18=0.0013396656991462473}	[Agpat5, Cat, Gpam, Thrb]	[Aadac, Abca17, Abhd5, Acsl1, Acsl4, Acsl5, Acsl6, Agpat5, Agpat6, Agpat9, Ang, Angptl3, Apoa2, Apoa4, Apoa5, Apob, Apobr, Apoc1, Apoc2, Apoc3, Apoe, Apof, Apoh, C3, Cat, Cav1, Cav3, Ces1d, Cnep1r1, Cps1, Cpt1a, Ctdnep1, Cyp2e1, Dagla, Dbi, Dgat1, Dgat2, Dgkd, Dgkh, Dgkk, Dgkq, Fitm2, G6pc, Gpam, Gpat2, Gpld1, Gpx1, Gyk, Il6st, Insig1, Insig2, Ldlr, Lipc, Lipe, Lmf1, Lpin1, Lpl, Mgll, Mip, Mogat1, Mogat2, Mttp, Nkx2-3, Nr1h2, Nr1h3, Olfr48, Pck1, Pcsk9, Pik3cg, Pnpla2, Pnpla3, Ppap2a, Ptpn11, Scarb1, Sik1, Sirt1, Slc22a4, Slc27a5, Slc37a4, Snca, Srebf1, Tcf7l2, Thrb, Thrsp, Tnxb, Tom1l2]	FALSE
GO:0006639	GO_BiologicalProcess_20.03.2014_19h52	acylglycerol metabolic process	[5, 6]	[Group18]	4	4.7619047	0.004836667524930726	0.008273247082118346	{Group18=6.345784890692751E-4}	{Group18=0.0013396656991462473}	[Agpat5, Cat, Gpam, Thrb]	[Aadac, Abhd5, Acsl1, Acsl4, Acsl5, Acsl6, Agpat5, Agpat6, Agpat9, Ang, Angptl3, Apoa2, Apoa4, Apoa5, Apob, Apobr, Apoc1, Apoc2, Apoc3, Apoe, Apof, Apoh, C3, Cat, Cav1, Cav3, Ces1d, Cnep1r1, Cps1, Cpt1a, Ctdnep1, Cyp2e1, Dagla, Dbi, Dgat1, Dgat2, Dgkd, Dgkh, Dgkk, Dgkq, Fitm2, G6pc, Gpam, Gpat2, Gpld1, Gpx1, Gyk, Il6st, Insig1, Insig2, Ldlr, Lipc, Lipe, Lmf1, Lpin1, Lpl, Mgll, Mip, Mogat1, Mogat2, Mttp, Nkx2-3, Nr1h2, Nr1h3, Olfr48, Pck1, Pcsk9, Pik3cg, Pnpla2, Pnpla3, Ppap2a, Ptpn11, Scarb1, Sik1, Sirt1, Slc22a4, Slc27a5, Slc37a4, Srebf1, Tcf7l2, Thrb, Thrsp, Tnxb, Tom1l2]	FALSE
GO:0006641	GO_BiologicalProcess_20.03.2014_19h52	triglyceride metabolic process	[6, 7]	[Group18]	3	4.1666665	0.020649564903951714	0.02097221435557596	{Group18=6.345784890692751E-4}	{Group18=0.0013396656991462473}	[Cat, Gpam, Thrb]	[Aadac, Abhd5, Acsl1, Acsl4, Acsl5, Acsl6, Agpat6, Agpat9, Angptl3, Apoa4, Apoa5, Apob, Apobr, Apoc1, Apoc2, Apoc3, Apoe, Apof, Apoh, C3, Cat, Cav1, Cav3, Cnep1r1, Cps1, Cpt1a, Ctdnep1, Cyp2e1, Dbi, Dgat1, Dgat2, Fitm2, G6pc, Gpam, Gpat2, Gpld1, Gpx1, Gyk, Il6st, Insig1, Insig2, Ldlr, Lipc, Lipe, Lmf1, Lpin1, Lpl, Mip, Mogat2, Mttp, Nkx2-3, Nr1h2, Nr1h3, Olfr48, Pck1, Pcsk9, Pik3cg, Pnpla2, Pnpla3, Ptpn11, Scarb1, Sik1, Sirt1, Slc22a4, Slc27a5, Slc37a4, Srebf1, Tcf7l2, Thrb, Thrsp, Tnxb, Tom1l2]	FALSE
GO:0006733	GO_BiologicalProcess_20.03.2014_19h52	oxidoreduction coenzyme metabolic process	[5]	[None]	3	4.2253523	0.01990498574933763	0.020536890058840414	{None=NaN}	{None=NaN}	[Coq5, Glyr1, Prdx6]	[Adck3, Aldob, Art2b, Aspdh, Cbr2, Coq2, Coq3, Coq4, Coq5, Coq6, Coq7, Coq9, Cyb5r4, Dcxr, Dlst, Fdx1, Fdxr, Fmo1, Fmo2, G6pd2, G6pdx, Gck, Glyr1, Gpd1, Gpd1l, Gpd2, H6pd, Haao, Hibadh, Hmgcr, Hsd11b1, Idh3a, Idh3b, Idh3g, Kmo, Kynu, Ldha, Ldhb, Mdh1, Mdh2, Nadk, Nadk2, Nadsyn1, Nampt, Naprt1, Ncf1, Ncf2, Nmnat1, Nmnat2, Nmnat3, Nmrk1, Nmrk2, Nudt12, Ogdh, Pck2, Pdss1, Pdss2, Pgam1, Pgd, Pgls, Prdx5, Prdx6, Qprt, Rpe, Rpia, Shpk, Taldo1, Tkt, Tpi1, Txnrd1, Ubiad1]	TRUE
GO:0006984	GO_BiologicalProcess_20.03.2014_19h52	ER-nucleus signaling pathway	[4, 5]	[Group3]	3	6.382979	0.0065008079295495605	0.009185924248276552	{Group3=0.00139079459366933}	{Group3=0.002032699790747482}	[Gsk3b, Ptpn1, Serp1]	[Aars, Amfr, Atg10, Atp2a2, Bak1, Bax, Casp12, Ccdc47, Ccnd1, Creb3, Crebrf, Ddit3, Derl1, Derl2, Derl3, Dnajc3, Eif2a, Eif2ak2, Eif2ak3, Eif2ak4, Eif2s1, Ern1, Ern2, Ero1l, Gsk3b, Herpud1, Hspa5, Ifng, Ins2, Insig1, Insig2, Lmna, Nfe2l2, Nkx3-1, Parp16, Ppp1r15a, Ppp1r15b, Ptpn1, Scap, Serp1, Stc2, Trp53, Vapb, Vimp, Wfs1, Xbp1, Yod1]	FALSE
GO:0007006	GO_BiologicalProcess_20.03.2014_19h52	mitochondrial membrane organization	[3, 4, 5]	[None]	3	4.347826	0.018461252103293947	0.019354538495388814	{None=NaN}	{None=NaN}	[Afg3l2, Gsk3b, Slc35f6]	[Acaa2, Afg3l1, Afg3l2, Alkbh7, Atf2, Atpif1, Bad, Bak1, Bax, Bbc3, Bcl2, Bcl2l1, Bcl2l11, Bid, Bloc1s2, Bnip3, Bnip3l, Chchd3, Chchd6, Cln8, Cnp, Cox18, Cstad, Eya2, Gimap3, Gimap5, Gm5560, Gsk3a, Gsk3b, Hsp90aa1, Hspa4, Htt, Ier3, Letm1, Mfn2, Mpv17l, Mtfp1, Mul1, Myc, Naif1, Nkx3-1, Oma1, Opa1, Pex5, Plekhf1, Pmaip1, Ppid, Ppif, Rhot1, Rhot2, Samm50, Sh3glb1, Siva1, Slc25a5, Slc35f6, Slc6a4, Slc9a1, Snca, Taz, Them4, Timm10, Timm13, Timm50, Timm9, Tmem102, Tomm22, Trp53, Wwtr1, Zfp13]	TRUE
GO:0008013	GO_MolecularFunction_20.03.2014_19h52	beta-catenin binding	[3]	[Group14]	4	5.714286	0.0025085514330660196	0.0049410861560391294	{Group14=7.715666624015321E-4}	{Group14=0.001465976658562911}	[Btrc, Calcoco1, Gsk3b, Tax1bp3]	[Amer1, Anapc2, Apc, Apc2, Ar, Axin1, Axin2, Bcl9, Bcl9l, Btrc, Calcoco1, Cby1, Cd2ap, Cdh1, Cdh2, Cdh24, Cdh5, Cdhr5, Chd8, Csnk2a1, Ctnna1, Ctnnbip1, Cxadr, Cyp19a1, Dact1, Dact2, Dlg5, Dvl3, Ep300, Esr1, Fzr1, Gli3, Grin2b, Gsk3b, Hdac6, Kank1, Lef1, Lzic, Med12, Med12l, Met, Nf2, Nos2, Nos3, Numb, Prmt2, Prop1, Psen1, Ptprj, Ptprk, Ptprt, Ptpru, Pxn, Sall1, Shroom2, Slc9a3r1, Slc9a3r2, Sltm, Smad3, Smad7, Sox17, Sox9, Sufu, Tax1bp3, Tbl1x, Tbl1xr1, Tcf7, Tcf7l1, Tcf7l2, Trpc4]	FALSE
GO:0008168	GO_MolecularFunction_20.03.2014_19h52	methyltransferase activity	[4]	[Group0]	8	4.188482	1.7090149769014866E-4	0.0011108597349859663	{Group0=2.184068223105857E-4}	{Group0=6.916216039835214E-4}	[Coq5, Gcsh, Mettl13, Nsun2, Nsun5, Prmt5, Tyms, Wdr5]	[6430573F11Rik, Aldh1l1, Aldh1l2, Alkbh8, Amt, As3mt, Ash1l, Ash2l, Asmt, B630005N14Rik, Bcdin3d, Bhmt, Bhmt2, Camkmt, Carm1, Cmtr1, Cmtr2, Comt, Comtd1, Coq3, Coq5, Cxxc1, Dimt1, Dmgdh, Dnmt1, Dnmt3a, Dnmt3b, Dnmt3l, Dot1l, Dph5, Ece2, Eed, Ehmt1, Ehmt2, Emg1, Ezh1, Ezh2, Fbl, Fbll1, Fbxo11, Ftsj2, Ftsj3, Gamt, Gart, Gcsh, Gnmt, Hemk1, Henmt1, Hnmt, Iba57, Icmt, Inmt, Irf4, Kmt2a, Kmt2b, Kmt2c, Kmt2d, Kmt2e, Lcmt1, Lcmt2, Men1, Mepce, Met-2, Mettl1, Mettl10, Mettl11b, Mettl13, Mettl14, Mettl15, Mettl16, Mettl17, Mettl18, Mettl2, Mettl20, Mettl21a, Mettl21c, Mettl21e, Mettl22, Mettl23, Mettl24, Mettl25, Mettl3, Mettl4, Mettl5, Mettl6, Mettl7a1, Mettl7b, Mettl8, Mgmt, Mrm1, Mtr, N6amt1, N6amt2, Ndufaf5, Nnmt, Nop2, Nsd1, Nsun2, Nsun3, Nsun4, Nsun5, Nsun6, Nsun7, Ntmt1, Ocln, Pcmt1, Pcmtd1, Pcmtd2, Pdpr, Pemt, Pnmt, Prdm1, Prdm10, Prdm11, Prdm12, Prdm13, Prdm14, Prdm4, Prdm5, Prdm6, Prdm8, Prdm9, Prex1, Prmt1, Prmt10, Prmt2, Prmt3, Prmt5, Prmt6, Prmt7, Prmt8, Rbbp5, Rnmt, Rnmtl1, Rrp8, Sardh, Setd1a, Setd1b, Setd2, Setd3, Setd4, Setd6, Setd7, Setd8, Setdb1, Setdb2, Setmar, Shmt2, Smyd1, Smyd2, Smyd3, Smyd4, Smyd5, Suv39h1, Suv39h2, Suv420h1, Suv420h2, Suz12, Tfb1m, Tfb2m, Tgs1, Thumpd2, Thumpd3, Tomt, Tpmt, Trdmt1, Trmt1, Trmt10a, Trmt10b, Trmt10c, Trmt11, Trmt112, Trmt12, Trmt13, Trmt1l, Trmt2a, Trmt2b, Trmt44, Trmt5, Trmt61a, Trmu, Tyms, Tyw3, Vcpkmt, Wbscr22, Wdr4, Wdr5, Wdr82, Whsc1, Whsc1l1, Zcchc4]	TRUE
GO:0009108	GO_BiologicalProcess_20.03.2014_19h52	coenzyme biosynthetic process	[5]	[Group11, Group4]	4	4.7058825	0.005043955218185866	0.008406592030309776	{Group11=2.514770103827154E-7, Group4=5.3835046753647226E-6}	{Group11=4.778063197271593E-6, Group4=5.114329441596486E-5}	[Acss1, Coq5, Pdha1, Spr]	[Acly, Acss1, Acss2, Adck3, Aspdh, Atic, Coasy, Coq2, Coq3, Coq4, Coq5, Coq6, Coq7, Coq9, Cyp4f18, Dbt, Dcakd, Dhfr, Dlat, Dld, Flad1, Fpgs, G6pdx, Gart, Gcdh, Gch1, Gphn, Haao, Kmo, Kynu, Lias, Lipt2, Mat1a, Mat2a, Mat2b, Mlycd, Mocos, Mocs1, Mocs2, Mocs3, Mthfd1, Mthfd1l, Mthfd2, Mthfd2l, Mthfs, Mthfsd, Nadk, Nadk2, Nadsyn1, Nampt, Naprt1, Nfs1, Nmnat1, Nmnat2, Nmnat3, Nmrk1, Nmrk2, Pank1, Pank2, Pank3, Pank4, Pcbd1, Pcbd2, Pdha1, Pdha2, Pdhb, Pdk1, Pdk2, Pdk3, Pdk4, Pdpk1, Pdss1, Pdss2, Pdxk, Ppcdc, Ppcs, Pts, Qdpr, Qprt, Snca, Spr, Tacr1, Tpk1, Ubiad1, Vkorc1]	FALSE
GO:0009132	GO_BiologicalProcess_20.03.2014_19h52	nucleoside diphosphate metabolic process	[5, 6, 7]	[Group9]	3	7.6923075	0.003841168685201992	0.007133598986803699	{Group9=2.3867061961574367E-5}	{Group9=1.1336854431747825E-4}	[Entpd7, Nudt16, Rrm2b]	[Ak1, Ak2, Ak3, Ak4, Ak5, Ak7, Ak8, Ak9, Atp5a1, Atp5b, Atp5c1, Atp5d, Bad, Cant1, Cmpk1, Cmpk2, Dtymk, Entpd1, Entpd2, Entpd3, Entpd7, Entpd8, Guk1, Nme1, Nme2, Nme3, Nme4, Nme5, Nme6, Nme7, Nme8, Nudt16, Nudt18, Nudt5, Nudt7, Nudt9, Rp2h, Rrm2, Rrm2b]	FALSE
GO:0009262	GO_BiologicalProcess_20.03.2014_19h52	deoxyribonucleotide metabolic process	[4, 6, 7, 8]	[Group9]	3	10.714286	0.0014696785722719146	0.0036741964306797863	{Group9=2.3867061961574367E-5}	{Group9=1.1336854431747825E-4}	[Nudt16, Rrm2b, Tyms]	[Ada, Adk, Ak2, Ak3, Ak4, Ak9, Cmpk1, Cmpk2, Dera, Dguok, Dtymk, Dut, Guk1, Mgea5, Nt5c, Nt5m, Nudt1, Nudt15, Nudt16, Nudt18, Pnp, Rrm1, Rrm2, Rrm2b, Samhd1, Tbpl1, Tk2, Tyms]	FALSE
GO:0009451	GO_BiologicalProcess_20.03.2014_19h52	RNA modification	[5, 6, 7]	[Group10]	4	6.451613	0.0016047096498722634	0.0037252188300606116	{Group10=0.001190116844368458}	{Group10=0.002055656367545518}	[Dkc1, Gtpbp4, Nsun2, Nudt16]	[A1cf, Aars, Adar, Adarb1, Alkbh5, Alkbh8, Apobec1, Apobec2, Bag4, Bcdin3d, Cdk5rap1, Cdkal1, Cmtr1, Cmtr2, Ctu1, Ctu2, Dimt1, Dkc1, Dnajb11, Emg1, Fto, Ftsj2, Ftsj3, Gar1, Gtpbp3, Gtpbp4, Henmt1, Mepce, Mettl1, Mettl3, Mocs3, Mtfmt, Mto1, Naf1, Nop10, Nsun2, Nudt16, Pus1, Pus10, Pus3, Pus7l, Pusl1, Qtrt1, Qtrtd1, Rnmt, Rpusd1, Rpusd2, Rpusd3, Rpusd4, Tfb1m, Tfb2m, Tgs1, Thg1l, Tnip1, Trdmt1, Trmt5, Trmt61a, Trub1, Trub2, Tyw5, Urm1, Wdr4]	TRUE
GO:0016052	GO_BiologicalProcess_20.03.2014_19h52	carbohydrate catabolic process	[4]	[Group11]	7	6.140351	4.0427629285834756E-5	6.569489758948148E-4	{Group11=2.514770103827154E-7}	{Group11=4.778063197271593E-6}	[Entpd5, Glyr1, Hk2, Pdha1, Pfkl, Pgm2l1, Stat3]	[Abhd10, Adpgk, Adra1b, Adrb1, Agl, Akr1a1, Aldoa, Aldoart2, Aldob, Aldoc, Bad, Bpgm, Chia1, Chit1, Cps1, Ctbs, Ddit4, Dhdh, Dhtkd1, Eno2, Eno3, Eno4, Entpd5, Fbp1, Fbp2, G6pc, G6pdx, Gaa, Gale, Gapdhs, Gck, Glb1, Glyr1, Gm2a, Gm5506, Gpd1, Gpi1, H6pd, Hdac4, Hdac5, Hexb, Hibadh, Hif1a, Hk1, Hk2, Hk3, Hkdc1, Hmgb1, Hsd11b1, Htr2a, Ier3, Igf1, Il3, Ins2, Insr, Ldha, Ldhal6b, Ldhb, Ldhc, Lrp5, Manba, Mif, Miox, Mlxipl, Myc, Naga, Ncor1, Neu1, Neu2, Neu3, Neu4, Neurl1a, Ogdh, Ogt, Pdha1, Pdha2, Pfkfb2, Pfkl, Pfkm, Pfkp, Pgam1, Pgam2, Pgd, Pgk1, Pgk2, Pgls, Pgm1, Pgm2, Pgm2l1, Pigq, Pklr, Pkm, Ppara, Ppargc1a, Ppp1ca, Ppp1cb, Ppp1r3b, Ppp1r3c, Ppp1r3d, Ppp1r3e, Prkaa1, Prkaa2, Prkag2, Pygb, Pygl, Pygm, Rpe, Rpia, Shpk, Sord, Stat3, Taldo1, Tkt, Tpi1]	FALSE
GO:0016627	GO_MolecularFunction_20.03.2014_19h52	oxidoreductase activity, acting on the CH-CH group of donors	[3]	[Group12]	4	7.4074073	9.566214492405682E-4	0.0031090197100318464	{Group12=2.0840665123408425E-4}	{Group12=7.919452746895201E-4}	[Acad10, Acox3, Cpox, Pecr]	[Acaa1a, Acad10, Acad11, Acad8, Acad9, Acadl, Acadm, Acads, Acadsb, Acadvl, Acox1, Acox2, Acox3, Acoxl, Akr1c18, Akr1c21, Akr1d1, Bdh2, Blvra, Blvrb, Cox15, Cpox, Decr1, Decr2, Dhcr24, Dhcr7, Dhdh, Dhodh, Dpyd, Dus1l, Dus2, Dus3l, Dus4l, Fasn, Gcdh, Ivd, Lbr, Mecr, Pecr, Ppox, Ptgr1, Ptgr2, Retsat, Rsad1, Sdha, Sdhb, Sdhc, Sdhd, Srd5a1, Srd5a2, Srd5a3, Tecr, Tecrl, Tm7sf2]	FALSE
GO:0016667	GO_MolecularFunction_20.03.2014_19h52	oxidoreductase activity, acting on a sulfur group of donors	[3]	[None]	3	6.0	0.007720236409618931	0.010454486804692303	{None=NaN}	{None=NaN}	[Ero1lb, Nxn, P4hb]	[Chchd4, Coil, Dld, Dnajc10, Enox2, Ero1l, Ero1lb, Gfer, Glrx, Glrx2, Glrx3, Glrx5, Grxcr1, Gsr, Gstk1, Gsto1, Gsto2, Ifi30, Msra, Msrb1, Msrb2, Msrb3, Nxn, P4hb, Pcyox1, Pcyox1l, Pdia2, Pdia3, Pdia4, Pdia5, Pdia6, Ptges2, Qsox1, Qsox2, Sh3bgrl3, Srxn1, Suox, Tmx1, Tmx3, Txn1, Txn2, Txndc12, Txndc17, Txndc2, Txndc5, Txndc8, Txnl1, Txnrd1, Txnrd2, Txnrd3]	TRUE
GO:0016741	GO_MolecularFunction_20.03.2014_19h52	transferase activity, transferring one-carbon groups	[3]	[Group0]	8	4.040404	2.184068223105857E-4	0.0011830369541823392	{Group0=2.184068223105857E-4}	{Group0=6.916216039835214E-4}	[Coq5, Gcsh, Mettl13, Nsun2, Nsun5, Prmt5, Tyms, Wdr5]	[6430573F11Rik, Aldh1l1, Aldh1l2, Alkbh8, Amt, As3mt, Ash1l, Ash2l, Asmt, Atic, B630005N14Rik, Bcdin3d, Bhmt, Bhmt2, Cad, Camkmt, Carm1, Cmtr1, Cmtr2, Comt, Comtd1, Coq3, Coq5, Cxxc1, Dimt1, Dmgdh, Dnmt1, Dnmt3a, Dnmt3b, Dnmt3l, Dot1l, Dph5, Ece2, Eed, Ehmt1, Ehmt2, Emg1, Ezh1, Ezh2, Fbl, Fbll1, Fbxo11, Ftcd, Ftsj2, Ftsj3, Gamt, Gart, Gatm, Gcsh, Gnmt, Hemk1, Henmt1, Hnmt, Iba57, Icmt, Inmt, Irf4, Kmt2a, Kmt2b, Kmt2c, Kmt2d, Kmt2e, Lcmt1, Lcmt2, Men1, Mepce, Met-2, Mettl1, Mettl10, Mettl11b, Mettl13, Mettl14, Mettl15, Mettl16, Mettl17, Mettl18, Mettl2, Mettl20, Mettl21a, Mettl21c, Mettl21e, Mettl22, Mettl23, Mettl24, Mettl25, Mettl3, Mettl4, Mettl5, Mettl6, Mettl7a1, Mettl7b, Mettl8, Mgmt, Mrm1, Mtfmt, Mtr, N6amt1, N6amt2, Ndufaf5, Nnmt, Nop2, Nsd1, Nsun2, Nsun3, Nsun4, Nsun5, Nsun6, Nsun7, Ntmt1, Ocln, Otc, Pcmt1, Pcmtd1, Pcmtd2, Pdpr, Pemt, Pnmt, Prdm1, Prdm10, Prdm11, Prdm12, Prdm13, Prdm14, Prdm4, Prdm5, Prdm6, Prdm8, Prdm9, Prex1, Prmt1, Prmt10, Prmt2, Prmt3, Prmt5, Prmt6, Prmt7, Prmt8, Rbbp5, Rnmt, Rnmtl1, Rrp8, Sardh, Setd1a, Setd1b, Setd2, Setd3, Setd4, Setd6, Setd7, Setd8, Setdb1, Setdb2, Setmar, Shmt1, Shmt2, Smyd1, Smyd2, Smyd3, Smyd4, Smyd5, Suv39h1, Suv39h2, Suv420h1, Suv420h2, Suz12, Tfb1m, Tfb2m, Tgs1, Thumpd2, Thumpd3, Tomt, Tpmt, Trdmt1, Trmt1, Trmt10a, Trmt10b, Trmt10c, Trmt11, Trmt112, Trmt12, Trmt13, Trmt1l, Trmt2a, Trmt2b, Trmt44, Trmt5, Trmt61a, Trmu, Tyms, Tyw3, Vcpkmt, Wbscr22, Wdr4, Wdr5, Wdr82, Whsc1, Whsc1l1, Zcchc4]	FALSE
GO:0016796	GO_MolecularFunction_20.03.2014_19h52	exonuclease activity, active with either ribo- or deoxyribonucleic acids and producing 5'-phosphomonoesters	[6]	[Group1]	3	10.0	0.0017998961413795069	0.004034249972057515	{Group1=0.01707798666584653}	{Group1=0.018026763702838004}	[Ccrn4l, Cnot6l, Exo1]	[Aptx, Ccrn4l, Cnot1, Cnot2, Cnot6, Cnot6l, Cnot7, Cnot8, Dis3, Dis3l, Dis3l2, Exo1, Exo5, Isg20, Meiob, Mgme1, Pan2, Pan3, Parn, Pcsk1n, Pde12, Pnpt1, Rad1, Rad9a, Tcf3, Trex1, Trex2, Usb1, Xrn1, Xrn2]	TRUE
GO:0016903	GO_MolecularFunction_20.03.2014_19h52	oxidoreductase activity, acting on the aldehyde or oxo group of donors	[3]	[Group11]	3	6.6666665	0.005756455941997737	0.008701619447205882	{Group11=2.514770103827154E-7}	{Group11=4.778063197271593E-6}	[Aldh18a1, Aldh3b1, Pdha1]	[Aasdh, Adh4, Adh5, Adh7, Ahd6, Akr1b3, Akr1b8, Akr1c18, Akr1c6, Aldh16a1, Aldh18a1, Aldh1a1, Aldh1a2, Aldh1a3, Aldh1a7, Aldh1b1, Aldh1l1, Aldh1l2, Aldh2, Aldh3a1, Aldh3a2, Aldh3b1, Aldh4a1, Aldh5a1, Aldh6a1, Aldh7a1, Aldh8a1, Aldh9a1, Aox1, Aox2, Aox3, Aox4, Bckdha, Bckdhb, Dhrs4, Dhtkd1, Far1, Far2, Gapdh, Gapdhs, Ogdh, Pdha1, Pdha2, Pdhb, Suclg2]	FALSE
GO:0017110	GO_MolecularFunction_20.03.2014_19h52	nucleoside-diphosphatase activity	[6]	[Group9]	4	30.76923	2.8026247192602666E-6	1.8217060675191732E-4	{Group9=2.3867061961574367E-5}	{Group9=1.1336854431747825E-4}	[Entpd5, Entpd6, Entpd7, Nudt16]	[Cant1, Entpd1, Entpd2, Entpd3, Entpd5, Entpd6, Entpd7, Entpd8, Nudt16, Nudt18, Nudt5, Nudt9, Slc25a42]	TRUE
GO:0019320	GO_BiologicalProcess_20.03.2014_19h52	hexose catabolic process	[6, 7]	[Group11]	6	7.5	4.746446977192943E-5	6.170381070350826E-4	{Group11=2.514770103827154E-7}	{Group11=4.778063197271593E-6}	[Entpd5, Glyr1, Hk2, Pdha1, Pfkl, Stat3]	[Adpgk, Aldoa, Aldoart2, Aldob, Aldoc, Bad, Bpgm, Ddit4, Dhtkd1, Eno2, Eno3, Eno4, Entpd5, Fbp1, Fbp2, G6pdx, Gale, Gapdhs, Gck, Glb1, Glyr1, Gm5506, Gpd1, Gpi1, H6pd, Hdac4, Hdac5, Hibadh, Hif1a, Hk1, Hk2, Hk3, Hkdc1, Hsd11b1, Htr2a, Ier3, Igf1, Il3, Ins2, Insr, Ldha, Ldhal6b, Ldhb, Ldhc, Lrp5, Mif, Mlxipl, Myc, Ncor1, Ogdh, Ogt, Pdha1, Pdha2, Pfkfb2, Pfkl, Pfkm, Pfkp, Pgam1, Pgam2, Pgd, Pgk1, Pgk2, Pgls, Pgm1, Pgm2, Pigq, Pklr, Pkm, Ppara, Ppargc1a, Prkaa1, Prkaa2, Prkag2, Rpe, Rpia, Shpk, Stat3, Taldo1, Tkt, Tpi1]	FALSE
GO:0022613	GO_BiologicalProcess_20.03.2014_19h52	ribonucleoprotein complex biogenesis	[3]	[None]	10	4.032258	3.6630076735281425E-5	7.936516625977642E-4	{None=NaN}	{None=NaN}	[Bysl, Ccrn4l, Cnot6l, Ddx56, Dkc1, Gtpbp4, Nhp2, Prmt5, Strap, Tsr1]	[2410016O06Rik, Aatf, Atxn2, Atxn2l, Bicd1, Bop1, Brix1, Bysl, C1d, C1qbp, Ccrn4l, Cdkn2a, Celf1, Celf2, Celf4, Chd3, Chd7, Cirbp, Cirh1a, Clns1a, Clp1, Cnot1, Cnot2, Cnot6, Cnot6l, Cnot7, Crnkl1, Dcaf13, Ddx20, Ddx39b, Ddx3x, Ddx47, Ddx51, Ddx56, Ddx6, Dicer1, Dimt1, Dis3, Dkc1, Drosha, Dync1h1, Ebna1bp2, Eftud1, Eif2a, Eif2s1, Eif3a, Eif3d, Eif6, Emg1, Eral1, Eri1, Exosc1, Exosc10, Exosc2, Exosc3, Exosc4, Exosc5, Exosc6, Exosc7, Exosc8, Exosc9, Fam103a1, Fbl, Fbll1, Fcf1, Frg1, Ftsj2, Ftsj3, Gar1, Gcfc2, Gemin2, Gemin4, Gemin5, Gemin6, Gemin7, Gemin8, Gja1, Gm3577, Gm6436, Gm9193, Gm9493, Gnl1, Gnl2, Gnl3, Gnl3l, Grb7, Gtf2h5, Gtpbp10, Gtpbp4, Hexim1, IBA:, Imp3, Imp4, Ipo4, Ipo9, Isg20, Isg20l2, Krr1, Las1l, Limd1, Lsg1, Lsm14a, Lsm2, Lsm6, Luc7l, Luc7l2, Luc7l3, Malsu1, Mbnl1, Mina, Mphosph10, Mphosph6, Mrpl10, Mrto4, Mterfd2, Mtg1, Mtif3, Naf1, Nhp2, Nip7, Nmd3, Noa1, Nob1, Noc4l, Nol11, Nol8, Nol9, Nop10, Nop14, Nop2, Nop56, Nop58, Npm1, Npm3, Nsa2, Nsun4, Nufip1, Pa2g4, Pan3, Papd5, Patl1, Patl2, Pcsk1n, Pdcd11, Pes1, Pih1d1, Pin4, Pop4, Pop5, Pqbp1, Prmt5, Prmt7, Prpf19, Prpf31, Prpf6, Psip1, Ptbp2, Pten, Pum2, Rbfa, Rbm5, Rbmx, Rbmxl1, Rc3h1, Rcl1, Rnasel, Rnr1 s-rRNA, Rnr2 16S ribosomal RNA, Rpf1, Rpl11, Rpl13a, Rpl14, Rpl24, Rpl26, Rpl35a, Rpl38, Rpl7, Rplp0, Rps14, Rps15, Rps16, Rps17, Rps18, Rps19, Rps2, Rps21, Rps24, Rps25, Rps28, Rps6, Rps7, Rps8, Rpsa, Rrn3, Rrp1, Rrp1b, Rrp36, Rrp8, Rrp9, Rrs1, Rsl24d1, Sbds, Scaf11, Sdad1, Shq1, Sirt1, Skiv2l2, Slu7, Snrpb, Snrpc, Snrpd1, Snrpd2, Snrpd3, Snrpe, Snrpf, Snrpg, Srpk2, Srsf1, Srsf10, Srsf6, Strap, Surf6, Suv39h1, Tarbp2, Tbl3, Tfb1m, Tfb2m, Tnip1, Tsc1, Tsr1, Tsr2, Tsr3, Utp11l, Utp14a, Utp14b, Utp15, Utp18, Utp20, Utp23, Utp6, Wbp11, Wbscr22, Wdr12, Wdr55, Ybey, Ythdc1, Znhit6, Zrsr2]	TRUE
GO:0031056	GO_BiologicalProcess_20.03.2014_19h52	regulation of histone modification	[4, 5, 6, 7, 8, 9]	[Group8]	4	4.4444447	0.0061699560804927235	0.008912158782933933	{Group8=0.008897542485256009}	{Group8=0.01056583170124151}	[Arid5a, Ctcf, Ube2b, Vegfa]	[Airn, Arid5a, Arrb1, Asxl2, Bcor, Brca1, Brd7, Cdk9, Chek1, Ctbp1, Ctcf, Ctcfl, Ctr9, Dmrtc2, Dnmt1, Dnmt3b, Dppa2, Eed, Eid1, Fendrr, Flcn, Foxp3, Fxyd1, Gata2, Gata3, Gfi1b, Hotair, Iws1, Jarid2, Jdp2, Kdm1a, Kdm3a, Kmt2a, Kmt2b, Lif, Lpin1, Mapk3, Mapk8, Mecp2, Men1, Msx3, Mtf2, Muc1, Myb, Myocd, Nap1l2, Ncor1, Nipbl, Noc2l, Nos1, Ogt, Otub1, Pax5, Pax7, Paxbp1, Paxip1, Phf1, Phf19, Pml, Prkd1, Prkd2, Pygo2, Rnf20, Rps6ka4, Rps6ka5, Rtf1, Sin3a, Ski, Snai2, Snca, Snw1, Srebf1, Supt6, Tada2a, Tada3, Taf7, Tcf21, Tgfb1, Tom1l2, Trip12, Trp53, Trps1, Twist1, Ube2b, Ubr5, Ucn, Vegfa, Wdr61, Zfp335, Znhit1]	TRUE
GO:0031334	GO_BiologicalProcess_20.03.2014_19h52	positive regulation of protein complex assembly	[3, 4, 5, 6, 7]	[Group13, Group2]	6	5.042017	4.2236622918656515E-4	0.0016149296998309844	{Group13=9.192120326722086E-6, Group2=4.4724159203721913E-4}	{Group13=5.821676206923987E-5, Group2=0.0010621987810883954}	[Bmf, Fmn2, Gsk3b, Plek, Rictor, Vegfa]	[Actr2, Actr3, Aim2, Ajuba, Alox15, Ap1ar, Apc, Arf1, Arf6, Arhgef5, Arl2, Arpc2, Arpc3, Arpc4, Bag4, Baiap2l1, Bax, Bcl2l11, Bclaf1, Bid, Bik, Bmf, Brk1, Cav1, Cav3, Cck, Ccl11, Ccl24, Cd24a, Cdc42ep2, Cdc42ep5, Cdkn1b, Clip1, Clip2, Coro1a, Coro1b, Csf2, Csf3, Cxcl13, Cyfip1, Dlg1, Evl, Faf1, Fas, Fert2, Fes, Fmn1, Fmn2, Foxc2, Gnb2l1, Grb2, Gsk3b, Hdac6, Hnf1a, Hnf1b, Hrk, Icam1, Ide, Il5, Irf8, Jmy, Kirrel, Map1b, Map3k1, Mapk8, Mapt, Med25, Med9, Mief2, Mlst8, Mpp7, Mtor, Nck1, Nck2, Nckap1, Nckap1l, Nkx2-5, Nkx3-1, Nphs1, Palld, Paxip1, Pfn1, Pfn2, Pick1, Piezo1, Plek, Ppp2r5b, Prkce, Psrc1, Ptk2b, Pycard, Rac1, Rgs2, Rhoa, Rictor, Sh3glb1, Slain2, Snx9, Spidr, Src, Srf, Stub1, Sumo1, Tal1, Tenm1, Terf1, Tgfb1, Tmem27, Tnf, Tppp, Trp53, Vasp, Vcp, Vegfa, Vil1, Was, Wasf1, Wash, Wasl]	TRUE
GO:0031532	GO_BiologicalProcess_20.03.2014_19h52	actin cytoskeleton reorganization	[5, 6]	[Group2]	3	4.5454545	0.016408978809010696	0.017776393709761588	{Group2=4.4724159203721913E-4}	{Group2=0.0010621987810883954}	[Plek, Ptpn1, Rictor]	[Antxr1, Atp2c1, Baiap2l1, Brsk2, Capn10, Cckar, Ccl27a, Cd2ap, Cdc42bpa, Cdc42bpb, Cdc42bpg, Csf1r, Csf3, Ctsl, Cxadr, Dmtn, Dtnbp1, Eps8, Farp2, Fert2, Fes, Fgf10, Fgf7, Flna, Gpr65, Hax1, Hck, Hras, Insrr, Kit, Lpin1, Micall2, Mink1, Myh9, Nphs2, Ntf3, Ntrk3, Nutf2, Pak1, Parva, Parvb, Parvg, Phactr1, Phpt1, Pip5k1a, Pip5k1b, Plek, Prkcz, Ptk2b, Ptk7, Ptpn1, Rala, Rap2a, Rapgef3, Rictor, S100a9, S1pr1, Sema3e, Shc1, Sipa1l1, Smap1, Sptan1, Tek, Tgfb1, Tnik, Trpv4]	FALSE
GO:0032623	GO_BiologicalProcess_20.03.2014_19h52	interleukin-2 production	[4]	[Group6]	3	6.0	0.007720236409618931	0.010454486804692303	{Group6=0.009523592042508813}	{Group6=0.010644014635745144}	[Cd1d1, Gpam, Sash3]	[Btnl2, Card11, Card9, Ccr2, Cd1d1, Cd1d2, Cd276, Cd28, Cd34, Cd3e, Cd83, Clec2i, Foxp3, Gata3, Glmn, Gpam, Hdac7, Il17f, Il1a, Il1b, Il1rap, Il20rb, Irf4, Kat5, Lag3, Malt1, Map3k7, Nod2, Pawr, Pde4b, Pde4d, Prkcq, Prkd2, Prnp, Ripk2, Rltpr, Sash3, Sftpd, Slc11a1, Stat5a, Stat5b, Stoml2, Tnfaip3, Tnfsf4, Traf2, Traf6, Trim27, Vsig4, Vtcn1, Xcl1]	TRUE
GO:0034976	GO_BiologicalProcess_20.03.2014_19h52	response to endoplasmic reticulum stress	[4]	[Group3]	5	5.319149	0.0010086503236596313	0.0031220129065655253	{Group3=0.00139079459366933}	{Group3=0.002032699790747482}	[Gsk3b, P4hb, Ptpn1, Serinc3, Serp1]	[Aars, Aifm1, Alox15, Amfr, Atf4, Atg10, Atp2a1, Bag6, Bak1, Bax, Bbc3, Bcl2, Bcl2l11, Brsk2, Casp12, Ccdc47, Ccnd1, Cebpb, Chac1, Col4a3bp, Creb3, Crebrf, Dab2ip, Ddit3, Derl1, Derl2, Derl3, Dnajc10, Dnajc3, Eif2ak2, Eif2ak3, Eif2ak4, Eif2b5, Ern1, Ern2, Ero1l, Erp44, Fam129a, Fxyd1, Gsk3b, Herpud1, Hspa5, Ifng, Ins2, Itpr1, Nfe2l2, Nkx3-1, Os9, P4hb, Parp16, Pdhx, Pdia2, Pdia3, Pdia4, Pdia5, Pdia6, Pdx1, Pla2g6, Pml, Ppp1r15a, Ppp1r15b, Ppp2cb, Ptpn1, Scamp5, Sel1l, Selk, Serinc3, Serp1, Spop, Srpx, Stc2, Syvn1, Thbs1, Thbs4, Tmbim6, Tmx1, Tmx3, Tmx4, Trib3, Trp53, Txndc11, Txndc5, Uba5, Ube2k, Ube4b, Ubqln1, Ufc1, Ufl1, Ufm1, Vapb, Vimp, Wfs1, Xbp1, Yod1]	TRUE
GO:0035383	GO_BiologicalProcess_20.03.2014_19h52	thioester metabolic process	[3]	[Group11, Group4]	3	4.6875	0.015116077699175775	0.016940431904248713	{Group11=2.514770103827154E-7, Group4=5.3835046753647226E-6}	{Group11=4.778063197271593E-6, Group4=5.114329441596486E-5}	[Acss1, Gpam, Pdha1]	[Acaa2, Acaca, Acacb, Acadsb, Acly, Acnat1, Acnat2, Acot1, Acot10, Acot12, Acot2, Acot3, Acot4, Acot5, Acot6, Acot8, Acot9, Acsm2, Acsm4, Acss1, Acss2, Agpat6, Baat, Ces1d, Cs, Dbt, Dgat1, Dgat2, Dlat, Dld, Ehhadh, Far1, Far2, Gcdh, Gpam, Hmgcl, Hnf4a, Hsd17b4, Kynu, Mlycd, Mvd, Nudt7, Ogdh, Oxct1, Oxct2a, Oxsm, Pdha1, Pdha2, Pdhb, Pdk1, Pdk2, Pdk3, Pdk4, Pdpk1, Pipox, Pmvk, Scp2, Slc27a3, Snca, Sucla2, Suclg1, Suclg2, Tdo2, Them5]	FALSE
GO:0036294	GO_BiologicalProcess_20.03.2014_19h52	cellular response to decreased oxygen levels	[5]	[Group2]	3	5.882353	0.00815460624599323	0.010817334816113466	{Group2=4.4724159203721913E-4}	{Group2=0.0010621987810883954}	[Fmn2, P4hb, Vegfa]	[Adam8, Adrb2, Ajuba, Akt1, Aqp1, Bach1, Bcl2, Bnip3, Brip1, Cbs, Cd34, Cited2, Cpeb1, Cpeb2, Cpeb4, Epas1, Fabp1, Fam162a, Fmn2, Fndc1, Gata6, Gnb1, Gngt1, Hif1a, Hif1an, Higd1a, Kcnk3, Mgarp, Mtor, Nkx3-1, Notch1, Npepps, P4hb, Pdk1, Pdk3, Pdpk1, Pick1, Plk3, Prkce, Ptgis, Rgcc, Sirt1, Slc2a4, Slc9a1, Twist1, Ubqln1, Usp19, Vasn, Vegfa, Vhl, Vldlr]	FALSE
GO:0040014	GO_BiologicalProcess_20.03.2014_19h52	regulation of multicellular organism growth	[3, 4]	[None]	4	4.040404	0.008594862960455401	0.010954237106462766	{None=NaN}	{None=NaN}	[Afg3l2, Gpam, Spr, Stat3]	[Acvr1c, Adrb1, Adrb2, Adrb3, Afg3l2, Agpat6, Agt, Alms1, Ankrd26, Apoe, App, Atp8a2, Atrn, Atxn2, Azgp1, Bbs2, Bbs4, Bcl2, Bmp8b, Cacna2d2, Cckar, Celf1, Chd3, Chd7, Clic5, Creb1, Csf1, Dio3, Dlg1, Drd2, Drd3, Fgfr2, Foxs1, Fto, Fxn, G6pdx, Gamt, Gdf3, Gdf5, Gh, Ghr, Ghrh, Ghrhr, Ghrl, Ghsr, Gnas, Gpam, Gpr21, Gpr39, Hdac3, Hmga2, Hsf1, Htra2, IMP:, Ikzf1, Lep, Lgmn, Mbd5, Mc4r, Mecp2, Mkks, Ncor1, Nipbl, Nmur2, Nppc, Npy1r, Oma1, Pcsk1n, Pex5, Pik3ca, Plac8, Pou1f1, Pou3f2, Ppib, Prlh, Ptch1, Ptpn11, Rai1, Rmi1, Rnase12, Sgip1, Sgpl1, Siah1a, Slc25a25, Slc6a3, Socs2, Sod1, Spr, Sptbn4, Stat3, Stat5a, Stat5b, Stc2, Tacr1, Tnks2, Trpv1, Tshr, Vgf, Zfp640]	TRUE
GO:0042743	GO_BiologicalProcess_20.03.2014_19h52	hydrogen peroxide metabolic process	[4]	[Group15]	3	9.090909	0.0023761165979725996	0.004982179963490934	{Group15=0.0013341163813561279}	{Group15=0.0021123509371472025}	[Cat, Cycs, Prdx6]	[Apoa4, Cat, Cyba, Cybb, Cycs, Cyct, Cyp1a1, Cyp1a2, Epx, Gpx1, Gpx3, Gpx4, Hp, Insr, Mip, Mpo, Mpv17l, Ncf1, Nox1, Noxa1, Park7, Prdx1, Prdx2, Prdx3, Prdx5, Prdx6, Pxdn, Sod1, Sod2, Thpo, Tpo, Txnrd1, Zfp13]	FALSE
GO:0043407	GO_BiologicalProcess_20.03.2014_19h52	negative regulation of MAP kinase activity	[6, 7, 8, 9, 10, 11, 12]	[Group17]	3	4.9180326	0.013288986837444373	0.01542471686489079	{Group17=3.9553094811740723E-4}	{Group17=0.0010735840020329626}	[Dusp16, Gsk3b, Inppl1]	[Adipoq, Aida, Apoe, Bmp4, Bmp7, Cav1, Cav3, Cblc, Cd300a, Dab2ip, Dusp1, Dusp10, Dusp16, Dusp19, Dusp2, Dusp3, Dusp4, Dusp5, Dusp6, Dusp7, Dusp8, Dusp9, Fem1a, Gba, Gsk3b, Gstp1, Hipk3, Hmgcr, Hyal2, Il1b, Inpp5k, Inppl1, Irak3, Lax1, Lyn, Mapk8ip1, Nf1, Nup62, Obox4, Paqr3, Prkca, Prkcd, Ptpn6, Ptprj, Rgs14, Rgs16, Rgs2, Sfrp1, Sfrp2, Sfrp5, Smpd1, Spred1, Spred2, Spred3, Spry1, Spry2, Spry4, Stk38, Trp73, Tsc2, Uchl1]	FALSE
GO:0043487	GO_BiologicalProcess_20.03.2014_19h52	regulation of RNA stability	[3, 6, 7]	[Group5]	3	6.818182	0.0054044899376942835	0.008568093803661669	{Group5=0.0054044899376942835}	{Group5=0.007334664915442241}	[Carhsp1, Cnot6l, Vegfa]	[Apex1, Apobec1, Axin2, B4galnt2, Brf1, Calcr, Carhsp1, Cirbp, Cnot6l, Cpeb3, Dhx9, Dicer1, Dxo, E2f1, Elavl1, Gdnf, Hnrnpa0, Hnrnpd, Hnrnpu, Igf2bp1, Mapkapk2, Mex3d, Myd88, Nlrp5, Pcid2, Rbm10, Rbm24, Rbm38, Rc3h1, Scgb1a1, Slc11a1, Syncrip, Tardbp, Thrap3, Tirap, Tnfrsf1b, Vegfa, Ybx1, Ybx2, Ythdf2, Zfp36, Zfp36l1, Zfp36l2, mmu-mir-466l]	FALSE
GO:0043488	GO_BiologicalProcess_20.03.2014_19h52	regulation of mRNA stability	[4, 7, 8]	[Group5]	3	7.3170733	0.004427791549871682	0.00799462363171276	{Group5=0.0054044899376942835}	{Group5=0.007334664915442241}	[Carhsp1, Cnot6l, Vegfa]	[Apex1, Apobec1, Axin2, B4galnt2, Brf1, Calcr, Carhsp1, Cirbp, Cnot6l, Cpeb3, Dhx9, Dicer1, E2f1, Elavl1, Gdnf, Hnrnpa0, Hnrnpd, Hnrnpu, Igf2bp1, Mapkapk2, Mex3d, Myd88, Pcid2, Rbm10, Rbm24, Rbm38, Rc3h1, Scgb1a1, Slc11a1, Syncrip, Tardbp, Thrap3, Tirap, Vegfa, Ybx1, Ybx2, Ythdf2, Zfp36, Zfp36l1, Zfp36l2, mmu-mir-466l]	TRUE
GO:0044724	GO_BiologicalProcess_20.03.2014_19h52	single-organism carbohydrate catabolic process	[4, 5]	[Group11]	6	5.504587	2.6347621833287284E-4	0.0012232824422597666	{Group11=2.514770103827154E-7}	{Group11=4.778063197271593E-6}	[Entpd5, Glyr1, Hk2, Pdha1, Pfkl, Stat3]	[Abhd10, Adpgk, Adra1b, Adrb1, Agl, Akr1a1, Aldoa, Aldoart2, Aldob, Aldoc, Bad, Bpgm, Cps1, Ctbs, Ddit4, Dhdh, Dhtkd1, Eno2, Eno3, Eno4, Entpd5, Fbp1, Fbp2, G6pc, G6pdx, Gaa, Gale, Gapdhs, Gck, Glb1, Glyr1, Gm2a, Gm5506, Gpd1, Gpi1, H6pd, Hdac4, Hdac5, Hexb, Hibadh, Hif1a, Hk1, Hk2, Hk3, Hkdc1, Hmgb1, Hsd11b1, Htr2a, Ier3, Igf1, Il3, Ins2, Insr, Ldha, Ldhal6b, Ldhb, Ldhc, Lrp5, Mif, Miox, Mlxipl, Myc, Ncor1, Neu1, Neu2, Neu3, Neu4, Neurl1a, Ogdh, Ogt, Pdha1, Pdha2, Pfkfb2, Pfkl, Pfkm, Pfkp, Pgam1, Pgam2, Pgd, Pgk1, Pgk2, Pgls, Pgm1, Pgm2, Pigq, Pklr, Pkm, Ppara, Ppargc1a, Ppp1ca, Ppp1cb, Ppp1r3b, Ppp1r3c, Ppp1r3d, Ppp1r3e, Prkaa1, Prkaa2, Prkag2, Pygb, Pygl, Pygm, Rpe, Rpia, Shpk, Sord, Stat3, Taldo1, Tkt, Tpi1]	FALSE
GO:0046365	GO_BiologicalProcess_20.03.2014_19h52	monosaccharide catabolic process	[5, 6]	[Group11]	6	7.3170733	5.4572635185398635E-5	5.067458981501302E-4	{Group11=2.514770103827154E-7}	{Group11=4.778063197271593E-6}	[Entpd5, Glyr1, Hk2, Pdha1, Pfkl, Stat3]	[Adpgk, Akr1a1, Aldoa, Aldoart2, Aldob, Aldoc, Bad, Bpgm, Ddit4, Dhdh, Dhtkd1, Eno2, Eno3, Eno4, Entpd5, Fbp1, Fbp2, G6pdx, Gale, Gapdhs, Gck, Glb1, Glyr1, Gm5506, Gpd1, Gpi1, H6pd, Hdac4, Hdac5, Hibadh, Hif1a, Hk1, Hk2, Hk3, Hkdc1, Hsd11b1, Htr2a, Ier3, Igf1, Il3, Ins2, Insr, Ldha, Ldhal6b, Ldhb, Ldhc, Lrp5, Mif, Mlxipl, Myc, Ncor1, Ogdh, Ogt, Pdha1, Pdha2, Pfkfb2, Pfkl, Pfkm, Pfkp, Pgam1, Pgam2, Pgd, Pgk1, Pgk2, Pgls, Pgm1, Pgm2, Pigq, Pklr, Pkm, Ppara, Ppargc1a, Prkaa1, Prkaa2, Prkag2, Rpe, Rpia, Shpk, Stat3, Taldo1, Tkt, Tpi1]	TRUE
GO:0046634	GO_ImmuneSystemProcess_20.03.2014_19h52	regulation of alpha-beta T cell activation	[5]	[Group6]	3	4.6153846	0.01575501947556624	0.017357224845962808	{Group6=0.009523592042508813}	{Group6=0.010644014635745144}	[Cblb, Cd1d1, Sash3]	[4632428N05Rik, Ada, Adora2a, Ap3b1, Ap3d1, Bcl6, Blm, Btla, Cblb, Ccr2, Ccr7, Cd1d1, Cd1d2, Cd24a, Cd28, Cd300a, Cd3e, Cd80, Cd83, Foxp3, Gata3, Gimap3, Gimap5, Gli3, Gm614, H2-Ab1, Hlx, Hsph1, Ihh, Ikzf1, Il12a, Il12b, Il18, Il23a, Il27, Il2rg, Il4, Il4ra, Il6, Irf1, Itch, Itpkb, Jak3, Mir326, Myb, Nckap1l, Nkap, Pnp, Prkcq, Prkcz, Ptprc, Rara, Rc3h1, Ripk2, Sash3, Shh, Socs5, Syk, Tgfbr2, Tnfrsf14, Tnfsf4, Xcl1, Zap70, Zbtb7b, Zfp35]	FALSE
GO:0048008	GO_BiologicalProcess_20.03.2014_19h52	platelet-derived growth factor receptor signaling pathway	[7, 8]	[None]	3	6.521739	0.006121852211968393	0.009043645313135125	{None=NaN}	{None=NaN}	[Inppl1, Ptpn1, Vegfa]	[5830428H23Rik, Abl1, Adipoq, Apod, Arid5b, Bcar1, Bcr, Csrnp1, F3, F7, Fert2, Fshr, Gab1, Inppl1, Jak2, Lrp1, Myo1e, Nrp1, Olfr54, Pdap1, Pdgfa, Pdgfb, Pdgfc, Pdgfd, Pdgfra, Pdgfrb, Phf14, Plat, Plekha1, Pten, Ptgir, Ptpn1, Ptpn2, Ptprj, Rapgef1, Rgs14, Rgs16, Schip1, Sgpl1, Slc9a3r1, Snca, Tiparp, Txnip, Vegfa, Zfand5, Zfp640]	TRUE
GO:0048814	GO_BiologicalProcess_20.03.2014_19h52	regulation of dendrite morphogenesis	[5, 6, 7, 8, 9, 10, 11, 12, 13]	[None]	3	4.9180326	0.013288986837444373	0.01542471686489079	{None=NaN}	{None=NaN}	[Gsk3b, Lrp8, Syne1]	[Ache, Actr3, Akap5, Anapc2, Bhlhb9, Camk2b, Caprin1, Caprin2, Cdk5, Cdk5r1, Cdkl5, Chrna3, Chrnb2, Cit, Cul7, Efna1, Epha4, Fbxw8, Gorasp1, Grin1, Gsk3b, Il1rapl1, Ilk, Itpka, Kndc1, Lrp8, Lrrk2, Lzts1, Met, Nedd4, Ngef, Nlgn3, Nr2e1, Nsmf, Numb, Numbl, Obsl1, Pak3, Pdlim5, Pias2, Pqbp1, Pten, Ptprd, Ptprf, Rap2a, Rapgef2, Reln, Robo1, Sarm1, Sdc2, Sema4d, Sgk1, Shank3, Sipa1l1, Skor2, Sltm, Srcin1, Syne1, Tlx2, Tnik, Ywhah]	TRUE
GO:0050918	GO_BiologicalProcess_20.03.2014_19h52	positive chemotaxis	[4, 5]	[Group7]	3	6.521739	0.006121852211968393	0.009043645313135125	{Group7=0.006121852211968393}	{Group7=0.0077543461351599645}	[Ccrn4l, Il16, Vegfa]	[Ager, Akt2, Alkbh1, Angpt1, Angpt2, Artn, Bmp4, Casr, Ccl21a, Ccl5, Ccr4, Ccrn4l, Cdh13, Coro1a, Cxcl12, Defb14, F2rl1, F7, Fgf10, Fgf2, Fgf7, Fgf8, Figf, Hgf, Hmgb1, Hmgb2, Il16, Itga2, Kdr, Lgals3, Mif, Nrp1, Ntf3, Ntrk3, Nutf2, Pdgfb, Prkca, Ptprj, S100a7a, S1pr1, Scg2, Scrib, Smad3, Tsc2, Vegfa, Vegfc]	FALSE
GO:0050926	GO_BiologicalProcess_20.03.2014_19h52	regulation of positive chemotaxis	[4, 5, 6]	[Group7]	3	11.111111	0.0013200317440734736	0.003575085973532324	{Group7=0.006121852211968393}	{Group7=0.0077543461351599645}	[Ccrn4l, Il16, Vegfa]	[Ager, Akt2, Angpt2, Artn, Casr, Ccl21a, Ccr4, Ccrn4l, Cdh13, Cxcl12, F2rl1, F7, Fgf10, Figf, Hmgb1, Il16, Itga2, Kdr, Ntf3, Ntrk3, Nutf2, Prkca, S1pr1, Scg2, Smad3, Vegfa, Vegfc]	FALSE
GO:0050927	GO_BiologicalProcess_20.03.2014_19h52	positive regulation of positive chemotaxis	[4, 5, 6, 7]	[Group7]	3	11.538462	0.00118035567145969	0.003335787767168689	{Group7=0.006121852211968393}	{Group7=0.0077543461351599645}	[Ccrn4l, Il16, Vegfa]	[Ager, Akt2, Artn, Casr, Ccl21a, Ccr4, Ccrn4l, Cdh13, Cxcl12, F2rl1, F7, Fgf10, Figf, Hmgb1, Il16, Itga2, Kdr, Ntf3, Ntrk3, Nutf2, Prkca, S1pr1, Scg2, Smad3, Vegfa, Vegfc]	TRUE
GO:0051188	GO_BiologicalProcess_20.03.2014_19h52	cofactor biosynthetic process	[4]	[Group4]	6	5.4054055	2.906955146200369E-4	0.0012596805633534934	{Group4=5.3835046753647226E-6}	{Group4=5.114329441596486E-5}	[Abcb6, Acss1, Coq5, Cpox, Pdha1, Spr]	[Abcb6, Acly, Acss1, Acss2, Adck3, Alad, Alas1, Alas2, Ank1, Aspdh, Atic, Atpif1, Bdh2, Coasy, Coq2, Coq3, Coq4, Coq5, Coq6, Coq7, Coq9, Cox10, Cox15, Cpox, Cyp4f18, Dbt, Dcakd, Dhfr, Dlat, Dld, Fech, Flad1, Fpgs, Fxn, G6pdx, Gart, Gcdh, Gch1, Gphn, Haao, Hmbs, Hnf1a, Iba57, Ireb2, Kmo, Kynu, Lias, Lipt2, Mat1a, Mat2a, Mat2b, Mlycd, Mocos, Mocs1, Mocs2, Mocs3, Mthfd1, Mthfd1l, Mthfd2, Mthfd2l, Mthfs, Mthfsd, Nadk, Nadk2, Nadsyn1, Nampt, Naprt1, Nfs1, Nmnat1, Nmnat2, Nmnat3, Nmrk1, Nmrk2, Pank1, Pank2, Pank3, Pank4, Pcbd1, Pcbd2, Pdha1, Pdha2, Pdhb, Pdk1, Pdk2, Pdk3, Pdk4, Pdpk1, Pdss1, Pdss2, Pdxk, Ppcdc, Ppcs, Ppox, Pts, Qdpr, Qprt, Rsad1, Slc11a2, Slc25a39, Snca, Snx3, Spr, Spta1, Sptb, Tacr1, Tmem14c, Tpk1, Ubiad1, Urod, Uros, Vkorc1]	FALSE
GO:0051219	GO_MolecularFunction_20.03.2014_19h52	phosphoprotein binding	[3]	[None]	3	4.1666665	0.020649564903951714	0.02097221435557596	{None=NaN}	{None=NaN}	[Btrc, Cblb, Pde3b]	[Acp2, Aptx, Arr3, Arrb1, Bag1, Bbs1, Btrc, Cacnb1, Cacnb2, Cav2, Cbl, Cblb, Cblc, Cbx4, Cd44, Crk, Crmp1, Csnk1a1, Csnk1d, Csnk1g1, Csnk1g2, Csnk1g3, Dpys, Dpysl3, Dpysl4, Fgr, Fkbp4, Gprin1, Grb10, Grb14, Grb2, Igf2r, Ldlrap1, Lyn, Mapk1, Mapk3, Mid1, Mid2, Mpg, Ms4a1, Ms4a2, Mtor, Nedd4, Pafah1b1, Pde3b, Pik3r1, Pin1, Pitx2, Pkd2, Plcg1, Prkcsh, Ptpn3, Ptpn5, Ptpn6, Rb1, Rexo2, Rraga, Sag, Samsn1, Sfn, Sh2d1b1, Shc1, Sirpa, Snca, Src, Tbk1, Thrap3, Tox3, Trpv1, Ywhab, Ywhae, Zap70]	TRUE
GO:0071453	GO_BiologicalProcess_20.03.2014_19h52	cellular response to oxygen levels	[4]	[Group2]	3	5.4545455	0.010034212642136157	0.012078218921089819	{Group2=4.4724159203721913E-4}	{Group2=0.0010621987810883954}	[Fmn2, P4hb, Vegfa]	[Adam8, Adrb2, Ajuba, Akt1, Aqp1, Bach1, Bcl2, Bnip3, Brip1, Cav1, Cbs, Cd34, Cited2, Cpeb1, Cpeb2, Cpeb4, Epas1, Fabp1, Fam162a, Fas, Fmn2, Fndc1, Gata6, Gnb1, Gngt1, Hif1a, Hif1an, Higd1a, Kcnk3, Mgarp, Mtor, Myod1, Nkx3-1, Notch1, Nox1, Npepps, P4hb, Pdk1, Pdk3, Pdpk1, Pick1, Plk3, Prkce, Ptgis, Rgcc, Sirt1, Slc2a4, Slc9a1, Twist1, Ubqln1, Usp19, Vasn, Vegfa, Vhl, Vldlr]	FALSE
GO:0071456	GO_BiologicalProcess_20.03.2014_19h52	cellular response to hypoxia	[4, 6]	[Group2]	3	6.122449	0.007299885269067742	0.010095586010412834	{Group2=4.4724159203721913E-4}	{Group2=0.0010621987810883954}	[Fmn2, P4hb, Vegfa]	[Adam8, Adrb2, Ajuba, Akt1, Aqp1, Bach1, Bcl2, Bnip3, Brip1, Cbs, Cd34, Cited2, Cpeb1, Cpeb2, Epas1, Fabp1, Fam162a, Fmn2, Fndc1, Gata6, Gnb1, Gngt1, Hif1a, Hif1an, Higd1a, Kcnk3, Mgarp, Mtor, Nkx3-1, Notch1, Npepps, P4hb, Pdk1, Pdk3, Pdpk1, Plk3, Prkce, Ptgis, Rgcc, Sirt1, Slc2a4, Slc9a1, Twist1, Ubqln1, Usp19, Vasn, Vegfa, Vhl, Vldlr]	FALSE
GO:0072337	GO_BiologicalProcess_20.03.2014_19h52	modified amino acid transport	[5, 6, 7, 8, 9, 10]	[None]	3	13.043478	8.184783949706376E-4	0.002955616426282858	{None=NaN}	{None=NaN}	[Ctns, Slc19a1, Slc1a4]	[Abcc1, Abcc2, Crym, Ctns, Folr1, Folr2, Folr4, Pdpn, Slc16a2, Slc19a1, Slc19a3, Slc1a4, Slc22a16, Slc22a21, Slc22a4, Slc22a5, Slc22a8, Slc46a1, Slc5a6, Slc6a8, Slc9a3r1, Slco1a5, Slco4a1]	TRUE
GO:1902275	GO_BiologicalProcess_20.03.2014_19h52	regulation of chromatin organization	[5, 6]	[Group8]	4	4.0	0.008897542485256009	0.01112192810657001	{Group8=0.008897542485256009}	{Group8=0.01056583170124151}	[Arid5a, Ctcf, Ube2b, Vegfa]	[Aicda, Airn, Apobec1, Arid5a, Arrb1, Asxl2, Bcor, Brca1, Brd7, Cdk9, Chek1, Ctbp1, Ctcf, Ctcfl, Ctr9, Dmrtc2, Dnmt1, Dnmt3b, Dppa2, Eed, Eid1, Fendrr, Flcn, Foxp3, Fxyd1, Gata2, Gata3, Gfi1b, Hotair, Iws1, Jarid2, Jdp2, Kdm1a, Kdm3a, Kmt2a, Kmt2b, Lif, Lpin1, Mapk3, Mapk8, Mecp2, Men1, Msx3, Mtf2, Muc1, Myb, Myocd, Nap1l2, Ncor1, Nipbl, Noc2l, Nos1, Ogt, Otub1, Padi2, Parp10, Pax5, Pax7, Paxbp1, Paxip1, Phf1, Phf19, Pml, Pou5f1, Prkd1, Prkd2, Pygo2, Rnf20, Rps6ka4, Rps6ka5, Rtf1, Sin3a, Ski, Snai2, Snca, Snw1, Srebf1, Supt6, Tada2a, Tada3, Taf7, Tal1, Tcf21, Tet1, Tgfb1, Tlk1, Tlk2, Tom1l2, Tpr, Trip12, Trp53, Trps1, Twist1, Ube2b, Ubr5, Ucn, Vegfa, Wdr61, Zfp335, Znhit1]	FALSE
REACTOME:5416758	REACTOME_21.03.2014	Metabolism of nucleotides	[-1]	[Group9]	5	5.4945054	8.713765868249813E-4	0.0029810251654538837	{Group9=2.3867061961574367E-5}	{Group9=1.1336854431747825E-4}	[Cat, Dctd, Nudt16, Rrm2b, Tyms]	[100044298, 100045567, 100046344, 100046995, 100047005, 100048375, 630729, Ada, Adal, Adk, Adsl, Adss, Adssl1, Agxt2, Ak1, Ak2, Ak5, Ampd2, Ampd3, Aprt, Atic, Cad, Cat, Cda, Cmpk1, Ctps, Ctps2, Dck, Dctd, Dguok, Dhodh, Dpyd, Dpys, Dtymk, Dut, Gart, Gda, Glrx, Gm15210, Gm4482, Gm5566, Gm6091, Gm7282, Gmpr, Gmpr2, Gmps, Gpx1, Gsr, Guk1, Hprt, Impdh1, Impdh2, Itpa, Ldha, Nme1, Nme2, Nme4, Nt5c, Nt5c1a, Nt5c1b, Nt5c2, Nt5c3, Nt5e, Nt5m, Nudt1, Nudt15, Nudt16, Nudt18, Nudt5, Nudt9, Paics, Pfas, Pnp, Pnp2, Ppat, Rrm1, Rrm2, Rrm2b, Tk1, Tk2, Txn1, Txnrd1, Tymp, Tyms, Uck1, Uck2, Umps, Upb1, Upp1, Upp2, Xdh]	FALSE
REACTOME:5416759	REACTOME_21.03.2014	Detoxification of Reactive Oxygen Species	[-1]	[Group15]	4	10.526316	2.4696665381399697E-4	0.001234833269069985	{Group15=0.0013341163813561279}	{Group15=0.0021123509371472025}	[Cat, Cycs, P4hb, Prdx6]	[100044101, 100045925, 100046536, 545845, 630729, Aqp8, Atox1, Cat, Ccs, Cycs, Ero1l, Gm10053, Gm10108, Gm3934, Gm7204, Gm8566, Gpx1, Gpx2, Gpx3, Gpx7, Gpx8, Gsr, Gstp1, Gstp2, P4hb, Prdx1, Prdx2, Prdx3, Prdx5, Prdx6, Prdx6b, Sod1, Sod2, Sod3, Txn1, Txn2, Txnrd1, Txnrd2]	TRUE
REACTOME:5416898	REACTOME_21.03.2014	Triglyceride Biosynthesis	[-1]	[Group18]	3	8.1081085	0.0033046429784119547	0.006317699811669914	{Group18=6.345784890692751E-4}	{Group18=0.0013396656991462473}	[Agpat5, Elovl6, Gpam]	[100043671, Acaca, Acly, Acsl1, Acsl4, Acsl5, Acsl6, Agpat1, Agpat2, Agpat3, Agpat4, Agpat5, Agpat6, Agpat9, Dgat1, Dgat2, Elovl1, Elovl2, Elovl3, Elovl4, Elovl5, Elovl6, Elovl7, Fasn, Gpam, Gpd1, Gpd1l, Gyk, Gykl1, Hsd17b12, Lclat1, Lpcat1, Lpcat4, Lpin1, Lpin2, Slc25a1, Tecr]	TRUE
REACTOME:5416907	REACTOME_21.03.2014	Glycerophospholipid biosynthesis	[-1]	[Group18]	4	4.5454545	0.005701354814509898	0.00882352530817008	{Group18=6.345784890692751E-4}	{Group18=0.0013396656991462473}	[Agpat5, Gpam, Gpcpd1, Pcyt1a]	[100044576, 100045163, 100048492, 100048852, Ache, Agpat1, Agpat2, Agpat3, Agpat4, Agpat5, Agpat6, Agpat9, Cdipt, Cds1, Cds2, Cept1, Chat, Chka, Chkb, Chpt1, Crls1, Dgat1, Dgat2, Ept1, Etnk1, Gm13910, Gnpat, Gpam, Gpat2, Gpcpd1, Gpd1, Gpd1l, Hadha, Hadhb, Lclat1, Lpcat1, Lpcat2, Lpcat3, Lpcat4, Lpgat1, Lpin1, Lpin2, Lpin3, Mboat1, Mboat2, Mboat7, Mgll, Pcyt1a, Pcyt1b, Pcyt2, Pemt, Pgs1, Phospho1, Pisd, Pitpnb, Pla2g10, Pla2g12a, Pla2g16, Pla2g1b, Pla2g2d, Pla2g2e, Pla2g2f, Pla2g3, Pla2g4a, Pla2g4c, Pla2g4d, Pla2g4f, Pla2g5, Pla2g6, Plb1, Plbd1, Pld1, Pld2, Pld3, Pld4, Pld6, Pnpla2, Pnpla3, Pnpla8, Ptdss1, Ptdss2, Ptpmt1, Slc44a1, Slc44a2, Slc44a3, Slc44a4, Slc44a5, Taz]	FALSE
REACTOME:5417627	REACTOME_21.03.2014	Circadian Clock	[-1]	[Group14]	4	6.779661	0.0013341163813561279	0.003468702591525932	{Group14=7.715666624015321E-4}	{Group14=0.001465976658562911}	[Bhlhe40, Btrc, Ccrn4l, Csnk1e]	[100044566, 100047069, 100047134, 100048334, 100048669, 634943, 639567, Arntl, Arntl2, Avp, Bhlhe40, Bhlhe41, Btrc, Carm1, Ccrn4l, Chd9, Clock, Cpt1a, Crebbp, Cry1, Cry2, Csnk1d, Csnk1e, Dbp, Elovl3, F7, Fbxl3, Gm11517, Gm11759, Gm11808, Gm13215, Gm5117, Gm7808, Gm8430, Hdac3, Helz2, Hif1a, Med1, Nampt, Ncoa1, Ncoa2, Ncoa6, Npas2, Nr1d1, Nr3c1, Per1, Per2, Ppara, Ppargc1a, Rora, Rps27a, Rps27a-ps2, Rxra, Smarcd3, Srebf1, Tbl1x, Tbl1xr1, Tgs1, Uba52]	TRUE
