GOID	Ontology Source	GOTerm	GOLevels	GOGroups	Nr. Genes	% Associated Genes	Term PValue	Term PValue Corrected with Benjamini-Hochberg	Group PValue	Group PValue Corrected with Benjamini-Hochberg	Associated Genes Found	All Associated Genes	OverViewTerm
WP:65	WikiPathways_21.03.2014	Insulin Signaling	[-1]	[Group2]	7	4.43038	3.288493260957166E-4	0.0015862143964616919	{Group2=7.43395994630947E-5}	{Group2=1.8584899865773676E-4}	[Cblb, Cyth3, Eif4e, Foxo1, Gsk3b, Pfkl, Ptpn1]	[100503639, Akt1, Akt2, Arf1, Arf6, Arhgap33, Cap1, Cbl, Cblb, Cblc, Crk, Cyth3, Egr1, Ehd1, Ehd2, Eif4e, Eif4ebp1, Elk1, Enpp1, Flot1, Flot2, Fos, Foxo1, Foxo3, Gab1, Grb10, Grb14, Grb2, Gsk3b, Gyg, Gys1, Gys2, Hras, Igf1r, Ikbkb, Inpp4a, Inppl1, Insr, Irs1, Irs3, Irs4, Jun, Kif3a, Kif5b, Lipe, Map2k1, Map2k2, Map2k3, Map2k4, Map2k5, Map2k6, Map2k7, Map3k1, Map3k10, Map3k11, Map3k12, Map3k13, Map3k14, Map3k2, Map3k3, Map3k4, Map3k5, Map3k6, Map3k7, Map3k8, Map3k9, Map4k1, Map4k2, Map4k3, Map4k4, Map4k5, Mapk1, Mapk10, Mapk11, Mapk12, Mapk13, Mapk14, Mapk3, Mapk4, Mapk6, Mapk7, Mapk8, Mapk9, Mink1, Mtor, Myo1c, Pdpk1, Pfkl, Pfkm, Pik3c2a, Pik3c2g, Pik3c3, Pik3ca, Pik3cb, Pik3cd, Pik3cg, Pik3r1, Pik3r2, Pik3r3, Pik3r4, Ppp1cc, Prkaa1, Prkaa2, Prkca, Prkcb, Prkcd, Prkch, Prkci, Prkcq, Prkcz, Pten, Ptpn1, Ptpn11, Ptprf, Rab4a, Rac1, Rac2, Raf1, Rapgef1, Rheb, Rhoj, Rhoq, Rps6ka1, Rps6ka2, Rps6ka3, Rps6ka4, Rps6ka5, Rps6ka6, Rps6kb1, Rps6kb2, Rrad, Sgk1, Sgk2, Sh2b2, Shc1, Shc2, Shc3, Slc2a1, Slc2a4, Snap23, Snap25, Socs1, Socs3, Sorbs1, Sos1, Sos2, Srf, Stx4a, Stxbp1, Stxbp2, Stxbp3a, Stxbp4, Tbc1d4, Trib3, Tsc1, Tsc2, Vamp2, Xbp1]	TRUE
KEGG:00240	KEGG_21.03.2014	Pyrimidine metabolism	[-1]	[Group12]	7	6.7961164	2.2290685041233773E-5	4.5695904334529236E-4	{Group12=8.381153552084281E-8}	{Group12=1.2571730328126422E-6}	[Ctps, Ctps2, Dctd, Dhodh, Entpd1, Entpd5, Tyms]	[4933425L06Rik, Ak3, Cad, Cant1, Cda, Cmpk1, Cmpk2, Ctps, Ctps2, Dck, Dctd, Dctpp1, Dhodh, Dpyd, Dpys, Dtymk, Dut, Entpd1, Entpd3, Entpd4, Entpd5, Entpd6, Entpd8, Gm21685, Itpa, LOC100862456, Nme1, Nme2, Nme3, Nme4, Nme5, Nme6, Nme7, Nt5c, Nt5c1a, Nt5c1b, Nt5c2, Nt5c3, Nt5c3b, Nt5e, Nt5m, Nudt2, Pnp, Pnp2, Pnpt1, Pola1, Pola2, Pold1, Pold2, Pold3, Pold4, Pole, Pole2, Pole3, Pole4, Polr1a, Polr1b, Polr1c, Polr1d, Polr1e, Polr2a, Polr2b, Polr2c, Polr2d, Polr2e, Polr2f, Polr2g, Polr2h, Polr2i, Polr2j, Polr2l, Polr3a, Polr3b, Polr3c, Polr3d, Polr3e, Polr3f, Polr3g, Polr3gl, Polr3h, Polr3k, Prim1, Prim2, Rrm1, Rrm2, Rrm2b, Tk1, Tk2, Twistnb, Txnrd1, Txnrd2, Txnrd3, Tymp, Tyms, Uck1, Uck2, Uckl1, Umps, Upb1, Upp1, Upp2, Uprt, Znrd1]	FALSE
WP:297	WikiPathways_21.03.2014	IL-7 Signaling Pathway	[-1]	[Group2, Group3]	4	8.695652	5.378378315758927E-4	0.0019175087908357912	{Group2=7.43395994630947E-5, Group3=4.641383980741558E-7}	{Group2=1.8584899865773676E-4, Group3=3.4810379855561684E-6}	[Cblb, Foxo1, Gsk3b, Jak3]	[640611, Akt1, Bad, Bax, Bcl2l11, Blk, Cbl, Cblb, Ccna2, Ccnd2, Cdk2, Cdk4, Cltc, Foxo1, Foxo3, Fyn, Gm11787, Grb2, Gsk3b, Hras, Il2rg, Il7r, Irf1, Irs1, Irs2, Jak1, Jak3, Lyn, Map2k1, Map2k2, Mapk1, Mapk3, Mcl1, Muc1, Pik3r1, Ptk2b, Raf1, Rb1, Shc1, Sos1, Stam, Stam2, Stat1, Stat3, Stat5a, Stat5b]	FALSE
WP:307	WikiPathways_21.03.2014	Translation Factors	[-1]	[None]	3	5.263158	0.011344828555900648	0.013482260022954395	{None=NaN}	{None=NaN}	[Eif1a, Eif4e, Etf1]	[100047658, 631966, Eef1a1, Eef1a2, Eef1b2, Eef1d, Eef1g, Eef2, Eef2k, Eif1, Eif1a, Eif2ak1, Eif2ak2, Eif2ak3, Eif2b1, Eif2b2, Eif2b3, Eif2b4, Eif2b5, Eif2s1, Eif2s2, Eif2s3x, Eif2s3y, Eif3a, Eif3b, Eif3c, Eif3d, Eif3e, Eif3f, Eif3g, Eif3h, Eif3i, Eif3j1, Eif4a1, Eif4a2, Eif4b, Eif4e, Eif4ebp1, Eif4ebp2, Eif4ebp3, Eif4g1, Eif4g2, Eif4g3, Eif4h, Eif5, Eif5a, Eif6, Etf1, Gm10713, Gm2223, Gm5450, Gm5471, Gm6428, Gm9892, Pabpc1, Pabpc2, Paip1]	TRUE
WP:387	WikiPathways_21.03.2014	IL-6 signaling Pathway	[-1]	[Group2]	4	4.0	0.009189037110120049	0.011080897691615353	{Group2=7.43395994630947E-5}	{Group2=1.8584899865773676E-4}	[Casp9, Eif4e, Foxo1, Gsk3b]	[Akt1, Ar, Bad, Bmx, Btk, Casp3, Casp9, Cd40, Cdk5, Cdk5r1, Cdk9, Cebpb, Crebbp, Daxx, Eif2a, Eif4e, Eif4ebp1, Ep300, Erbb2, Erbb3, Fes, Fgr, Fos, Foxo1, Foxo3, Foxo4, Fyn, Gab1, Gab2, Gm11787, Grb2, Gsk3b, Hck, Hdac1, Hnf1a, Hras, Hsp90aa1, Hspb1, Il6, Il6ra, Il6st, Inpp5d, Inppl1, Jak1, Jak2, Jun, Lyn, Map2k1, Map2k2, Map2k4, Map2k6, Map3k4, Map3k7, Mapk1, Mapk14, Mapk3, Mapk8, Mapkapk2, Mapt, Ncoa1, Nfkb1, Nlk, Pik3r1, Pik3r2, Plcg1, Ppp2ca, Ppp2cb, Ppp2r1a, Ppp2r1b, Ppp2r2a, Ppp2r2b, Ppp2r2c, Ppp2r3a, Ppp2r4, Ppp2r5a, Ppp2r5b, Ppp2r5c, Ppp2r5d, Ppp2r5e, Prkcd, Ptk2, Ptk2b, Ptpn11, Pxn, Rac1, Raf1, Rb1, Rps6ka2, Rps6kb1, Sgk1, Shc1, Socs3, Sos1, Stat1, Stat3, Stat5a, Stat5b, Tec, Tyk2, Vav1]	FALSE
WP:450	WikiPathways_21.03.2014	IL-2 Signaling Pathway	[-1]	[Group13, Group3]	4	5.194805	0.003664863466596894	0.005670166118131043	{Group13=9.919485215274963E-6, Group3=4.641383980741558E-7}	{Group13=3.719806955728111E-5, Group3=3.4810379855561684E-6}	[Bcl2, Eif4e, Il2ra, Jak3]	[Akt1, Bcl2, Cbl, Cd53, Chuk, Cish, Creb1, Crk, Crkl, Eif3b, Eif4e, Ets1, Ets2, Foxo3, Fyn, Gab2, Gm11787, Gnb2l1, Grb2, Hsp90aa1, Icam1, Ifna1, Il2, Il2ra, Il2rb, Il2rg, Irs1, Irs2, Itm2b, Jak1, Jak2, Jak3, Kras, Lck, Lyn, Map2k1, Map2k2, Mapk1, Mapk14, Mapk3, Mapk8, Mapk9, Mapkapk2, Mknk1, Mtor, Nfkb1, Nmi, Nr3c1, Pik3ca, Pik3cb, Pik3cd, Pik3cg, Pik3r1, Pik3r2, Plcb1, Prkcz, Ptk2b, Ptpn11, Ptpn6, Raf1, Rela, Rps6kb1, Shb, Shc1, Socs1, Socs3, Sos1, Stam, Stam2, Stat1, Stat3, Stat5a, Stat5b, Syk, Tert, Vav1, Ybx1]	FALSE
WP:571	WikiPathways_21.03.2014	FAS pathway and Stress induction of HSP regulation	[-1]	[Group2]	3	8.1081085	0.003393375316709435	0.005565135519403474	{Group2=7.43395994630947E-5}	{Group2=1.8584899865773676E-4}	[Bcl2, Casp6, Casp9]	[Apaf1, Arhgdib, Bcl2, Casp3, Casp6, Casp7, Casp8, Casp9, Cflar, Daxx, Dffa, Dffb, Fadd, Faf1, Fas, Fasl, Gstt2, Hspb1, Il1a, Jun, Lmna, Lmnb1, Lmnb2, Map2k4, Map3k1, Map3k7, Mapk8, Mapkapk2, Mapkapk3, Pak1, Pak2, Parp1, Prkdc, Rb1, Ripk2, Sptan1, Tnf]	FALSE
WP:1496	WikiPathways_21.03.2014	Oxidative Damage	[-1]	[Group2]	3	16.666666	3.9938266492575095E-4	0.0016374689261955788	{Group2=7.43395994630947E-5}	{Group2=1.8584899865773676E-4}	[Bcl2, Casp9, Cycs]	[Apaf1, Bad, Bak1, Bcl2, Casp3, Casp9, Cycs, Cyct, Gm10053, Map2k4, Map3k1, Mapk10, Nfkbie, Tnf, Tnfrsf1b, Traf1, Traf2, Traf3]	FALSE
GO:0001938	GO_BiologicalProcess_20.03.2014_19h52	positive regulation of endothelial cell proliferation	[5, 6, 7]	[Group14]	3	5.0	0.013034284083511906	0.014844601317333003	{Group14=0.0013230233016835779}	{Group14=0.0019845349525253668}	[Plxnb3, Rictor, Vegfa]	[Acvrl1, Aggf1, Akt1, Ang, Arg1, Bmp2, Bmp4, Bmp6, Bmpr2, Cav1, Cav2, Ccl11, Ccl2, Ccl24, Ccr3, Cdh13, Cxcl12, Cyba, Ecm1, Egfl7, Egr3, F3, Fgf2, Fgfr3, Flt4, Gdf2, Hmgb2, Htr2b, Itgb3, Jun, Kdr, Lrg1, Mtor, Nf1, Nprl3, Nr4a1, Nrarp, Olfr54, Pdcd6, Pdcl3, Pdgfb, Pgf, Plxnb3, Pold4, Prkca, Prkd1, Prkd2, Prox1, Rictor, Rptor, Scg2, Sema5a, Thbs4, Tinagl1, Vash2, Vegfa, Vip, Wnt2, Wnt5a, Zfp580]	FALSE
GO:0001952	GO_BiologicalProcess_20.03.2014_19h52	regulation of cell-matrix adhesion	[5, 6]	[Group0, Group13, Group2, Group6]	3	4.6875	0.015498677103015923	0.016945220299297407	{Group0=8.153731079442554E-7, Group13=9.919485215274963E-6, Group2=7.43395994630947E-5, Group6=0.0011433840604660988}	{Group0=4.076865539721277E-6, Group13=3.719806955728111E-5, Group2=1.8584899865773676E-4, Group6=0.0019056401007768314}	[Bcl2, Gsk3b, Vegfa]	[Acer2, Acvrl1, Apod, Arhgap6, Bcl2, Bcl6, Cask, Cd36, Cdh13, Cdk6, Cdkn2a, Cib1, Csf1, Ddr1, Disc1, Dmd, Dmtn, Efna5, Emp2, Epb4.1l5, Epha1, Epha3, Gpm6b, Grem1, Gsk3b, Hoxa7, Hrg, Ilk, Itgb1bp1, Kdr, Macf1, Mink1, Mmp14, Muc4, Myf5, Nf1, Onecut1, Onecut2, Pik3cb, Pik3r1, Plau, Plekha2, Plet1, Ppm1f, Prkcz, Pten, Ptk2b, Ptprj, Rasa1, Rock1, S100a10, Sdc4, Sema3e, Serpine1, Smad3, Src, Tdgf1, Tek, Thbs1, Tsc1, Utrn, Vegfa, Vegfc, Wnt4]	FALSE
GO:0002429	GO_ImmuneSystemProcess_20.03.2014_19h52	immune response-activating cell surface receptor signaling pathway	[3, 5, 6]	[Group3]	7	6.730769	2.373553602114261E-5	3.8926279074673884E-4	{Group3=4.641383980741558E-7}	{Group3=3.4810379855561684E-6}	[Bcl2, Cblb, Cr2, Elf1, Klhl6, Stoml2, Traf6]	[Ada, Bax, Bcar1, Bcl10, Bcl2, Bcl2a1d, Bik, Blk, Btnl2, C3ar1, C5ar1, Cacnb3, Cacnb4, Cblb, Ccr7, Cd19, Cd226, Cd247, Cd28, Cd300a, Cd38, Cd3e, Cd79a, Cd79b, Clec2i, Clec7a, Cr2, Csk, Ctla4, Dusp3, Efna2, Elf1, Fcer1g, Fcrl5, Foxp3, Fyn, Gata3, Gcsam, Gpld1, Ighm, Itk, Kcnn4, Klhl6, Klre1, Klrk1, Lat2, Lax1, Lck, Lime1, Lpxn, Lyn, Malt1, Mapk1, Mef2c, Mill2, Nckap1l, Nfam1, Nfatc2, Nkx3-1, Pawr, Pde4b, Pde4d, Phpt1, Plcg1, Plcg2, Plcl2, Plekha1, Plscr1, Prkcb, Prkch, Prkd2, Prnp, Psen1, Psen2, Ptpn2, Ptpn22, Ptpn6, Ptprc, Ptprj, Rabgef1, Rbck1, Rc3h1, Ripk2, Rltpr, Rnf31, Sh2b2, Skap1, Stk11, Stoml2, Syk, Tec, Tespa1, Themis, Themis2, Thy1, Tlr2, Tnfrsf21, Traf6, Trat1, Txk, Ubash3a, Ube2n, Vav3, Zap70]	TRUE
GO:0002768	GO_ImmuneSystemProcess_20.03.2014_19h52	immune response-regulating cell surface receptor signaling pathway	[4]	[Group3]	7	5.982906	5.0677987312430606E-5	4.617327732910344E-4	{Group3=4.641383980741558E-7}	{Group3=3.4810379855561684E-6}	[Bcl2, Cblb, Cr2, Elf1, Klhl6, Stoml2, Traf6]	[Ada, Bax, Bcar1, Bcl10, Bcl2, Bcl2a1d, Bik, Blk, Btla, Btnl2, C3ar1, C5ar1, Cacnb3, Cacnb4, Cblb, Ccr7, Cd19, Cd226, Cd247, Cd28, Cd300a, Cd38, Cd3e, Cd40, Cd79a, Cd79b, Clec2i, Clec7a, Cr2, Csk, Ctla4, Dusp3, Efna2, Elf1, Fcer1a, Fcer1g, Fcgr1, Fcgr3, Fcgrt, Fcrl5, Fert2, Foxp3, Fyn, Gata3, Gcsam, Gpld1, H2-M3, Ighm, Itk, Kcnn4, Kit, Klhl6, Klre1, Klrk1, Lat2, Lax1, Lck, Lime1, Lpxn, Lyn, Malt1, Mapk1, Mef2c, Mill2, Ms4a1, Ms4a2, Nckap1l, Nfam1, Nfatc2, Nkx3-1, Pawr, Pde4b, Pde4d, Phpt1, Pigr, Plcg1, Plcg2, Plcl2, Plekha1, Plscr1, Prkcb, Prkch, Prkd2, Prnp, Psen1, Psen2, Ptpn2, Ptpn22, Ptpn6, Ptprc, Ptprj, Rabgef1, Rbck1, Rc3h1, Ripk2, Rltpr, Rnf31, Sh2b2, Sh2d1b1, Skap1, Stk11, Stoml2, Syk, Tec, Tespa1, Themis, Themis2, Thy1, Tlr2, Tnfrsf21, Traf6, Trat1, Txk, Ubash3a, Ube2n, Vav3, Zap70]	FALSE
KEGG:04066	KEGG_21.03.2014	HIF-1 signaling pathway	[-1]	[Group0, Group13, Group14, Group3, Group8]	5	4.385965	0.0024678469529706153	0.004496965558746454	{Group0=8.153731079442554E-7, Group13=9.919485215274963E-6, Group14=0.0013230233016835779, Group3=4.641383980741558E-7, Group8=3.3507152677295196E-4}	{Group0=4.076865539721277E-6, Group13=3.719806955728111E-5, Group14=0.0019845349525253668, Group3=3.4810379855561684E-6, Group8=6.28259112699285E-4}	[Bcl2, Eif4e, Ldha, Pfkl, Vegfa]	[100048117, 101056616, 1300017J02Rik, Akt1, Akt2, Akt3, Aldoa, Angpt1, Angpt2, Angpt4, Arnt, Bcl2, Camk2a, Camk2b, Camk2d, Camk2g, Cdkn1a, Cdkn1b, Crebbp, Cul2, Cybb, Edn1, Egf, Egfr, Egln1, Egln2, Egln3, Eif4e, Eif4e1b, Eif4e2, Eif4ebp1, Eno1, Eno2, Eno3, Ep300, Epo, Erbb2, Flt1, Gapdh, Gm20899, Gm5506, Gm9840, Hif1a, Hk1, Hk2, Hk3, Hkdc1, Hmox1, Ifng, Ifngr1, Ifngr2, Igf1, Igf1r, Il6, Il6ra, Ins1, Ins2, Insr, Ldha, Ltbr, Map2k1, Map2k2, Mapk1, Mapk3, Mknk1, Mknk2, Mtor, Nfkb1, Nos2, Nos3, Nox1, Nox3, Nppa, Pdha1, Pdha2, Pdhb, Pdk1, Pfkfb1, Pfkfb2, Pfkfb3, Pfkfb4, Pfkl, Pgk1, Pik3ca, Pik3cb, Pik3cd, Pik3cg, Pik3r1, Pik3r2, Pik3r3, Pik3r5, Plcg1, Plcg2, Prkca, Prkcb, Prkcg, Rbx1, Rela, Rps6, Rps6-ps4, Rps6kb1, Rps6kb2, Serpine1, Slc2a1, Stat3, Tceb1, Tceb2, Tek, Tfrc, Timp1, Tlr4, Trf, Vegfa, Vhl]	TRUE
KEGG:04115	KEGG_21.03.2014	p53 signaling pathway	[-1]	[Group2]	3	4.347826	0.018923336383212527	0.019641944093967433	{Group2=7.43395994630947E-5}	{Group2=1.8584899865773676E-4}	[Casp9, Ccne2, Cycs]	[640611, Apaf1, Atm, Atr, Bai1, Bax, Bbc3, Bid, Casp3, Casp8, Casp9, Ccnb1, Ccnb2, Ccnb3, Ccnd1, Ccnd2, Ccnd3, Ccne1, Ccne2, Ccng1, Ccng2, Cd82, Cdk1, Cdk2, Cdk4, Cdk6, Cdkn1a, Cdkn2a, Chek1, Chek2, Cycs, Cyct, Ddb2, Ei24, Fas, Gadd45a, Gadd45b, Gadd45g, Gm5593, Gtse1, Igf1, Igfbp3, Lrdd, Mdm2, Mdm4, Perp, Pmaip1, Ppm1d, Pten, Rchy1, Rfwd2, Rprm, Rrm2, Rrm2b, Serpinb5, Serpine1, Sesn1, Sesn2, Sesn3, Sfn, Shisa5, Siah1a, Siah1b, Steap3, Thbs1, Trp53, Trp73, Tsc2, Zmat3]	FALSE
KEGG:04150	KEGG_21.03.2014	mTOR signaling pathway	[-1]	[Group13, Group14]	3	4.83871	0.01423605928726901	0.01599118988432957	{Group13=9.919485215274963E-6, Group14=0.0013230233016835779}	{Group13=3.719806955728111E-5, Group14=0.0019845349525253668}	[Eif4e, Rictor, Vegfa]	[Akt1, Akt1s1, Akt2, Akt3, Braf, Cab39, Cab39l, Ddit4, Eif4b, Eif4e, Eif4e1b, Eif4e2, Eif4ebp1, Hif1a, Igf1, Ikbkb, Ins1, Ins2, Irs1, Mapk1, Mapk3, Mlst8, Mtor, Pdpk1, Pik3ca, Pik3cb, Pik3cd, Pik3cg, Pik3r1, Pik3r2, Pik3r3, Pik3r5, Prkaa1, Prkaa2, Prkca, Prkcb, Prkcg, Pten, Rheb, Rictor, Rps6, Rps6-ps4, Rps6ka1, Rps6ka2, Rps6ka3, Rps6ka6, Rps6kb1, Rps6kb2, Rptor, Rraga, Rragb, Rragc, Rragd, Stk11, Strada, Tnf, Tsc1, Tsc2, Ulk1, Ulk2, Ulk3, Vegfa]	FALSE
KEGG:04210	KEGG_21.03.2014	Apoptosis	[-1]	[Group2]	4	4.878049	0.004589706792891734	0.006720642089591467	{Group2=7.43395994630947E-5}	{Group2=1.8584899865773676E-4}	[Bcl2, Casp6, Casp9, Cycs]	[Aifm1, Akt1, Akt2, Akt3, Apaf1, Atm, Bad, Bax, Bcl2, Bcl2l1, Bid, Birc2, Birc3, Birc7, Capn1, Capn2, Casp12, Casp3, Casp6, Casp7, Casp8, Casp9, Cflar, Chuk, Csf2rb, Csf2rb2, Cycs, Cyct, Dffa, Dffb, Endog, Fadd, Fas, Fasl, Ikbkb, Ikbkg, Il1a, Il1b, Il1r1, Il1rap, Il3, Il3ra, Irak1, Irak2, Irak3, Irak4, Map3k14, Myd88, Nfkb1, Nfkbia, Ngf, Ntrk1, Pik3ca, Pik3cb, Pik3cd, Pik3cg, Pik3r1, Pik3r2, Pik3r3, Pik3r5, Ppp3ca, Ppp3cb, Ppp3cc, Ppp3r1, Ppp3r2, Prkaca, Prkacb, Prkar1a, Prkar1b, Prkar2a, Prkar2b, Prkx, Rela, Ripk1, Tnf, Tnfrsf10b, Tnfrsf1a, Tnfsf10, Tradd, Traf2, Trp53, Xiap]	FALSE
KEGG:04910	KEGG_21.03.2014	Insulin signaling pathway	[-1]	[Group2]	6	4.195804	0.001162893776586074	0.002724493990858802	{Group2=7.43395994630947E-5}	{Group2=1.8584899865773676E-4}	[Acaca, Cblb, Eif4e, Foxo1, Gsk3b, Ptpn1]	[Acaca, Acacb, Akt1, Akt2, Akt3, Araf, Bad, Braf, Calm1, Calm2, Calm3, Calm4, Calm5, Calml3, Cbl, Cblb, Cblc, Crk, Crkl, Eif4e, Eif4e1b, Eif4e2, Eif4ebp1, Elk1, Exoc7, Fasn, Fbp1, Fbp2, Flot1, Flot2, Foxo1, G6pc, G6pc2, G6pc3, Gck, Grb2, Gsk3b, Gys1, Gys2, Hk1, Hk2, Hk3, Hkdc1, Hras, Ikbkb, Inpp5k, Inppl1, Ins1, Ins2, Insr, Irs1, Irs2, Irs3, Irs4, Kras, Lipe, Map2k1, Map2k2, Mapk1, Mapk10, Mapk3, Mapk8, Mapk9, Mknk1, Mknk2, Mtor, Nras, Pck1, Pck2, Pde3a, Pde3b, Pdpk1, Phka1, Phka2, Phkb, Phkg1, Phkg2, Pik3ca, Pik3cb, Pik3cd, Pik3cg, Pik3r1, Pik3r2, Pik3r3, Pik3r5, Pklr, Ppargc1a, Ppp1ca, Ppp1cb, Ppp1cc, Ppp1r3a, Ppp1r3b, Ppp1r3c, Ppp1r3d, Ppp1r3e, Ppp1r3f, Prkaa1, Prkaa2, Prkab1, Prkab2, Prkaca, Prkacb, Prkag1, Prkag2, Prkag3, Prkar1a, Prkar1b, Prkar2a, Prkar2b, Prkci, Prkcz, Prkx, Ptpn1, Ptprf, Pygb, Pygl, Pygm, Raf1, Rapgef1, Rheb, Rhoq, Rps6, Rps6-ps4, Rps6kb1, Rps6kb2, Rptor, Sh2b2, Shc1, Shc2, Shc3, Shc4, Slc2a4, Socs1, Socs2, Socs3, Socs4, Sorbs1, Sos1, Sos2, Srebf1, Trip10, Tsc1, Tsc2]	FALSE
KEGG:05014	KEGG_21.03.2014	Amyotrophic lateral sclerosis (ALS)	[-1]	[Group2]	3	5.769231	0.008826693111114038	0.010802818434497779	{Group2=7.43395994630947E-5}	{Group2=1.8584899865773676E-4}	[Bcl2, Casp9, Cycs]	[Als2, Apaf1, Bad, Bax, Bcl2, Bcl2l1, Bid, Casp1, Casp12, Casp3, Casp9, Cat, Ccs, Cycs, Cyct, Daxx, Derl1, Gpx1, Gria1, Gria2, Grin1, Grin2a, Grin2b, Grin2c, Grin2d, Map2k3, Map2k6, Map3k5, Mapk11, Mapk12, Mapk13, Mapk14, Nefh, Nefl, Nefm, Nos1, Ppp3ca, Ppp3cb, Ppp3cc, Ppp3r1, Ppp3r2, Prph, Rab5a, Rac1, Slc1a2, Sod1, Tnf, Tnfrsf1a, Tnfrsf1b, Tomm40, Tomm40l, Trp53]	FALSE
KEGG:05162	KEGG_21.03.2014	Measles	[-1]	[Group2, Group3]	6	4.285714	0.0010423884148924771	0.002671120313161973	{Group2=7.43395994630947E-5, Group3=4.641383980741558E-7}	{Group2=1.8584899865773676E-4, Group3=3.4810379855561684E-6}	[Cblb, Ccne2, Gsk3b, Il2ra, Jak3, Traf6]	[100047957, 640611, Adar, Akt1, Akt2, Akt3, Bbc3, Cblb, Ccnd1, Ccnd2, Ccnd3, Ccne1, Ccne2, Cd209a, Cd209b, Cd209c, Cd209d, Cd209e, Cd209f, Cd209g, Cd28, Cd3d, Cd3e, Cd3g, Cd46, Cdk2, Cdk4, Cdk6, Cdkn1b, Chuk, Csnk2a1, Csnk2a2, Csnk2b, Ddx58, Dok1, Eif2ak1, Eif2ak2, Eif2ak3, Eif2ak4, Eif2s1, Eif3h, Fas, Fasl, Fcgr2b, Fyn, Gm12597, Gnb2l1, Gsk3b, Hspa1a, Hspa1b, Hspa1l, Hspa2, Hspa8, Ifih1, Ifna1, Ifna11, Ifna12, Ifna13, Ifna14, Ifna2, Ifna4, Ifna5, Ifna6, Ifna7, Ifna9, Ifnab, Ifnar1, Ifnar2, Ifnb1, Ifng, Ifngr1, Ifngr2, Igh-VJ558, Ikbke, Il12a, Il12b, Il13, Il1a, Il1b, Il2, Il2ra, Il2rb, Il2rg, Il4, Il6, Irak1, Irak4, Irf3, Irf7, Irf9, Jak1, Jak2, Jak3, Map3k7, Mavs, Msn, Mx2, Myd88, Nfkb1, Nfkbia, Nfkbib, Oas1a, Oas1b, Oas1g, Oas2, Oas3, Pik3ca, Pik3cb, Pik3cd, Pik3cg, Pik3r1, Pik3r2, Pik3r3, Pik3r5, Prkcq, Rab9, Rab9b, Rchy1, Rela, Sh2d1a, Slamf1, Stat1, Stat2, Stat3, Stat5a, Stat5b, Tab2, Tacr1, Tbk1, Tlr2, Tlr4, Tlr7, Tlr9, Tnfaip3, Tnfrsf10b, Tnfsf10, Traf6, Trp53, Trp73, Tyk2]	FALSE
KEGG:05210	KEGG_21.03.2014	Colorectal cancer	[-1]	[Group0, Group2]	4	6.25	0.0018680466394537189	0.0037360932789074377	{Group0=8.153731079442554E-7, Group2=7.43395994630947E-5}	{Group0=4.076865539721277E-6, Group2=1.8584899865773676E-4}	[Bcl2, Casp9, Cycs, Gsk3b]	[4930544G11Rik, Akt1, Akt2, Akt3, Apc, Apc2, Appl1, Araf, Axin1, Axin2, Bad, Bax, Bcl2, Birc5, Braf, Casp3, Casp9, Ccnd1, Ctnnb1, Cycs, Cyct, Dcc, Fos, Gsk3b, Jun, Kras, Lef1, Map2k1, Mapk1, Mapk10, Mapk3, Mapk8, Mapk9, Mlh1, Msh2, Msh3, Msh6, Myc, Pik3ca, Pik3cb, Pik3cd, Pik3cg, Pik3r1, Pik3r2, Pik3r3, Pik3r5, Rac1, Rac2, Rac3, Raf1, Ralgds, Rhoa, Smad2, Smad3, Smad4, Tcf7, Tcf7l1, Tcf7l2, Tgfb1, Tgfb2, Tgfb3, Tgfbr1, Tgfbr2, Trp53]	FALSE
KEGG:05215	KEGG_21.03.2014	Prostate cancer	[-1]	[Group0, Group2]	5	5.6179776	8.219827817696239E-4	0.002246752936836972	{Group0=8.153731079442554E-7, Group2=7.43395994630947E-5}	{Group0=4.076865539721277E-6, Group2=1.8584899865773676E-4}	[Bcl2, Casp9, Ccne2, Foxo1, Gsk3b]	[Akt1, Akt2, Akt3, Ar, Araf, Atf4, Bad, Bcl2, Braf, Casp9, Ccnd1, Ccne1, Ccne2, Cdk2, Cdkn1a, Cdkn1b, Chuk, Creb1, Creb3, Creb3l1, Creb3l2, Creb3l3, Creb3l4, Creb5, Crebbp, Ctnnb1, E2f1, E2f2, E2f3, Egf, Egfr, Ep300, Erbb2, Fgfr1, Fgfr2, Foxo1, Grb2, Gsk3b, Gstp1, Hras, Hsp90aa1, Hsp90ab1, Hsp90b1, Igf1, Igf1r, Ikbkb, Ikbkg, Ins1, Ins2, Insrr, Kras, Lef1, Map2k1, Map2k2, Mapk1, Mapk3, Mdm2, Mtor, Nfkb1, Nfkbia, Nkx3-1, Nras, Pdgfa, Pdgfb, Pdgfc, Pdgfd, Pdgfra, Pdgfrb, Pdpk1, Pik3ca, Pik3cb, Pik3cd, Pik3cg, Pik3r1, Pik3r2, Pik3r3, Pik3r5, Pten, Raf1, Rb1, Rela, Sos1, Sos2, Srd5a2, Tcf7, Tcf7l1, Tcf7l2, Tgfa, Trp53]	FALSE
KEGG:05222	KEGG_21.03.2014	Small cell lung cancer	[-1]	[Group2]	5	5.8139534	7.034008798844416E-4	0.0021362545240934897	{Group2=7.43395994630947E-5}	{Group2=1.8584899865773676E-4}	[Bcl2, Casp9, Ccne2, Cycs, Traf6]	[640611, Akt1, Akt2, Akt3, Apaf1, Bcl2, Bcl2l1, Birc2, Birc3, Birc7, Casp9, Ccnd1, Ccne1, Ccne2, Cdk2, Cdk4, Cdk6, Cdkn1b, Cdkn2b, Chuk, Cks1b, Cks2, Col4a1, Col4a2, Col4a3, Col4a4, Col4a5, Col4a6, Cycs, Cyct, E2f1, E2f2, E2f3, Fhit, Fn1, Ikbkb, Ikbkg, Itga2, Itga2b, Itga3, Itga6, Itgav, Itgb1, Lama1, Lama2, Lama3, Lama4, Lama5, Lamb1, Lamb2, Lamb3, Lamc1, Lamc2, Lamc3, Max, Myc, Nfkb1, Nfkbia, Nos2, Pias2, Pik3ca, Pik3cb, Pik3cd, Pik3cg, Pik3r1, Pik3r2, Pik3r3, Pik3r5, Pten, Ptgs2, Ptk2, Rarb, Rb1, Rela, Rxra, Rxrb, Rxrg, Skp2, Traf1, Traf2, Traf3, Traf4, Traf5, Traf6, Trp53, Xiap]	FALSE
GO:0006007	GO_BiologicalProcess_20.03.2014_19h52	glucose catabolic process	[7, 8]	[Group13, Group8]	4	5.263158	0.003496475487897851	0.0056217841177965445	{Group13=9.919485215274963E-6, Group8=3.3507152677295196E-4}	{Group13=3.719806955728111E-5, Group8=6.28259112699285E-4}	[Entpd5, Glyr1, Ldha, Pfkl]	[Adpgk, Aldoa, Aldoart2, Aldob, Aldoc, Bad, Bpgm, Ddit4, Dhtkd1, Eno2, Eno3, Eno4, Entpd5, Fbp1, Fbp2, G6pdx, Gapdhs, Gck, Glyr1, Gm5506, Gpd1, Gpi1, H6pd, Hdac4, Hdac5, Hibadh, Hif1a, Hk1, Hk2, Hk3, Hkdc1, Hsd11b1, Htr2a, Ier3, Igf1, Il3, Ins2, Insr, Ldha, Ldhal6b, Ldhb, Ldhc, Lrp5, Mif, Mlxipl, Myc, Ncor1, Ogdh, Ogt, Pdha1, Pdha2, Pfkfb2, Pfkl, Pfkm, Pfkp, Pgam1, Pgam2, Pgd, Pgk1, Pgk2, Pgls, Pigq, Pklr, Pkm, Ppara, Ppargc1a, Prkaa1, Prkaa2, Prkag2, Rpe, Rpia, Shpk, Stat3, Taldo1, Tkt, Tpi1]	FALSE
GO:0006096	GO_BiologicalProcess_20.03.2014_19h52	glycolysis	[3, 4, 8, 9]	[Group13, Group8]	3	4.7619047	0.014859741299707432	0.01646619981859472	{Group13=9.919485215274963E-6, Group8=3.3507152677295196E-4}	{Group13=3.719806955728111E-5, Group8=6.28259112699285E-4}	[Entpd5, Ldha, Pfkl]	[Adpgk, Aldoa, Aldoart2, Aldob, Aldoc, Bpgm, Ddit4, Dhtkd1, Eno2, Eno3, Eno4, Entpd5, Fbp1, Fbp2, Gapdhs, Gck, Gm5506, Gpd1, Gpi1, H6pd, Hdac4, Hdac5, Hif1a, Hk1, Hk2, Hk3, Hkdc1, Htr2a, Ier3, Igf1, Il3, Ins2, Insr, Ldha, Ldhal6b, Ldhb, Ldhc, Mif, Mlxipl, Myc, Ncor1, Ogdh, Ogt, Pdha1, Pdha2, Pfkfb2, Pfkl, Pfkm, Pfkp, Pgam1, Pgam2, Pgk1, Pgk2, Pigq, Pklr, Pkm, Ppara, Ppargc1a, Prkaa1, Prkaa2, Prkag2, Stat3, Tpi1]	FALSE
GO:0006220	GO_BiologicalProcess_20.03.2014_19h52	pyrimidine nucleotide metabolic process	[5, 6, 7, 8]	[Group12]	4	14.285714	7.569020855544707E-5	6.206597101546659E-4	{Group12=8.381153552084281E-8}	{Group12=1.2571730328126422E-6}	[Ctps, Ctps2, Dhodh, Tyms]	[Ak3, Ak4, Cad, Cmpk1, Cmpk2, Ctps, Ctps2, Dck, Dhodh, Dpyd, Dtymk, Dut, Nme1, Nme2, Nme3, Nme4, Nme5, Nme6, Nme7, Nme8, Nt5c, Nt5m, Rp2h, Tbpl1, Tyms, Umps, Upp1, Uprt]	FALSE
GO:0006221	GO_BiologicalProcess_20.03.2014_19h52	pyrimidine nucleotide biosynthetic process	[6, 7, 8, 9]	[Group12]	4	18.181818	2.809926950301147E-5	3.291628713209915E-4	{Group12=8.381153552084281E-8}	{Group12=1.2571730328126422E-6}	[Ctps, Ctps2, Dhodh, Tyms]	[Cad, Cmpk1, Cmpk2, Ctps, Ctps2, Dhodh, Dpyd, Dtymk, Dut, Nme1, Nme2, Nme3, Nme4, Nme5, Nme6, Nme7, Nme8, Rp2h, Tbpl1, Tyms, Umps, Uprt]	FALSE
GO:0006457	GO_BiologicalProcess_20.03.2014_19h52	protein folding	[5, 6]	[Group10]	8	5.5555553	2.5090260839454825E-5	3.4290023147254923E-4	{Group10=4.4475701145194425E-5}	{Group10=1.3342710343558327E-4}	[Calr3, Canx, Cct8, Entpd5, Ero1lb, Fkbp4, P4hb, Ypel1]	[Aars, Ahsp, Aip, Aipl1, Apoa2, Aurkaip1, B2m, Bag1, Bag5, Calr, Calr3, Canx, Cct2, Cct3, Cct4, Cct5, Cct6a, Cct6b, Cct7, Cct8, Cd74, Chchd4, Chordc1, Clgn, Clpx, Cryab, Cwc27, Dnaja1, Dnaja2, Dnaja3, Dnaja4, Dnajb1, Dnajb11, Dnajb13, Dnajb4, Dnajb5, Dnajb6, Dnajb8, Dnajc1, Dnajc10, Dnajc7, Entpd5, Ero1l, Ero1lb, Erp44, Fkbp10, Fkbp11, Fkbp14, Fkbp15, Fkbp1a, Fkbp1b, Fkbp2, Fkbp3, Fkbp4, Fkbp5, Fkbp6, Fkbp7, Fkbp8, Fkbp9, Gm12141, Grpel1, Grpel2, H2-DMa, H2-DMb1, H2-DMb2, H2-Ke2, Hscb, Hsp90aa1, Hsp90ab1, Hsp90b1, Hspa1a, Hspa1b, Hspa4l, Hspa8, Hspa9, Hspd1, Hspe1, Hsph1, Itgb3, Lepre1, Mesdc2, Nktr, P4hb, Pdcl, Pdcl3, Pdia2, Pdia3, Pdia4, Pdia5, Pdia6, Pdilt, Pdrg1, Pex19, Pfdn1, Pfdn2, Pfdn5, Pin1, Pin1rt1, Ppib, Ppic, Ppid, Ppie, Ppif, Ppig, Ppih, Ppil1, Ppil2, Ppil3, Ppil4, Ppil6, Ppp2r4, Ppwd1, Prdx4, Ptges3, Qsox1, Ranbp2, Ric3, Sep15, Sh3glb1, St13, Stub1, Tbcc, Tbcd, Tbce, Tcp1, Tgfbrap1, Tmx1, Tmx3, Tmx4, Tor1a, Tor1b, Tor2a, Tor3a, Tor4a, Trap1, Txndc11, Txndc2, Txndc5, Unc45a, Unc45b, Uri1, Uxt, Vbp1, Ypel1]	TRUE
GO:0006541	GO_BiologicalProcess_20.03.2014_19h52	glutamine metabolic process	[6, 7, 9, 10]	[Group12]	3	12.0	0.0010793230352732924	0.0026030732027179405	{Group12=8.381153552084281E-8}	{Group12=1.2571730328126422E-6}	[Ctps, Ctps2, Gmps]	[Adsl, Aldh4a1, Aldh5a1, Asl, Asns, Asnsd1, Coasy, Cps1, Ctps, Ctps2, Gfpt1, Gfpt2, Ggh, Gls, Gls2, Glud1, Glul, Gmps, Lgsn, Mecp2, Nr1h4, Pfas, Phgdh, Ppat, Sirt4]	FALSE
GO:0006984	GO_BiologicalProcess_20.03.2014_19h52	ER-nucleus signaling pathway	[4, 5]	[Group6]	4	8.510638	5.841418126191984E-4	0.0019958178597822614	{Group6=0.0011433840604660988}	{Group6=0.0019056401007768314}	[Crebrf, Gsk3b, Ptpn1, Serp1]	[Aars, Amfr, Atg10, Atp2a2, Bak1, Bax, Casp12, Ccdc47, Ccnd1, Creb3, Crebrf, Ddit3, Derl1, Derl2, Derl3, Dnajc3, Eif2a, Eif2ak2, Eif2ak3, Eif2ak4, Eif2s1, Ern1, Ern2, Ero1l, Gsk3b, Herpud1, Hspa5, Ifng, Ins2, Insig1, Insig2, Lmna, Nfe2l2, Nkx3-1, Parp16, Ppp1r15a, Ppp1r15b, Ptpn1, Scap, Serp1, Stc2, Trp53, Vapb, Vimp, Wfs1, Xbp1, Yod1]	TRUE
GO:0006986	GO_BiologicalProcess_20.03.2014_19h52	response to unfolded protein	[4, 5]	[Group6]	3	4.4117646	0.01820764939803985	0.019141375008195738	{Group6=0.0011433840604660988}	{Group6=0.0019056401007768314}	[Crebrf, Ptpn1, Serp1]	[Aars, Amfr, Atf6, Atf6b, Bak1, Bax, Casp12, Ccnd1, Chac1, Creb3, Creb3l1, Creb3l2, Creb3l3, Creb3l4, Crebrf, Dab2ip, Ddit3, Derl1, Derl2, Derl3, Dnajc3, Edem1, Edem3, Eif2ak2, Eif2ak3, Eif2ak4, Ern1, Ern2, Ero1l, Erp44, Faf2, Fbxo6, Gm12141, Herpud1, Herpud2, Hsp90aa1, Hspa4l, Hspa5, Hspb1, Hspd1, Hsph1, Ifng, Jkamp, Manf, Nfe2l2, Nkx3-1, Park2, Parp16, Ppp1r15a, Ptpn1, Rhbdd1, Serp1, Stc2, Stt3b, Syvn1, Thbs1, Thbs4, Tmbim6, Ube2j2, Ubxn4, Upf2, Upf3a, Upf3b, Vapb, Vimp, Wfs1, Xbp1, Yod1]	FALSE
GO:0008238	GO_MolecularFunction_20.03.2014_19h52	exopeptidase activity	[5]	[None]	4	4.123711	0.008273757616972499	0.010279517039268861	{None=NaN}	{None=NaN}	[Cpm, Metap2, Otub2, Uchl5]	[2010111I01Rik, Ace, Ace2, Aebp1, Agbl1, Agbl2, Agbl3, Agbl4, Agbl5, Agtpbp1, Anpep, Apeh, Asrgl1, Atxn3, Cndp1, Cndp2, Corin, Cpa1, Cpa2, Cpa3, Cpa4, Cpa5, Cpa6, Cpb1, Cpb2, Cpd, Cpe, Cpm, Cpn1, Cpq, Cpvl, Cpxm1, Cpxm2, Cpz, Ctsa, Ctsh, Ctsl, Dnpep, Dpep1, Dpep2, Dpep3, Dpp10, Dpp3, Dpp4, Dpp7, Dpp8, Dpp9, Enpep, Erap1, F11, F12, Folh1, Ggh, Ggt1, Ggt5, Ggt6, Ggt7, Hpn, IDA:, Josd2, Lap3, Lnpep, Lta4h, Metap1, Metap1d, Metap2, Naalad2, Naaladl1, Npepl1, Npepps, Nudt16, Otub1, Otub2, Pep3, Pepd, Prcp, Prep, Prepl, Rnpep, Rnpepl1, Scpep1, Scrn1, Scrn2, Scrn3, Tmem27, Tpp1, Tpp2, Trhde, Trip-1, Uchl1, Uchl5, Usp13, Usp5, Xpnpep1, Xpnpep2, Xpnpep3, Zfp160]	TRUE
GO:0009064	GO_BiologicalProcess_20.03.2014_19h52	glutamine family amino acid metabolic process	[5, 6, 8, 9]	[Group12]	3	5.084746	0.012456093499689222	0.014385910802457975	{Group12=8.381153552084281E-8}	{Group12=1.2571730328126422E-6}	[Ctps, Ctps2, Gmps]	[Aadat, Adsl, Aldh18a1, Aldh4a1, Aldh5a1, Amdhd1, Apc, Arg1, Arg2, Asl, Asns, Asnsd1, Asrgl1, Ass1, Atcay, Cd34, Coasy, Cps1, Ctps, Ctps2, Dao, Ddah1, Ddah2, Fah, Gad2, Gclc, Gclm, Gfpt1, Gfpt2, Ggh, Ggt1, Gls, Gls2, Glud1, Glul, Gmps, Got1, Got2, Lgsn, Mecp2, Nags, Nos1, Nos2, Nos3, Noxred1, Nr1h4, Otc, Pfas, Phgdh, Ppat, Prodh, Prodh2, Pycr1, Pycr2, Pycrl, Sirt4, Slc1a3, Tat, Tinagl1]	FALSE
GO:0009124	GO_BiologicalProcess_20.03.2014_19h52	nucleoside monophosphate biosynthetic process	[5, 6, 7, 8]	[Group12]	5	6.756757	3.520859527591039E-4	0.0015195288487498168	{Group12=8.381153552084281E-8}	{Group12=1.2571730328126422E-6}	[Atic, Dhodh, Gmps, Stoml2, Tyms]	[ATPASE6, Ada, Adk, Adsl, Adss, Adssl1, Ak2, Ak3, Ak4, Ak9, Aldoa, Ampd1, Ampd2, Ampd3, Atic, Atp12a, Atp1a1, Atp1a2, Atp1a3, Atp1a4, Atp4a, Atp5a1, Atp5b, Atp5c1, Atp5d, Atp5e, Atp5f1, Atp5g1, Atp5g3, Atp5h, Atp5j, Atp5j2, Atp5k, Atp5l, Atp5o, Atp5s, Cant1, Chchd10, Coasy, Dck, Dguok, Dhodh, Dpyd, Dut, Entpd8, Flcn, Gart, Gbas, Gmps, Hprt, Impdh1, Impdh2, Ldhc, Ldhd, Myc, Paics, Pfas, Pid1, Pklr, Pkm, Ppargc1a, Ppat, Prps1, Prps2, Slc25a13, Stoml2, Surf1, Tgfb1, Tk1, Tk2, Tyms, URFA6L, Umps, Uprt]	FALSE
GO:0009127	GO_BiologicalProcess_20.03.2014_19h52	purine nucleoside monophosphate biosynthetic process	[6, 7, 8, 9]	[Group12]	3	4.83871	0.01423605928726901	0.01599118988432957	{Group12=8.381153552084281E-8}	{Group12=1.2571730328126422E-6}	[Atic, Gmps, Stoml2]	[ATPASE6, Ada, Adk, Adsl, Adss, Adssl1, Ak2, Ak3, Ak4, Ak9, Aldoa, Ampd1, Ampd2, Ampd3, Atic, Atp12a, Atp1a1, Atp1a2, Atp1a3, Atp1a4, Atp4a, Atp5a1, Atp5b, Atp5c1, Atp5d, Atp5e, Atp5f1, Atp5g1, Atp5g3, Atp5h, Atp5j, Atp5j2, Atp5k, Atp5l, Atp5o, Atp5s, Chchd10, Coasy, Flcn, Gart, Gbas, Gmps, Hprt, Impdh1, Impdh2, Ldhc, Ldhd, Myc, Paics, Pfas, Pid1, Pklr, Pkm, Ppargc1a, Ppat, Prps1, Prps2, Slc25a13, Stoml2, Surf1, Tgfb1, URFA6L]	FALSE
GO:0009156	GO_BiologicalProcess_20.03.2014_19h52	ribonucleoside monophosphate biosynthetic process	[6, 7, 8, 9]	[Group12]	4	6.060606	0.002092306603634776	0.004084979559477419	{Group12=8.381153552084281E-8}	{Group12=1.2571730328126422E-6}	[Atic, Dhodh, Gmps, Stoml2]	[ATPASE6, Ada, Adk, Adsl, Adss, Adssl1, Ak2, Ak3, Ak4, Ak9, Aldoa, Ampd1, Ampd2, Ampd3, Atic, Atp12a, Atp1a1, Atp1a2, Atp1a3, Atp1a4, Atp4a, Atp5a1, Atp5b, Atp5c1, Atp5d, Atp5e, Atp5f1, Atp5g1, Atp5g3, Atp5h, Atp5j, Atp5j2, Atp5k, Atp5l, Atp5o, Atp5s, Chchd10, Coasy, Dhodh, Dpyd, Flcn, Gart, Gbas, Gmps, Hprt, Impdh1, Impdh2, Ldhc, Ldhd, Myc, Paics, Pfas, Pid1, Pklr, Pkm, Ppargc1a, Ppat, Prps1, Prps2, Slc25a13, Stoml2, Surf1, Tgfb1, URFA6L, Umps, Uprt]	FALSE
GO:0009163	GO_BiologicalProcess_20.03.2014_19h52	nucleoside biosynthetic process	[5, 6, 7]	[Group12]	4	4.494382	0.0061308828514666765	0.008667799893452887	{Group12=8.381153552084281E-8}	{Group12=1.2571730328126422E-6}	[Ctps, Dhodh, Gmps, Stoml2]	[ATPASE6, Ada, Adal, Adk, Adsl, Adss, Adssl1, Ak2, Ak3, Ak4, Ak9, Aldoa, Aprt, Atp12a, Atp1a1, Atp1a2, Atp1a3, Atp1a4, Atp4a, Atp5a1, Atp5b, Atp5c1, Atp5d, Atp5e, Atp5f1, Atp5g1, Atp5g3, Atp5h, Atp5j, Atp5j2, Atp5k, Atp5l, Atp5o, Atp5s, Cad, Chchd10, Cmpk1, Coasy, Ctps, Dcakd, Dhodh, Dpyd, Flcn, Gbas, Gmps, Guk1, Hprt, Impdh1, Impdh2, Ldhc, Ldhd, Mat1a, Mat2a, Mat2b, Mtap, Myc, Nme1, Nme2, Nme3, Nme4, Nme5, Nme6, Nme7, Nme8, Nt5e, Pank1, Pank2, Pank3, Pank4, Papss1, Pid1, Pklr, Pkm, Pnp, Ppargc1a, Ppcdc, Ppcs, Prps1, Prps2, Qtrt1, Qtrtd1, Rp2h, Slc25a13, Stoml2, Surf1, Tgfb1, URFA6L, Umps, Uprt]	FALSE
GO:0009168	GO_BiologicalProcess_20.03.2014_19h52	purine ribonucleoside monophosphate biosynthetic process	[7, 8, 9, 10]	[Group12]	3	4.83871	0.01423605928726901	0.01599118988432957	{Group12=8.381153552084281E-8}	{Group12=1.2571730328126422E-6}	[Atic, Gmps, Stoml2]	[ATPASE6, Ada, Adk, Adsl, Adss, Adssl1, Ak2, Ak3, Ak4, Ak9, Aldoa, Ampd1, Ampd2, Ampd3, Atic, Atp12a, Atp1a1, Atp1a2, Atp1a3, Atp1a4, Atp4a, Atp5a1, Atp5b, Atp5c1, Atp5d, Atp5e, Atp5f1, Atp5g1, Atp5g3, Atp5h, Atp5j, Atp5j2, Atp5k, Atp5l, Atp5o, Atp5s, Chchd10, Coasy, Flcn, Gart, Gbas, Gmps, Hprt, Impdh1, Impdh2, Ldhc, Ldhd, Myc, Paics, Pfas, Pid1, Pklr, Pkm, Ppargc1a, Ppat, Prps1, Prps2, Slc25a13, Stoml2, Surf1, Tgfb1, URFA6L]	FALSE
GO:0009451	GO_BiologicalProcess_20.03.2014_19h52	RNA modification	[5, 6, 7]	[Group4]	3	4.83871	0.01423605928726901	0.01599118988432957	{Group4=0.003496475487897851}	{Group4=0.004370594359872314}	[Dkc1, Nsun2, Pus7l]	[A1cf, Aars, Adar, Adarb1, Alkbh5, Alkbh8, Apobec1, Apobec2, Bag4, Bcdin3d, Cdk5rap1, Cdkal1, Cmtr1, Cmtr2, Ctu1, Ctu2, Dimt1, Dkc1, Dnajb11, Emg1, Fto, Ftsj2, Ftsj3, Gar1, Gtpbp3, Gtpbp4, Henmt1, Mepce, Mettl1, Mettl3, Mocs3, Mtfmt, Mto1, Naf1, Nop10, Nsun2, Nudt16, Pus1, Pus10, Pus3, Pus7l, Pusl1, Qtrt1, Qtrtd1, Rnmt, Rpusd1, Rpusd2, Rpusd3, Rpusd4, Tfb1m, Tfb2m, Tgs1, Thg1l, Tnip1, Trdmt1, Trmt5, Trmt61a, Trub1, Trub2, Tyw5, Urm1, Wdr4]	FALSE
GO:0010821	GO_BiologicalProcess_20.03.2014_19h52	regulation of mitochondrion organization	[4, 5]	[Group12]	4	5.194805	0.003664863466596894	0.005670166118131043	{Group12=8.381153552084281E-8}	{Group12=1.2571730328126422E-6}	[Dhodh, Gsk3b, Higd1a, Stoml2]	[Acaa2, Akt1, Apopt1, Arrb2, Atpif1, Avp, Bad, Bak1, Bax, Bbc3, Bcl2l1, Bcl2l11, Bid, Bik, Bmf, Bnip3, C1qbp, Coa3, Dhodh, Dnm1l, Fam162a, Fas, Fis1, Flcn, Fxn, Gm5560, Golph3, Gper1, Gpx1, Gsk3a, Gsk3b, Hgf, Higd1a, Hrk, Ier3, Igf1, Inf2, Lmna, Lrpprc, Malsu1, March5, Mff, Mgarp, Mief1, Mief2, Mllt11, Mpv17l, Mtg1, Mtg2, Mul1, Nkx3-1, Oma1, Opa1, Park2, Parl, Pid1, Pink1, Pla2g6, Pmaip1, Ppargc1a, Ppid, Ppif, Prelid1, Psmd10, Pycard, Sh3glb1, Siva1, Slc18a1, Slc25a5, Slc35f6, Stoml2, Tmem102, Tnfsf10, Triap1, Trp53, Vat1, Zfp13]	FALSE
GO:0016052	GO_BiologicalProcess_20.03.2014_19h52	carbohydrate catabolic process	[4]	[Group8]	5	4.385965	0.0024678469529706153	0.004496965558746454	{Group8=3.3507152677295196E-4}	{Group8=6.28259112699285E-4}	[Entpd5, Glyr1, Ldha, Pfkl, Pgm2l1]	[Abhd10, Adpgk, Adra1b, Adrb1, Agl, Akr1a1, Aldoa, Aldoart2, Aldob, Aldoc, Bad, Bpgm, Chia1, Chit1, Cps1, Ctbs, Ddit4, Dhdh, Dhtkd1, Eno2, Eno3, Eno4, Entpd5, Fbp1, Fbp2, G6pc, G6pdx, Gaa, Gale, Gapdhs, Gck, Glb1, Glyr1, Gm2a, Gm5506, Gpd1, Gpi1, H6pd, Hdac4, Hdac5, Hexb, Hibadh, Hif1a, Hk1, Hk2, Hk3, Hkdc1, Hmgb1, Hsd11b1, Htr2a, Ier3, Igf1, Il3, Ins2, Insr, Ldha, Ldhal6b, Ldhb, Ldhc, Lrp5, Manba, Mif, Miox, Mlxipl, Myc, Naga, Ncor1, Neu1, Neu2, Neu3, Neu4, Neurl1a, Ogdh, Ogt, Pdha1, Pdha2, Pfkfb2, Pfkl, Pfkm, Pfkp, Pgam1, Pgam2, Pgd, Pgk1, Pgk2, Pgls, Pgm1, Pgm2, Pgm2l1, Pigq, Pklr, Pkm, Ppara, Ppargc1a, Ppp1ca, Ppp1cb, Ppp1r3b, Ppp1r3c, Ppp1r3d, Ppp1r3e, Prkaa1, Prkaa2, Prkag2, Pygb, Pygl, Pygm, Rpe, Rpia, Shpk, Sord, Stat3, Taldo1, Tkt, Tpi1]	TRUE
GO:0016627	GO_MolecularFunction_20.03.2014_19h52	oxidoreductase activity, acting on the CH-CH group of donors	[3]	[Group9]	4	7.4074073	9.906571800534763E-4	0.0026204480246575824	{Group9=0.0016504918990867096}	{Group9=0.002250670771481877}	[Acadl, Acox3, Cpox, Dhodh]	[Acaa1a, Acad10, Acad11, Acad8, Acad9, Acadl, Acadm, Acads, Acadsb, Acadvl, Acox1, Acox2, Acox3, Acoxl, Akr1c18, Akr1c21, Akr1d1, Bdh2, Blvra, Blvrb, Cox15, Cpox, Decr1, Decr2, Dhcr24, Dhcr7, Dhdh, Dhodh, Dpyd, Dus1l, Dus2, Dus3l, Dus4l, Fasn, Gcdh, Ivd, Lbr, Mecr, Pecr, Ppox, Ptgr1, Ptgr2, Retsat, Rsad1, Sdha, Sdhb, Sdhc, Sdhd, Srd5a1, Srd5a2, Srd5a3, Tecr, Tecrl, Tm7sf2]	FALSE
GO:0016634	GO_MolecularFunction_20.03.2014_19h52	oxidoreductase activity, acting on the CH-CH group of donors, oxygen as acceptor	[4]	[Group9]	4	36.363636	1.360224627319726E-6	5.5769209720108766E-5	{Group9=0.0016504918990867096}	{Group9=0.002250670771481877}	[Acadl, Acox3, Cpox, Dhodh]	[Acaa1a, Acadl, Acox1, Acox2, Acox3, Acoxl, Cpox, Dhodh, Dpyd, Ppox, Rsad1]	TRUE
GO:0016667	GO_MolecularFunction_20.03.2014_19h52	oxidoreductase activity, acting on a sulfur group of donors	[3]	[Group7]	3	6.0	0.007921768291214281	0.009993615382762631	{Group7=0.024365358957977343}	{Group7=0.024365358957977343}	[Ero1lb, Glrx, P4hb]	[Chchd4, Coil, Dld, Dnajc10, Enox2, Ero1l, Ero1lb, Gfer, Glrx, Glrx2, Glrx3, Glrx5, Grxcr1, Gsr, Gstk1, Gsto1, Gsto2, Ifi30, Msra, Msrb1, Msrb2, Msrb3, Nxn, P4hb, Pcyox1, Pcyox1l, Pdia2, Pdia3, Pdia4, Pdia5, Pdia6, Ptges2, Qsox1, Qsox2, Sh3bgrl3, Srxn1, Suox, Tmx1, Tmx3, Txn1, Txn2, Txndc12, Txndc17, Txndc2, Txndc5, Txndc8, Txnl1, Txnrd1, Txnrd2, Txnrd3]	TRUE
GO:0016866	GO_MolecularFunction_20.03.2014_19h52	intramolecular transferase activity	[3]	[Group4]	3	11.538462	0.0012128029598742415	0.0027624956308246614	{Group4=0.003496475487897851}	{Group4=0.004370594359872314}	[Dkc1, Pgm2l1, Pus7l]	[Bpgm, Dkc1, Gpi1, Lss, Mut, Pgam1, Pgam2, Pgm1, Pgm2, Pgm2l1, Pgm3, Pgm5, Pigq, Pmm1, Pmm2, Pus1, Pus10, Pus3, Pus7l, Pusl1, Rpusd1, Rpusd2, Rpusd3, Rpusd4, Trub1, Trub2]	TRUE
GO:0017110	GO_MolecularFunction_20.03.2014_19h52	nucleoside-diphosphatase activity	[6]	[None]	3	23.076923	1.4426111054565409E-4	9.09954697287972E-4	{None=NaN}	{None=NaN}	[Entpd1, Entpd5, Entpd7]	[Cant1, Entpd1, Entpd2, Entpd3, Entpd5, Entpd6, Entpd7, Entpd8, Nudt16, Nudt18, Nudt5, Nudt9, Slc25a42]	TRUE
GO:0019320	GO_BiologicalProcess_20.03.2014_19h52	hexose catabolic process	[6, 7]	[Group13, Group8]	4	5.0	0.004202867943909594	0.006382132803714568	{Group13=9.919485215274963E-6, Group8=3.3507152677295196E-4}	{Group13=3.719806955728111E-5, Group8=6.28259112699285E-4}	[Entpd5, Glyr1, Ldha, Pfkl]	[Adpgk, Aldoa, Aldoart2, Aldob, Aldoc, Bad, Bpgm, Ddit4, Dhtkd1, Eno2, Eno3, Eno4, Entpd5, Fbp1, Fbp2, G6pdx, Gale, Gapdhs, Gck, Glb1, Glyr1, Gm5506, Gpd1, Gpi1, H6pd, Hdac4, Hdac5, Hibadh, Hif1a, Hk1, Hk2, Hk3, Hkdc1, Hsd11b1, Htr2a, Ier3, Igf1, Il3, Ins2, Insr, Ldha, Ldhal6b, Ldhb, Ldhc, Lrp5, Mif, Mlxipl, Myc, Ncor1, Ogdh, Ogt, Pdha1, Pdha2, Pfkfb2, Pfkl, Pfkm, Pfkp, Pgam1, Pgam2, Pgd, Pgk1, Pgk2, Pgls, Pgm1, Pgm2, Pigq, Pklr, Pkm, Ppara, Ppargc1a, Prkaa1, Prkaa2, Prkag2, Rpe, Rpia, Shpk, Stat3, Taldo1, Tkt, Tpi1]	FALSE
GO:0030968	GO_BiologicalProcess_20.03.2014_19h52	endoplasmic reticulum unfolded protein response	[5, 6, 7]	[Group6]	3	8.823529	0.0026606743497333413	0.004742941232133348	{Group6=0.0011433840604660988}	{Group6=0.0019056401007768314}	[Crebrf, Ptpn1, Serp1]	[Aars, Amfr, Bak1, Bax, Casp12, Ccnd1, Creb3, Crebrf, Ddit3, Derl1, Derl2, Derl3, Dnajc3, Eif2ak2, Eif2ak3, Eif2ak4, Ern1, Ern2, Ero1l, Herpud1, Hspa5, Ifng, Nfe2l2, Nkx3-1, Parp16, Ppp1r15a, Ptpn1, Serp1, Stc2, Vapb, Vimp, Wfs1, Xbp1, Yod1]	FALSE
GO:0031532	GO_BiologicalProcess_20.03.2014_19h52	actin cytoskeleton reorganization	[5, 6]	[None]	3	4.5454545	0.016822456680793345	0.017914823997727976	{None=NaN}	{None=NaN}	[Plek, Ptpn1, Rictor]	[Antxr1, Atp2c1, Baiap2l1, Brsk2, Capn10, Cckar, Ccl27a, Cd2ap, Cdc42bpa, Cdc42bpb, Cdc42bpg, Csf1r, Csf3, Ctsl, Cxadr, Dmtn, Dtnbp1, Eps8, Farp2, Fert2, Fes, Fgf10, Fgf7, Flna, Gpr65, Hax1, Hck, Hras, Insrr, Kit, Lpin1, Micall2, Mink1, Myh9, Nphs2, Ntf3, Ntrk3, Nutf2, Pak1, Parva, Parvb, Parvg, Phactr1, Phpt1, Pip5k1a, Pip5k1b, Plek, Prkcz, Ptk2b, Ptk7, Ptpn1, Rala, Rap2a, Rapgef3, Rictor, S100a9, S1pr1, Sema3e, Shc1, Sipa1l1, Smap1, Sptan1, Tek, Tgfb1, Tnik, Trpv4]	TRUE
GO:0032011	GO_BiologicalProcess_20.03.2014_19h52	ARF protein signal transduction	[7, 8]	[Group5]	4	10.526316	2.560005437944919E-4	0.001312002786946771	{Group5=2.560005437944919E-4}	{Group5=5.485725938453398E-4}	[Cyth1, Cyth3, Git2, Iqsec1]	[Acap1, Acap2, Adap2, Agap1, Agap2, Agap3, Agfg1, Agfg2, Arap1, Arap2, Arap3, Arfgap1, Arfgap2, Arfgap3, Arfgef1, Arfgef2, Asap1, Asap2, Asap3, Cyth1, Cyth2, Cyth3, Cyth4, D10Bwg1379e, Dab2ip, Fbxo8, Git1, Git2, Iqsec1, Iqsec2, Iqsec3, Psd, Psd2, Psd3, Psd4, Psmd3, Smap1, Smap2]	TRUE
GO:0032012	GO_BiologicalProcess_20.03.2014_19h52	regulation of ARF protein signal transduction	[7, 8, 9]	[Group5]	4	10.526316	2.560005437944919E-4	0.001312002786946771	{Group5=2.560005437944919E-4}	{Group5=5.485725938453398E-4}	[Cyth1, Cyth3, Git2, Iqsec1]	[Acap1, Acap2, Adap2, Agap1, Agap2, Agap3, Agfg1, Agfg2, Arap1, Arap2, Arap3, Arfgap1, Arfgap2, Arfgap3, Arfgef1, Arfgef2, Asap1, Asap2, Asap3, Cyth1, Cyth2, Cyth3, Cyth4, D10Bwg1379e, Dab2ip, Fbxo8, Git1, Git2, Iqsec1, Iqsec2, Iqsec3, Psd, Psd2, Psd3, Psd4, Psmd3, Smap1, Smap2]	FALSE
GO:0032623	GO_BiologicalProcess_20.03.2014_19h52	interleukin-2 production	[4]	[Group3]	3	6.0	0.007921768291214281	0.009993615382762631	{Group3=4.641383980741558E-7}	{Group3=3.4810379855561684E-6}	[Cd1d1, Stoml2, Traf6]	[Btnl2, Card11, Card9, Ccr2, Cd1d1, Cd1d2, Cd276, Cd28, Cd34, Cd3e, Cd83, Clec2i, Foxp3, Gata3, Glmn, Gpam, Hdac7, Il17f, Il1a, Il1b, Il1rap, Il20rb, Irf4, Kat5, Lag3, Malt1, Map3k7, Nod2, Pawr, Pde4b, Pde4d, Prkcq, Prkd2, Prnp, Ripk2, Rltpr, Sash3, Sftpd, Slc11a1, Stat5a, Stat5b, Stoml2, Tnfaip3, Tnfsf4, Traf2, Traf6, Trim27, Vsig4, Vtcn1, Xcl1]	FALSE
GO:0032944	GO_BiologicalProcess_20.03.2014_19h52	regulation of mononuclear cell proliferation	[5, 6]	[Group3]	7	4.117647	5.106300542956864E-4	0.001903257475102104	{Group3=4.641383980741558E-7}	{Group3=3.4810379855561684E-6}	[Bcl2, Cblb, Cd1d1, Ggta1, Il2ra, Jak3, Traf6]	[4632428N05Rik, Ada, Adk, Ahr, Aif1, Atm, Bcl2, Bcl6, Blm, Bmi1, Bmp4, Btla, Btn1a1, Btn2a2, Btnl2, Card11, Casp3, Cblb, Ccl5, Ccr2, Ccr7, Cd1d1, Cd209a, Cd24a, Cd274, Cd276, Cd28, Cd300a, Cd38, Cd3e, Cd40, Cd40lg, Cd46, Cd59b, Cd74, Cd80, Cd81, Cd86, Cdkn1a, Cdkn2a, Chrnb2, Clcf1, Clec2i, Coro1a, Csf1, Ctla4, Ctnnb1, D7Zem1, D7Zem2, D7Zem3, Dlg1, Dnaja3, Efnb1, Erbb2, Fadd, Fcgr2b, Fgf10, Foxj1, Foxp3, Gal, Ggta1, Glmn, Gpam, Gpr183, H2-Aa, H2-Ab1, H2-M3, Hes1, Icosl, Ido1, Ifng, Igf1, Igf2, Igfbp2, Ighd, Ighm, Ihh, Ikzf3, Il10, Il12a, Il12b, Il12rb1, Il13, Il15, Il18, Il1b, Il2, Il20rb, Il21, Il23a, Il27, Il2ra, Il4, Il5, Il6, Il6st, Il7, Inpp5d, Irf1, Irs2, Itch, Itgal, Jak3, Lrrc32, Lyn, Mef2c, Mif, Myd88, Mzb1, Nck1, Nck2, Nckap1l, Ndfip1, Nfatc2, Pawr, Pdcd1lg2, Pde5a, Peli1, Pnp, Ppp1r9b, Prdm1, Prkcq, Prnp, Ptpn22, Ptpn6, Ptprc, Pycard, Rc3h1, Ripk2, Ripk3, Rltpr, Sash3, Scgb1a1, Selk, Sftpd, Shh, Slfn1, Sox11, Spn, Spta1, Stat5a, Stat5b, Syk, Tac1, Tacr1, Tcf3, Tcf7l1, Tgfb1, Ticam1, Tirap, Tlr4, Tnfrsf13b, Tnfrsf13c, Tnfrsf14, Tnfrsf21, Tnfrsf4, Tnfsf13b, Tnfsf18, Tnfsf4, Traf6, Vav3, Vcam1, Vsig4, Vtcn1, Wnt3a, Xcl1, Zap70, Zfp335, Znhit1, Zp3]	FALSE
GO:0032945	GO_BiologicalProcess_20.03.2014_19h52	negative regulation of mononuclear cell proliferation	[5, 6, 7]	[Group3]	3	5.263158	0.011344828555900648	0.013482260022954395	{Group3=4.641383980741558E-7}	{Group3=3.4810379855561684E-6}	[Cblb, Ggta1, Il2ra]	[4632428N05Rik, Atm, Bmp4, Btla, Btn1a1, Btn2a2, Casp3, Cblb, Cd24a, Cd274, Cd276, Cd300a, Cdkn2a, Ctla4, Dlg1, Erbb2, Fcgr2b, Foxj1, Foxp3, Gal, Ggta1, Glmn, H2-Aa, H2-Ab1, H2-M3, Ido1, Ihh, Il10, Il2, Il20rb, Il2ra, Inpp5d, Itch, Lrrc32, Lyn, Ndfip1, Pawr, Pdcd1lg2, Pde5a, Peli1, Ppp1r9b, Prdm1, Prnp, Ptpn6, Rc3h1, Scgb1a1, Sftpd, Shh, Slfn1, Sox11, Spn, Tgfb1, Tnfrsf13b, Tnfrsf14, Tnfrsf21, Vsig4, Xcl1]	FALSE
GO:0032946	GO_BiologicalProcess_20.03.2014_19h52	positive regulation of mononuclear cell proliferation	[5, 6, 7]	[Group3]	5	4.464286	0.0022848872755298214	0.004258199013487395	{Group3=4.641383980741558E-7}	{Group3=3.4810379855561684E-6}	[Bcl2, Cd1d1, Il2ra, Jak3, Traf6]	[Ada, Adk, Aif1, Bcl2, Bcl6, Blm, Bmi1, Btnl2, Card11, Ccl5, Ccr2, Ccr7, Cd1d1, Cd24a, Cd276, Cd28, Cd38, Cd3e, Cd40, Cd40lg, Cd46, Cd59b, Cd74, Cd80, Cd81, Cd86, Cdkn1a, Chrnb2, Clcf1, Coro1a, Csf1, D7Zem1, D7Zem2, D7Zem3, Dnaja3, Efnb1, Fadd, Fgf10, Foxp3, Gpam, Gpr183, Hes1, Icosl, Ifng, Igf1, Igf2, Igfbp2, Ighd, Ighm, Il12a, Il12b, Il12rb1, Il13, Il15, Il18, Il1b, Il2, Il21, Il23a, Il2ra, Il4, Il5, Il6, Il6st, Il7, Irs2, Itgal, Jak3, Mef2c, Mif, Myd88, Nck1, Nck2, Nckap1l, Nfatc2, Pdcd1lg2, Peli1, Pnp, Ppp1r9b, Prkcq, Ptprc, Pycard, Ripk2, Rltpr, Sash3, Selk, Shh, Spn, Spta1, Stat5a, Stat5b, Syk, Tac1, Tacr1, Tcf3, Tcf7l1, Ticam1, Tirap, Tlr4, Tnfrsf13c, Tnfrsf4, Tnfsf13b, Tnfsf4, Traf6, Vav3, Vcam1, Vtcn1, Wnt3a, Xcl1, Zap70, Zfp335, Zp3]	FALSE
GO:0033555	GO_BiologicalProcess_20.03.2014_19h52	multicellular organismal response to stress	[3]	[None]	3	4.0540543	0.022733260754225906	0.022733260754225906	{None=NaN}	{None=NaN}	[Bcl2, Fbxl20, Git2]	[Adcyap1, Adra2a, Adrb1, Als2, Bcl2, Bdnf, Cacna1a, Cacna1b, Cacna1e, Calca, Cck, Comt, Crh, Crhr1, Dbh, Drd1a, Drd4, Ednrb, Esr2, Fbxl20, Gabra5, Gch1, Git2, Gja1, Gng7, Grik1, Grik2, Grin2b, Grm7, Hdac5, Hdac6, Htr1a, Htr2c, Htr7, IMP:, Ido1, Kcnip3, Mapk8ip2, Mdk, Mecp2, Mef2c, Ncam1, Neurod2, Nmur2, Nos1, Nr2e1, Nr4a2, Osm, P2rx2, P2rx3, Penk, Ppp3ca, Prkcg, Pten, Reln, Ret, Runx1, Scn9a, Sepn1, Shank3, Slc6a2, Taar4, Tac1, Tacr1, Thbs1, Thbs4, Trpa1, Trpv1, Tspo, Ucn, Usp46, Vdac1, Vdac3, Vwa1]	TRUE
GO:0034620	GO_BiologicalProcess_20.03.2014_19h52	cellular response to unfolded protein	[5, 6]	[Group6]	3	8.571428	0.0028927595238234876	0.004941797519865124	{Group6=0.0011433840604660988}	{Group6=0.0019056401007768314}	[Crebrf, Ptpn1, Serp1]	[Aars, Amfr, Bak1, Bax, Casp12, Ccnd1, Creb3, Crebrf, Ddit3, Derl1, Derl2, Derl3, Dnajc3, Eif2ak2, Eif2ak3, Eif2ak4, Ern1, Ern2, Ero1l, Herpud1, Hspa5, Ifng, Nfe2l2, Nkx3-1, Parp16, Ppp1r15a, Ptpn1, Rhbdd1, Serp1, Stc2, Vapb, Vimp, Wfs1, Xbp1, Yod1]	FALSE
GO:0034976	GO_BiologicalProcess_20.03.2014_19h52	response to endoplasmic reticulum stress	[4]	[Group0, Group6]	6	6.382979	1.2329640704037944E-4	8.425254481092594E-4	{Group0=8.153731079442554E-7, Group6=0.0011433840604660988}	{Group0=4.076865539721277E-6, Group6=0.0019056401007768314}	[Bcl2, Crebrf, Gsk3b, P4hb, Ptpn1, Serp1]	[Aars, Aifm1, Alox15, Amfr, Atf4, Atg10, Atp2a1, Bag6, Bak1, Bax, Bbc3, Bcl2, Bcl2l11, Brsk2, Casp12, Ccdc47, Ccnd1, Cebpb, Chac1, Col4a3bp, Creb3, Crebrf, Dab2ip, Ddit3, Derl1, Derl2, Derl3, Dnajc10, Dnajc3, Eif2ak2, Eif2ak3, Eif2ak4, Eif2b5, Ern1, Ern2, Ero1l, Erp44, Fam129a, Fxyd1, Gsk3b, Herpud1, Hspa5, Ifng, Ins2, Itpr1, Nfe2l2, Nkx3-1, Os9, P4hb, Parp16, Pdhx, Pdia2, Pdia3, Pdia4, Pdia5, Pdia6, Pdx1, Pla2g6, Pml, Ppp1r15a, Ppp1r15b, Ppp2cb, Ptpn1, Scamp5, Sel1l, Selk, Serinc3, Serp1, Spop, Srpx, Stc2, Syvn1, Thbs1, Thbs4, Tmbim6, Tmx1, Tmx3, Tmx4, Trib3, Trp53, Txndc11, Txndc5, Uba5, Ube2k, Ube4b, Ubqln1, Ufc1, Ufl1, Ufm1, Vapb, Vimp, Wfs1, Xbp1, Yod1]	TRUE
GO:0035966	GO_BiologicalProcess_20.03.2014_19h52	response to topologically incorrect protein	[3, 4]	[Group6]	3	4.0540543	0.022733260754225906	0.022733260754225906	{Group6=0.0011433840604660988}	{Group6=0.0019056401007768314}	[Crebrf, Ptpn1, Serp1]	[Aars, Amfr, Atf6, Atf6b, Atxn3, Bak1, Bax, Casp12, Ccnd1, Chac1, Creb3, Creb3l1, Creb3l2, Creb3l3, Creb3l4, Crebrf, Dab2ip, Ddit3, Derl1, Derl2, Derl3, Dnajc3, Edem1, Edem3, Eif2ak2, Eif2ak3, Eif2ak4, Ern1, Ern2, Ero1l, Erp44, F12, Faf2, Fbxo6, Gm12141, Hdac6, Herpud1, Herpud2, Hsp90aa1, Hspa4l, Hspa5, Hspb1, Hspd1, Hsph1, Ifng, Jkamp, Manf, Nfe2l2, Nkx3-1, Park2, Parp16, Ppp1r15a, Ptpn1, Rhbdd1, Rnf5, Serp1, Stc2, Stt3b, Stub1, Syvn1, Thbs1, Thbs4, Tmbim6, Ube2j2, Ube2w, Ubxn4, Upf2, Upf3a, Upf3b, Vapb, Vimp, Wfs1, Xbp1, Yod1]	FALSE
GO:0035967	GO_BiologicalProcess_20.03.2014_19h52	cellular response to topologically incorrect protein	[4, 5]	[Group6]	3	7.5	0.004238263129148899	0.006318865028912904	{Group6=0.0011433840604660988}	{Group6=0.0019056401007768314}	[Crebrf, Ptpn1, Serp1]	[Aars, Amfr, Atxn3, Bak1, Bax, Casp12, Ccnd1, Creb3, Crebrf, Ddit3, Derl1, Derl2, Derl3, Dnajc3, Eif2ak2, Eif2ak3, Eif2ak4, Ern1, Ern2, Ero1l, Hdac6, Herpud1, Hspa5, Ifng, Nfe2l2, Nkx3-1, Parp16, Ppp1r15a, Ptpn1, Rhbdd1, Rnf5, Serp1, Stc2, Stub1, Ube2w, Vapb, Vimp, Wfs1, Xbp1, Yod1]	FALSE
GO:0036294	GO_BiologicalProcess_20.03.2014_19h52	cellular response to decreased oxygen levels	[5]	[Group0, Group13]	4	7.8431373	7.97870166565622E-4	0.002256046677875207	{Group0=8.153731079442554E-7, Group13=9.919485215274963E-6}	{Group0=4.076865539721277E-6, Group13=3.719806955728111E-5}	[Bcl2, Higd1a, P4hb, Vegfa]	[Adam8, Adrb2, Ajuba, Akt1, Aqp1, Bach1, Bcl2, Bnip3, Brip1, Cbs, Cd34, Cited2, Cpeb1, Cpeb2, Cpeb4, Epas1, Fabp1, Fam162a, Fmn2, Fndc1, Gata6, Gnb1, Gngt1, Hif1a, Hif1an, Higd1a, Kcnk3, Mgarp, Mtor, Nkx3-1, Notch1, Npepps, P4hb, Pdk1, Pdk3, Pdpk1, Pick1, Plk3, Prkce, Ptgis, Rgcc, Sirt1, Slc2a4, Slc9a1, Twist1, Ubqln1, Usp19, Vasn, Vegfa, Vhl, Vldlr]	FALSE
GO:0042088	GO_ImmuneSystemProcess_20.03.2014_19h52	T-helper 1 type immune response	[4]	[Group3]	3	8.823529	0.0026606743497333413	0.004742941232133348	{Group3=4.641383980741558E-7}	{Group3=3.4810379855561684E-6}	[Jak3, Traf6, Vegfa]	[Bcl3, Ccr2, Ccr7, Gadd45g, H2-Ab1, Hlx, Il12b, Il12rb1, Il18, Il18bp, Il18r1, Il1rl1, Il23a, Il23r, Il27, Il27ra, Il33, Il4, Il4ra, Irf1, Jak3, Lef1, Nlrp10, Relb, Ripk2, Sema4a, Slc11a1, Socs5, Stat6, Tlr6, Tnfsf4, Traf6, Vegfa, Xcl1]	FALSE
GO:0042102	GO_ImmuneSystemProcess_20.03.2014_19h52	positive regulation of T cell proliferation	[5, 6]	[Group3]	4	5.263158	0.003496475487897851	0.0056217841177965445	{Group3=4.641383980741558E-7}	{Group3=3.4810379855561684E-6}	[Cd1d1, Il2ra, Jak3, Traf6]	[Adk, Aif1, Blm, Bmi1, Btnl2, Card11, Ccl5, Ccr2, Ccr7, Cd1d1, Cd24a, Cd276, Cd28, Cd3e, Cd46, Cd59b, Cd80, Cd86, Coro1a, D7Zem1, D7Zem2, D7Zem3, Dnaja3, Efnb1, Fadd, Foxp3, Gpam, Hes1, Icosl, Ifng, Igf1, Igf2, Igfbp2, Il12a, Il12b, Il12rb1, Il15, Il18, Il1b, Il2, Il21, Il23a, Il2ra, Il4, Il6, Il6st, Itgal, Jak3, Nck1, Nck2, Nckap1l, Pdcd1lg2, Pnp, Ppp1r9b, Prkcq, Ptprc, Pycard, Ripk2, Rltpr, Sash3, Selk, Shh, Spn, Spta1, Stat5a, Stat5b, Syk, Tnfrsf13c, Tnfsf13b, Tnfsf4, Traf6, Vcam1, Vtcn1, Xcl1, Zap70, Zp3]	FALSE
GO:0042129	GO_ImmuneSystemProcess_20.03.2014_19h52	regulation of T cell proliferation	[5]	[Group2, Group3]	5	4.1666665	0.0030805613988367673	0.005155225198053366	{Group2=7.43395994630947E-5, Group3=4.641383980741558E-7}	{Group2=1.8584899865773676E-4, Group3=3.4810379855561684E-6}	[Cblb, Cd1d1, Il2ra, Jak3, Traf6]	[4632428N05Rik, Adk, Aif1, Blm, Bmi1, Bmp4, Btla, Btn1a1, Btn2a2, Btnl2, Card11, Casp3, Cblb, Ccl5, Ccr2, Ccr7, Cd1d1, Cd209a, Cd24a, Cd274, Cd276, Cd28, Cd3e, Cd46, Cd59b, Cd80, Cd86, Cdkn2a, Clec2i, Coro1a, Ctla4, Ctnnb1, D7Zem1, D7Zem2, D7Zem3, Dlg1, Dnaja3, Efnb1, Erbb2, Fadd, Foxj1, Foxp3, Glmn, Gpam, H2-Aa, H2-Ab1, H2-M3, Hes1, Icosl, Ido1, Ifng, Igf1, Igf2, Igfbp2, Ihh, Il12a, Il12b, Il12rb1, Il15, Il18, Il1b, Il2, Il20rb, Il21, Il23a, Il27, Il2ra, Il4, Il6, Il6st, Irf1, Itch, Itgal, Jak3, Lrrc32, Nck1, Nck2, Nckap1l, Ndfip1, Pawr, Pdcd1lg2, Pde5a, Peli1, Pnp, Ppp1r9b, Prkcq, Prnp, Ptpn6, Ptprc, Pycard, Rc3h1, Ripk2, Ripk3, Rltpr, Sash3, Scgb1a1, Selk, Sftpd, Shh, Slfn1, Spn, Spta1, Stat5a, Stat5b, Syk, Tgfb1, Tnfrsf13c, Tnfrsf14, Tnfrsf21, Tnfsf13b, Tnfsf18, Tnfsf4, Traf6, Vcam1, Vsig4, Vtcn1, Xcl1, Zap70, Znhit1, Zp3]	FALSE
GO:0042162	GO_MolecularFunction_20.03.2014_19h52	telomeric DNA binding	[6]	[None]	3	20.0	2.2675556081109665E-4	0.0012395970657673283	{None=NaN}	{None=NaN}	[Hnrnpd, Ncl, Obfc1]	[Hnrnpa2b1, Hnrnpd, Ncl, Obfc1, Pif1, Pot1a, Pot1b, Pura, Smg6, Terf1, Terf2, Tinf2, Trp53bp1, Xrcc5, Xrcc6]	TRUE
GO:0042440	GO_BiologicalProcess_20.03.2014_19h52	pigment metabolic process	[3]	[None]	3	5.769231	0.008826693111114038	0.010802818434497779	{None=NaN}	{None=NaN}	[Bcl2, Cox10, Cpox]	[Ada, Adrbk2, Alad, Alas1, Alas2, Aprt, Atpif1, Bcl2, Blvra, Blvrb, Cited1, Cox10, Cox15, Cpox, Cyb5r4, Cyp2a5, Dct, Ddt, Fech, Fxn, Gart, Hebp1, Hmbs, Hmox1, Hmox2, Hnf1a, Hprt, Hpx, Iba57, Ireb2, Mc1r, Myo5a, Oca2, Pmel, Ppox, Prps1, Rapgef2, Shmt1, Slc11a2, Slc24a5, Slc25a39, Slc45a2, Slco1a6, Snx3, Sox2, Tmem14c, Tyr, Tyrp1, Ugt1a1, Urod, Uros, a]	TRUE
GO:0042455	GO_BiologicalProcess_20.03.2014_19h52	ribonucleoside biosynthetic process	[6, 7, 8]	[Group12]	4	4.494382	0.0061308828514666765	0.008667799893452887	{Group12=8.381153552084281E-8}	{Group12=1.2571730328126422E-6}	[Ctps, Dhodh, Gmps, Stoml2]	[ATPASE6, Ada, Adal, Adk, Adsl, Adss, Adssl1, Ak2, Ak3, Ak4, Ak9, Aldoa, Aprt, Atp12a, Atp1a1, Atp1a2, Atp1a3, Atp1a4, Atp4a, Atp5a1, Atp5b, Atp5c1, Atp5d, Atp5e, Atp5f1, Atp5g1, Atp5g3, Atp5h, Atp5j, Atp5j2, Atp5k, Atp5l, Atp5o, Atp5s, Cad, Chchd10, Cmpk1, Coasy, Ctps, Dcakd, Dhodh, Dpyd, Flcn, Gbas, Gmps, Guk1, Hprt, Impdh1, Impdh2, Ldhc, Ldhd, Mat1a, Mat2a, Mat2b, Mtap, Myc, Nme1, Nme2, Nme3, Nme4, Nme5, Nme6, Nme7, Nme8, Nt5e, Pank1, Pank2, Pank3, Pank4, Papss1, Pid1, Pklr, Pkm, Pnp, Ppargc1a, Ppcdc, Ppcs, Prps1, Prps2, Qtrt1, Qtrtd1, Rp2h, Slc25a13, Stoml2, Surf1, Tgfb1, URFA6L, Umps, Uprt]	FALSE
GO:0043029	GO_ImmuneSystemProcess_20.03.2014_19h52	T cell homeostasis	[3]	[Group3]	4	9.756098	3.445679234470175E-4	0.001569698317925302	{Group3=4.641383980741558E-7}	{Group3=3.4810379855561684E-6}	[Bcl2, Chst3, Il2ra, Jak3]	[Ahr, Akt1, Bax, Bcl2, Bcl2l11, Casp3, Ccnb2, Cd24a, Chst3, Coro1a, Dnaja3, Fadd, Fas, Gimap3, Gimap5, Gpam, Il2, Il2ra, Jak3, Nckap1l, Nkx3-1, P2rx7, Pmaip1, Ppp2r3c, Ppp3cb, Rag1, Rc3h1, Rc3h2, Ripk3, Rps6, Siva1, Slc46a2, Spns2, Stat5a, Stat5b, Tgfb1, Tgfb2, Tnfrsf4, Tnfsf4, Tsc22d3, Zc3h8]	FALSE
GO:0045454	GO_BiologicalProcess_20.03.2014_19h52	cell redox homeostasis	[3, 4, 5]	[Group7]	3	5.172414	0.011892961734307955	0.013931755174475034	{Group7=0.024365358957977343}	{Group7=0.024365358957977343}	[Ero1lb, Glrx, P4hb]	[2700094K13Rik, Aifm1, Aifm3, Apex1, Ddit3, Dld, Dnajc10, Dnajc16, Egln2, Ero1l, Ero1lb, Erp44, Gclc, Glrx, Glrx2, Glrx3, Glrx5, Gpx1, Grxcr1, Gsr, Il6, Krit1, Magt1, Mien1, Nme8, P4hb, Pdia2, Pdia3, Pdia4, Pdia5, Pdia6, Pdilt, Prdx4, Ptges2, Qsox1, Qsox2, Selt, Sepw1, Sh3bgrl3, Tmx1, Tmx3, Tmx4, Tusc3, Txn1, Txn2, Txndc11, Txndc12, Txndc15, Txndc16, Txndc2, Txndc5, Txndc8, Txndc9, Txnl1, Txnrd1, Txnrd2, Txnrd3, Vimp]	FALSE
GO:0046365	GO_BiologicalProcess_20.03.2014_19h52	monosaccharide catabolic process	[5, 6]	[Group13, Group8]	4	4.878049	0.004589706792891734	0.006720642089591467	{Group13=9.919485215274963E-6, Group8=3.3507152677295196E-4}	{Group13=3.719806955728111E-5, Group8=6.28259112699285E-4}	[Entpd5, Glyr1, Ldha, Pfkl]	[Adpgk, Akr1a1, Aldoa, Aldoart2, Aldob, Aldoc, Bad, Bpgm, Ddit4, Dhdh, Dhtkd1, Eno2, Eno3, Eno4, Entpd5, Fbp1, Fbp2, G6pdx, Gale, Gapdhs, Gck, Glb1, Glyr1, Gm5506, Gpd1, Gpi1, H6pd, Hdac4, Hdac5, Hibadh, Hif1a, Hk1, Hk2, Hk3, Hkdc1, Hsd11b1, Htr2a, Ier3, Igf1, Il3, Ins2, Insr, Ldha, Ldhal6b, Ldhb, Ldhc, Lrp5, Mif, Mlxipl, Myc, Ncor1, Ogdh, Ogt, Pdha1, Pdha2, Pfkfb2, Pfkl, Pfkm, Pfkp, Pgam1, Pgam2, Pgd, Pgk1, Pgk2, Pgls, Pgm1, Pgm2, Pigq, Pklr, Pkm, Ppara, Ppargc1a, Prkaa1, Prkaa2, Prkag2, Rpe, Rpia, Shpk, Stat3, Taldo1, Tkt, Tpi1]	FALSE
GO:0046631	GO_ImmuneSystemProcess_20.03.2014_19h52	alpha-beta T cell activation	[4]	[Group2, Group3]	5	4.8076925	0.0016504918990867096	0.003470265018592569	{Group2=7.43395994630947E-5, Group3=4.641383980741558E-7}	{Group2=1.8584899865773676E-4, Group3=3.4810379855561684E-6}	[Bcl2, Cblb, Cd1d1, Jak3, Stoml2]	[4632428N05Rik, Ada, Adora2a, Anxa1, Ap3b1, Ap3d1, Atp7a, Atp7b, Batf, Bcl11b, Bcl2, Bcl3, Bcl6, Blm, Braf, Btla, Cblb, Ccr2, Ccr7, Cd1d1, Cd1d2, Cd24a, Cd28, Cd300a, Cd3e, Cd80, Cd83, Dock2, Elf4, Eomes, Fcgr4, Foxp3, Fut7, Gadd45g, Gata3, Gimap3, Gimap5, Gli3, Gm614, H2-Ab1, H2-M3, Hlx, Hsph1, Ifng, Ihh, Ikzf1, Il12a, Il12b, Il15, Il18, Il18r1, Il23a, Il27, Il2rg, Il4, Il4ra, Il6, Ins2, Irf1, Irf4, Itch, Itk, Itpkb, Jak3, Lef1, Mir326, Myb, Nckap1l, Ncor1, Nkap, Nkx2-3, Pax1, Pnp, Prkcq, Prkcz, Ptger4, Ptprc, Rara, Rc3h1, Rc3h2, Relb, Ripk2, Rora, Rorc, Rpl22, Rsad2, Sash3, Satb1, Sema4a, Shh, Socs5, Stat6, Stoml2, Syk, Tcf7, Tgfbr2, Tnfrsf14, Tnfsf4, Tnfsf8, Txk, Xcl1, Zap70, Zbtb7b, Zfp35]	FALSE
GO:0046634	GO_ImmuneSystemProcess_20.03.2014_19h52	regulation of alpha-beta T cell activation	[5]	[Group2, Group3]	3	4.6153846	0.016152904403968587	0.017428133699018737	{Group2=7.43395994630947E-5, Group3=4.641383980741558E-7}	{Group2=1.8584899865773676E-4, Group3=3.4810379855561684E-6}	[Cblb, Cd1d1, Jak3]	[4632428N05Rik, Ada, Adora2a, Ap3b1, Ap3d1, Bcl6, Blm, Btla, Cblb, Ccr2, Ccr7, Cd1d1, Cd1d2, Cd24a, Cd28, Cd300a, Cd3e, Cd80, Cd83, Foxp3, Gata3, Gimap3, Gimap5, Gli3, Gm614, H2-Ab1, Hlx, Hsph1, Ihh, Ikzf1, Il12a, Il12b, Il18, Il23a, Il27, Il2rg, Il4, Il4ra, Il6, Irf1, Itch, Itpkb, Jak3, Mir326, Myb, Nckap1l, Nkap, Pnp, Prkcq, Prkcz, Ptprc, Rara, Rc3h1, Ripk2, Sash3, Shh, Socs5, Syk, Tgfbr2, Tnfrsf14, Tnfsf4, Xcl1, Zap70, Zbtb7b, Zfp35]	FALSE
GO:0047485	GO_MolecularFunction_20.03.2014_19h52	protein N-terminus binding	[3]	[None]	4	4.0	0.009189037110120049	0.011080897691615353	{None=NaN}	{None=NaN}	[Exoc2, Glrx, Smarca4, Traf6]	[Acox1, Actn4, Adcy8, Akap6, Alg2, Alox5ap, Aptx, Atm, Birc2, Birc3, Cacna1e, Calm1, Calm2, Calm3, Chmp6, Csnk2a1, Csnk2a2, Dab2ip, Daxx, Dcn, Dctn4, Eif3e, Eif5a, Ercc2, Ercc3, Ercc4, Ercc5, Ercc6, Exoc2, Exoc4, Exoc5, Fez1, Gad1, Glrx, Grin2c, Gtf2h2, Gtf2h3, Hax1, Hesx1, Hspa1a, Hspa1b, Kcnb1, Kcnip1, Kcnq2, Mau2, Mecp2, Men1, Mnat1, Morf4l1, Nbn, Ncoa1, Ncoa3, Ncor2, Nfe2, Nipbl, Npat, Parp1, Pdcd10, Pdcd6, Pdlim5, Pex14, Pex19, Pex5, Pias3, Plec, Rassf1, Rbpj, Rela, Rnd2, Rpa2, Rps21, Scfd1, Sdcbp, Sla2, Slc6a3, Smarca4, Smarcc1, Smarce1, Snap25, Snca, Sptan1, Srrm2, Stx1a, Stx5a, Stxbp1, Suv39h1, Syngr3, Taf11, Tbl1xr1, Tdrd7, Tgfb1, Tgfb2, Thap7, Tpm1, Traf6, Trp53, Tsc1, Vwf, Ywhaq, Zwint]	TRUE
GO:0050660	GO_MolecularFunction_20.03.2014_19h52	flavin adenine dinucleotide binding	[4, 5]	[Group9]	3	4.2253523	0.020400978632238366	0.020911003098044327	{Group9=0.0016504918990867096}	{Group9=0.002250670771481877}	[Acadl, Acox3, Fmo5]	[Acad10, Acad11, Acad8, Acad9, Acadl, Acadm, Acads, Acadsb, Acadvl, Acox1, Acox2, Acox3, Acoxl, Agps, Aifm1, Aifm2, Aifm3, Aox1, Aox2, Aox3, Aox4, Chdh, Coq6, Cry2, Cyb5r3, Cyb5r4, Cybb, D2hgdh, Dao, Dhcr24, Dld, Dmgdh, Dus1l, Dus2, Dus3l, Dus4l, Etfa, Fmo1, Fmo2, Fmo3, Fmo4, Fmo5, Foxred2, Gcdh, Gfer, Gsr, Gulo, Ivd, Kdm1a, Kdm1b, Kmo, Ldhd, Maoa, Maob, Mical1, Mthfr, Mto1, Mtrr, Ndor1, Nos1, Nos2, Nos3, Por, Prodh, Sardh, Sdha, Sqle, Txnrd1, Txnrd2, Txnrd3, Xdh]	FALSE
GO:0050670	GO_ImmuneSystemProcess_20.03.2014_19h52	regulation of lymphocyte proliferation	[4]	[Group3]	7	4.1420116	4.929599135752941E-4	0.0019248910911035294	{Group3=4.641383980741558E-7}	{Group3=3.4810379855561684E-6}	[Bcl2, Cblb, Cd1d1, Ggta1, Il2ra, Jak3, Traf6]	[4632428N05Rik, Ada, Adk, Ahr, Aif1, Atm, Bcl2, Bcl6, Blm, Bmi1, Bmp4, Btla, Btn1a1, Btn2a2, Btnl2, Card11, Casp3, Cblb, Ccl5, Ccr2, Ccr7, Cd1d1, Cd209a, Cd24a, Cd274, Cd276, Cd28, Cd300a, Cd38, Cd3e, Cd40, Cd40lg, Cd46, Cd59b, Cd74, Cd80, Cd81, Cd86, Cdkn1a, Cdkn2a, Chrnb2, Clcf1, Clec2i, Coro1a, Ctla4, Ctnnb1, D7Zem1, D7Zem2, D7Zem3, Dlg1, Dnaja3, Efnb1, Erbb2, Fadd, Fcgr2b, Fgf10, Foxj1, Foxp3, Gal, Ggta1, Glmn, Gpam, Gpr183, H2-Aa, H2-Ab1, H2-M3, Hes1, Icosl, Ido1, Ifng, Igf1, Igf2, Igfbp2, Ighd, Ighm, Ihh, Ikzf3, Il10, Il12a, Il12b, Il12rb1, Il13, Il15, Il18, Il1b, Il2, Il20rb, Il21, Il23a, Il27, Il2ra, Il4, Il5, Il6, Il6st, Il7, Inpp5d, Irf1, Irs2, Itch, Itgal, Jak3, Lrrc32, Lyn, Mef2c, Mif, Myd88, Mzb1, Nck1, Nck2, Nckap1l, Ndfip1, Nfatc2, Pawr, Pdcd1lg2, Pde5a, Peli1, Pnp, Ppp1r9b, Prdm1, Prkcq, Prnp, Ptpn22, Ptpn6, Ptprc, Pycard, Rc3h1, Ripk2, Ripk3, Rltpr, Sash3, Scgb1a1, Selk, Sftpd, Shh, Slfn1, Sox11, Spn, Spta1, Stat5a, Stat5b, Syk, Tac1, Tacr1, Tcf3, Tcf7l1, Tgfb1, Ticam1, Tirap, Tlr4, Tnfrsf13b, Tnfrsf13c, Tnfrsf14, Tnfrsf21, Tnfrsf4, Tnfsf13b, Tnfsf18, Tnfsf4, Traf6, Vav3, Vcam1, Vsig4, Vtcn1, Wnt3a, Xcl1, Zap70, Zfp335, Znhit1, Zp3]	FALSE
GO:0050671	GO_ImmuneSystemProcess_20.03.2014_19h52	positive regulation of lymphocyte proliferation	[4, 5]	[Group3]	5	4.5045047	0.0021972079583787835	0.004190024478768844	{Group3=4.641383980741558E-7}	{Group3=3.4810379855561684E-6}	[Bcl2, Cd1d1, Il2ra, Jak3, Traf6]	[Ada, Adk, Aif1, Bcl2, Bcl6, Blm, Bmi1, Btnl2, Card11, Ccl5, Ccr2, Ccr7, Cd1d1, Cd24a, Cd276, Cd28, Cd38, Cd3e, Cd40, Cd40lg, Cd46, Cd59b, Cd74, Cd80, Cd81, Cd86, Cdkn1a, Chrnb2, Clcf1, Coro1a, D7Zem1, D7Zem2, D7Zem3, Dnaja3, Efnb1, Fadd, Fgf10, Foxp3, Gpam, Gpr183, Hes1, Icosl, Ifng, Igf1, Igf2, Igfbp2, Ighd, Ighm, Il12a, Il12b, Il12rb1, Il13, Il15, Il18, Il1b, Il2, Il21, Il23a, Il2ra, Il4, Il5, Il6, Il6st, Il7, Irs2, Itgal, Jak3, Mef2c, Mif, Myd88, Nck1, Nck2, Nckap1l, Nfatc2, Pdcd1lg2, Peli1, Pnp, Ppp1r9b, Prkcq, Ptprc, Pycard, Ripk2, Rltpr, Sash3, Selk, Shh, Spn, Spta1, Stat5a, Stat5b, Syk, Tac1, Tacr1, Tcf3, Tcf7l1, Ticam1, Tirap, Tlr4, Tnfrsf13c, Tnfrsf4, Tnfsf13b, Tnfsf4, Traf6, Vav3, Vcam1, Vtcn1, Wnt3a, Xcl1, Zap70, Zfp335, Zp3]	FALSE
GO:0050672	GO_ImmuneSystemProcess_20.03.2014_19h52	negative regulation of lymphocyte proliferation	[4, 5]	[Group3]	3	5.263158	0.011344828555900648	0.013482260022954395	{Group3=4.641383980741558E-7}	{Group3=3.4810379855561684E-6}	[Cblb, Ggta1, Il2ra]	[4632428N05Rik, Atm, Bmp4, Btla, Btn1a1, Btn2a2, Casp3, Cblb, Cd24a, Cd274, Cd276, Cd300a, Cdkn2a, Ctla4, Dlg1, Erbb2, Fcgr2b, Foxj1, Foxp3, Gal, Ggta1, Glmn, H2-Aa, H2-Ab1, H2-M3, Ido1, Ihh, Il10, Il2, Il20rb, Il2ra, Inpp5d, Itch, Lrrc32, Lyn, Ndfip1, Pawr, Pdcd1lg2, Pde5a, Peli1, Ppp1r9b, Prdm1, Prnp, Ptpn6, Rc3h1, Scgb1a1, Sftpd, Shh, Slfn1, Sox11, Spn, Tgfb1, Tnfrsf13b, Tnfrsf14, Tnfrsf21, Vsig4, Xcl1]	FALSE
GO:0050851	GO_ImmuneSystemProcess_20.03.2014_19h52	antigen receptor-mediated signaling pathway	[4, 6, 7]	[Group3]	6	6.6666665	9.68637279288316E-5	7.220750627421993E-4	{Group3=4.641383980741558E-7}	{Group3=3.4810379855561684E-6}	[Bcl2, Cblb, Elf1, Klhl6, Stoml2, Traf6]	[Ada, Bax, Bcar1, Bcl10, Bcl2, Bcl2a1d, Bik, Blk, Btnl2, Cacnb3, Cacnb4, Cblb, Ccr7, Cd19, Cd247, Cd28, Cd300a, Cd38, Cd3e, Cd79a, Cd79b, Clec2i, Ctla4, Dusp3, Efna2, Elf1, Fcrl5, Foxp3, Fyn, Gata3, Gcsam, Ighm, Itk, Kcnn4, Klhl6, Lat2, Lax1, Lck, Lime1, Lpxn, Lyn, Malt1, Mapk1, Mef2c, Nckap1l, Nfam1, Nfatc2, Nkx3-1, Pawr, Pde4b, Pde4d, Phpt1, Plcg1, Plcg2, Plcl2, Plekha1, Prkcb, Prkch, Prkd2, Prnp, Psen1, Psen2, Ptpn2, Ptpn22, Ptpn6, Ptprc, Ptprj, Rbck1, Rc3h1, Ripk2, Rltpr, Rnf31, Sh2b2, Skap1, Stk11, Stoml2, Syk, Tec, Tespa1, Themis, Themis2, Thy1, Tnfrsf21, Traf6, Trat1, Txk, Ubash3a, Ube2n, Vav3, Zap70]	FALSE
GO:0050852	GO_ImmuneSystemProcess_20.03.2014_19h52	T cell receptor signaling pathway	[5, 7, 8]	[Group3]	4	6.779661	0.0013811687865736295	0.002980416855237832	{Group3=4.641383980741558E-7}	{Group3=3.4810379855561684E-6}	[Cblb, Elf1, Stoml2, Traf6]	[Ada, Bcl10, Bcl2a1d, Btnl2, Cacnb3, Cacnb4, Cblb, Ccr7, Cd247, Cd28, Cd300a, Cd3e, Clec2i, Dusp3, Efna2, Elf1, Foxp3, Fyn, Gata3, Itk, Kcnn4, Lck, Lime1, Malt1, Mapk1, Pawr, Pde4b, Pde4d, Phpt1, Plcg1, Plcg2, Prkd2, Prnp, Psen1, Psen2, Ptpn2, Ptpn22, Ptpn6, Ptprc, Ptprj, Rbck1, Rc3h1, Ripk2, Rltpr, Rnf31, Skap1, Stk11, Stoml2, Tespa1, Themis, Themis2, Thy1, Tnfrsf21, Traf6, Trat1, Txk, Ubash3a, Ube2n, Zap70]	FALSE
GO:0051082	GO_MolecularFunction_20.03.2014_19h52	unfolded protein binding	[3]	[Group10]	3	5.172414	0.011892961734307955	0.013931755174475034	{Group10=4.4475701145194425E-5}	{Group10=1.3342710343558327E-4}	[Calr3, Canx, Cct8]	[Aip, Aurkaip1, Calr, Calr3, Canx, Cct2, Cct3, Cct4, Cct5, Cct6a, Cct6b, Cct7, Cct8, Clgn, Clpx, Cryaa, Cryab, Dnaja1, Dnaja2, Dnaja3, Dnaja4, Dnajb1, Dnajb11, Dnajb13, Dnajb4, Dnajb5, Gja1, Grpel1, Grpel2, Grxcr2, H2-Ke2, Hsp90aa1, Hsp90ab1, Hsp90b1, Hspa5, Hspa8, Hspa9, Npm1, Pdrg1, Pfdn1, Pfdn2, Pfdn5, Ptges3, Serpinh1, Srsf10, Ssu2, St13, Tbca, Tbce, Tcp1, Tgfbrap1, Tmem67, Tomm20, Trap1, Uggt1, Uri1, Uxt, Vbp1]	FALSE
GO:0051149	GO_BiologicalProcess_20.03.2014_19h52	positive regulation of muscle cell differentiation	[4, 5, 6, 7]	[Group11]	3	6.382979	0.006671621968826506	0.008823758087802797	{Group11=0.006671621968826506}	{Group11=0.007698025348645969}	[Bcl2, Epc1, Foxp1]	[Adrb1, Akap6, Bcl2, Bmp4, Boc, Btg1, Camk1, Cav3, Cdon, Cyp26b1, Efnb2, Eif5a, Epc1, Fdps, Foxp1, Grem1, Hif1an, Hopx, Igfbp3, Ilk, Maml1, Mamstr, Mapk14, Mef2c, Mesp1, Mtor, Myocd, Myod1, Myog, Nek5, Neu2, Nr3c1, Pias1, Pik3r1, Plcb1, Rbm4, Setd3, Shh, Shox2, Smyd1, Tbx1, Tgfb1, Thra, Tmsb4x, Tshz3, Wnt3a, Zfhx3]	FALSE
GO:0051155	GO_BiologicalProcess_20.03.2014_19h52	positive regulation of striated muscle cell differentiation	[5, 6, 7, 8]	[Group11]	3	10.344828	0.0016740616615842318	0.0034318264062476755	{Group11=0.006671621968826506}	{Group11=0.007698025348645969}	[Bcl2, Epc1, Foxp1]	[Adrb1, Akap6, Bcl2, Bmp4, Cav3, Cyp26b1, Efnb2, Epc1, Fdps, Foxp1, Grem1, Hopx, Maml1, Mamstr, Mapk14, Mef2c, Mesp1, Mtor, Myocd, Myog, Nek5, Neu2, Nr3c1, Shh, Shox2, Smyd1, Tbx1, Thra, Wnt3a]	TRUE
GO:0051219	GO_MolecularFunction_20.03.2014_19h52	phosphoprotein binding	[3]	[None]	3	4.1666665	0.02116295730572517	0.02142422838357363	{None=NaN}	{None=NaN}	[Btrc, Cblb, Fkbp4]	[Acp2, Aptx, Arr3, Arrb1, Bag1, Bbs1, Btrc, Cacnb1, Cacnb2, Cav2, Cbl, Cblb, Cblc, Cbx4, Cd44, Crk, Crmp1, Csnk1a1, Csnk1d, Csnk1g1, Csnk1g2, Csnk1g3, Dpys, Dpysl3, Dpysl4, Fgr, Fkbp4, Gprin1, Grb10, Grb14, Grb2, Igf2r, Ldlrap1, Lyn, Mapk1, Mapk3, Mid1, Mid2, Mpg, Ms4a1, Ms4a2, Mtor, Nedd4, Pafah1b1, Pde3b, Pik3r1, Pin1, Pitx2, Pkd2, Plcg1, Prkcsh, Ptpn3, Ptpn5, Ptpn6, Rb1, Rexo2, Rraga, Sag, Samsn1, Sfn, Sh2d1b1, Shc1, Sirpa, Snca, Src, Tbk1, Thrap3, Tox3, Trpv1, Ywhab, Ywhae, Zap70]	TRUE
GO:0051289	GO_BiologicalProcess_20.03.2014_19h52	protein homotetramerization	[7, 8]	[None]	3	4.347826	0.018923336383212527	0.019641944093967433	{None=NaN}	{None=NaN}	[Acaca, Acadl, Pfkl]	[Acaca, Acacb, Acadl, Acadm, Acads, Acot13, Actn2, Aldh1a1, Aldh1a2, Aldh1a7, Aldh4a1, Aldh5a1, Aldoc, Apoa1bp, Cat, Cbr4, Cda, Cnga2, Coasy, Crtc1, Crtc2, Crtc3, Cryz, Cth, Dctpp1, Dcxr, Decr1, Dhps, Dnm1l, Dpys, Evl, Fbp1, Fbp2, Gfpt1, Gls, Gnmt, Gpx3, H2-T18, Hprt, Hsd17b10, Ide, Impdh2, Kcnj10, Kcnj12, Kcnj2, Kcnma1, Mat1a, Mbl1, Mip, Pcbd1, Pcbd2, Pex14, Pex5, Pfkl, Pfkm, Pfkp, Ppat, Samhd1, Shmt1, Shmt2, Sod2, Srr, Thg1l, Tk1, Trp63, Trpm8, Usp16, Usp21, Vasp]	TRUE
GO:0070663	GO_BiologicalProcess_20.03.2014_19h52	regulation of leukocyte proliferation	[4, 5]	[Group3]	7	4.0	6.067009183570625E-4	0.001989979012211165	{Group3=4.641383980741558E-7}	{Group3=3.4810379855561684E-6}	[Bcl2, Cblb, Cd1d1, Ggta1, Il2ra, Jak3, Traf6]	[4632428N05Rik, Ada, Adk, Ahr, Aif1, Atm, Bcl2, Bcl6, Blm, Bmi1, Bmp4, Btla, Btn1a1, Btn2a2, Btnl2, Card11, Casp3, Cblb, Ccl5, Ccr2, Ccr7, Cd1d1, Cd209a, Cd24a, Cd274, Cd276, Cd28, Cd300a, Cd38, Cd3e, Cd40, Cd40lg, Cd46, Cd59b, Cd74, Cd80, Cd81, Cd86, Cdkn1a, Cdkn2a, Chrnb2, Clcf1, Clec2i, Coro1a, Csf1, Ctla4, Ctnnb1, D7Zem1, D7Zem2, D7Zem3, Dlg1, Dnaja3, Efnb1, Erbb2, Fadd, Fcgr2b, Fgf10, Foxj1, Foxp3, Gal, Ggta1, Glmn, Gpam, Gpr183, Grem1, Gstp1, H2-Aa, H2-Ab1, H2-M3, Hes1, Icosl, Ido1, Ifng, Igf1, Igf2, Igfbp2, Ighd, Ighm, Ihh, Ikzf3, Il10, Il12a, Il12b, Il12rb1, Il13, Il15, Il18, Il1b, Il2, Il20rb, Il21, Il23a, Il27, Il2ra, Il3, Il4, Il5, Il6, Il6st, Il7, Inpp5d, Irf1, Irs2, Itch, Itgal, Jak3, Kitl, Lrrc32, Lyn, Mef2c, Mif, Myd88, Mzb1, Nck1, Nck2, Nckap1l, Ndfip1, Nfatc2, Ocstamp, Pawr, Pdcd1lg2, Pde5a, Peli1, Pnp, Ppp1r9b, Prdm1, Prkcq, Prnp, Ptpn22, Ptpn6, Ptprc, Pycard, Rc3h1, Ripk2, Ripk3, Rltpr, Sash3, Scgb1a1, Selk, Sftpd, Shh, Slfn1, Sox11, Spn, Spta1, Stat5a, Stat5b, Syk, Tac1, Tacr1, Tcf3, Tcf7l1, Tgfb1, Ticam1, Tirap, Tlr4, Tnfrsf13b, Tnfrsf13c, Tnfrsf14, Tnfrsf21, Tnfrsf4, Tnfsf13b, Tnfsf18, Tnfsf4, Traf6, Vav3, Vcam1, Vsig4, Vtcn1, Wnt3a, Xcl1, Zap70, Zfp335, Znhit1, Zp3]	FALSE
GO:0070664	GO_BiologicalProcess_20.03.2014_19h52	negative regulation of leukocyte proliferation	[4, 5, 6]	[Group3]	3	5.084746	0.012456093499689222	0.014385910802457975	{Group3=4.641383980741558E-7}	{Group3=3.4810379855561684E-6}	[Cblb, Ggta1, Il2ra]	[4632428N05Rik, Atm, Bmp4, Btla, Btn1a1, Btn2a2, Casp3, Cblb, Cd24a, Cd274, Cd276, Cd300a, Cdkn2a, Ctla4, Dlg1, Erbb2, Fcgr2b, Foxj1, Foxp3, Gal, Ggta1, Glmn, Grem1, Gstp1, H2-Aa, H2-Ab1, H2-M3, Ido1, Ihh, Il10, Il2, Il20rb, Il2ra, Inpp5d, Itch, Lrrc32, Lyn, Ndfip1, Pawr, Pdcd1lg2, Pde5a, Peli1, Ppp1r9b, Prdm1, Prnp, Ptpn6, Rc3h1, Scgb1a1, Sftpd, Shh, Slfn1, Sox11, Spn, Tgfb1, Tnfrsf13b, Tnfrsf14, Tnfrsf21, Vsig4, Xcl1]	FALSE
GO:0070665	GO_BiologicalProcess_20.03.2014_19h52	positive regulation of leukocyte proliferation	[4, 5, 6]	[Group3]	5	4.3103447	0.0026612214272492183	0.004642982064562466	{Group3=4.641383980741558E-7}	{Group3=3.4810379855561684E-6}	[Bcl2, Cd1d1, Il2ra, Jak3, Traf6]	[Ada, Adk, Aif1, Bcl2, Bcl6, Blm, Bmi1, Btnl2, Card11, Ccl5, Ccr2, Ccr7, Cd1d1, Cd24a, Cd276, Cd28, Cd38, Cd3e, Cd40, Cd40lg, Cd46, Cd59b, Cd74, Cd80, Cd81, Cd86, Cdkn1a, Chrnb2, Clcf1, Coro1a, Csf1, D7Zem1, D7Zem2, D7Zem3, Dnaja3, Efnb1, Fadd, Fgf10, Foxp3, Gpam, Gpr183, Hes1, Icosl, Ifng, Igf1, Igf2, Igfbp2, Ighd, Ighm, Il12a, Il12b, Il12rb1, Il13, Il15, Il18, Il1b, Il2, Il21, Il23a, Il2ra, Il3, Il4, Il5, Il6, Il6st, Il7, Irs2, Itgal, Jak3, Kitl, Lyn, Mef2c, Mif, Myd88, Nck1, Nck2, Nckap1l, Nfatc2, Ocstamp, Pdcd1lg2, Peli1, Pnp, Ppp1r9b, Prkcq, Ptprc, Pycard, Ripk2, Rltpr, Sash3, Selk, Shh, Spn, Spta1, Stat5a, Stat5b, Syk, Tac1, Tacr1, Tcf3, Tcf7l1, Ticam1, Tirap, Tlr4, Tnfrsf13c, Tnfrsf4, Tnfsf13b, Tnfsf4, Traf6, Vav3, Vcam1, Vtcn1, Wnt3a, Xcl1, Zap70, Zfp335, Zp3]	FALSE
GO:0071453	GO_BiologicalProcess_20.03.2014_19h52	cellular response to oxygen levels	[4]	[Group0, Group13]	4	7.2727275	0.0010615957792665062	0.0026379046636319245	{Group0=8.153731079442554E-7, Group13=9.919485215274963E-6}	{Group0=4.076865539721277E-6, Group13=3.719806955728111E-5}	[Bcl2, Higd1a, P4hb, Vegfa]	[Adam8, Adrb2, Ajuba, Akt1, Aqp1, Bach1, Bcl2, Bnip3, Brip1, Cav1, Cbs, Cd34, Cited2, Cpeb1, Cpeb2, Cpeb4, Epas1, Fabp1, Fam162a, Fas, Fmn2, Fndc1, Gata6, Gnb1, Gngt1, Hif1a, Hif1an, Higd1a, Kcnk3, Mgarp, Mtor, Myod1, Nkx3-1, Notch1, Nox1, Npepps, P4hb, Pdk1, Pdk3, Pdpk1, Pick1, Plk3, Prkce, Ptgis, Rgcc, Sirt1, Slc2a4, Slc9a1, Twist1, Ubqln1, Usp19, Vasn, Vegfa, Vhl, Vldlr]	FALSE
GO:0071456	GO_BiologicalProcess_20.03.2014_19h52	cellular response to hypoxia	[4, 6]	[Group0, Group13]	4	8.163265	6.851215822240737E-4	0.002160768067014386	{Group0=8.153731079442554E-7, Group13=9.919485215274963E-6}	{Group0=4.076865539721277E-6, Group13=3.719806955728111E-5}	[Bcl2, Higd1a, P4hb, Vegfa]	[Adam8, Adrb2, Ajuba, Akt1, Aqp1, Bach1, Bcl2, Bnip3, Brip1, Cbs, Cd34, Cited2, Cpeb1, Cpeb2, Epas1, Fabp1, Fam162a, Fmn2, Fndc1, Gata6, Gnb1, Gngt1, Hif1a, Hif1an, Higd1a, Kcnk3, Mgarp, Mtor, Nkx3-1, Notch1, Npepps, P4hb, Pdk1, Pdk3, Pdpk1, Plk3, Prkce, Ptgis, Rgcc, Sirt1, Slc2a4, Slc9a1, Twist1, Ubqln1, Usp19, Vasn, Vegfa, Vhl, Vldlr]	TRUE
GO:0072527	GO_BiologicalProcess_20.03.2014_19h52	pyrimidine-containing compound metabolic process	[4]	[Group12]	4	8.510638	5.841418126191984E-4	0.0019958178597822614	{Group12=8.381153552084281E-8}	{Group12=1.2571730328126422E-6}	[Ctps, Ctps2, Dhodh, Tyms]	[Acpp, Aicda, Ak3, Ak4, Aldh6a1, Apobec1, Cad, Cda, Cmpk1, Cmpk2, Crmp1, Ctps, Ctps2, Dck, Dhodh, Dpyd, Dpys, Dpysl2, Dpysl3, Dpysl4, Dpysl5, Dtymk, Dut, IMP:, Mapk1, Nme1, Nme2, Nme3, Nme4, Nme5, Nme6, Nme7, Nme8, Nt5c, Nt5m, Pycrl, Rp2h, Tbpl1, Tet2, Thtpa, Tk2, Tpk1, Tymp, Tyms, Umps, Upp1, Uprt]	FALSE
GO:0072528	GO_BiologicalProcess_20.03.2014_19h52	pyrimidine-containing compound biosynthetic process	[5]	[Group12]	4	17.391304	3.3797927200763936E-5	3.4642875380783036E-4	{Group12=8.381153552084281E-8}	{Group12=1.2571730328126422E-6}	[Ctps, Ctps2, Dhodh, Tyms]	[Cad, Cmpk1, Cmpk2, Ctps, Ctps2, Dhodh, Dpyd, Dtymk, Dut, Nme1, Nme2, Nme3, Nme4, Nme5, Nme6, Nme7, Nme8, Rp2h, Tbpl1, Tpk1, Tyms, Umps, Uprt]	FALSE
GO:1901605	GO_BiologicalProcess_20.03.2014_19h52	alpha-amino acid metabolic process	[4, 5, 7, 8]	[Group12]	8	4.255319	1.6356155211936686E-4	9.580033766991488E-4	{Group12=8.381153552084281E-8}	{Group12=1.2571730328126422E-6}	[Atic, Ctps, Ctps2, Ero1lb, Gcsh, Gmps, P4hb, Spr]	[Aadat, Aass, Adc, Adi1, Adsl, Adss, Adssl1, Afmid, Agxt, Agxt2, Ahcy, Aldh18a1, Aldh1l1, Aldh1l2, Aldh4a1, Aldh5a1, Aldh6a1, Amdhd1, Amt, Apc, Apip, Arg1, Arg2, Asl, Asns, Asnsd1, Aspg, Asrgl1, Ass1, Atcay, Atic, Atp7a, Atp7b, BC026590, Baat, Bcat2, Bhmt, Bhmt2, Carns1, Cbs, Ccbl1, Ccbl2, Cd34, Cdo1, Coasy, Comt, Cps1, Csad, Cth, Ctps, Ctps2, Dao, Dct, Ddah1, Ddah2, Ddo, Dhfr, Dhps, Dmgdh, Dnmt1, Dnmt3a, Dnmt3b, Dohh, Dpep1, Dtd1, Dtd2, Egln1, Egln2, Egln3, Eif5a, Eif5a2, Enoph1, Ero1l, Ero1lb, Fah, Folh1, Folr1, Fpgs, Ftcd, Gad2, Gamt, Gart, Gatm, Gch1, Gclc, Gclm, Gcsh, Gfpt1, Gfpt2, Ggh, Ggt1, Ghr, Ghrl, Gldc, Gls, Gls2, Glud1, Glul, Gmps, Gnmt, Got1, Got2, Gpt2, Gstz1, Hal, Hdc, Hgd, Hibadh, Hnf4a, Hoga1, Hpd, Htt, Iba57, Icmt, Ido1, Ido2, Ivd, Kmo, Kynu, Lgsn, Mecp2, Mri1, Mthfd1, Mthfd1l, Mthfd2, Mthfd2l, Mthfr, Mthfs, Mthfsd, Mtr, Mtrr, Mut, Nags, Nfs1, Nos1, Nos2, Nos3, Nox4, Noxred1, Nr1h4, Ocln, Otc, P4ha1, P4ha2, P4hb, Padi1, Padi2, Padi3, Padi4, Padi6, Pah, Pcmt1, Pdpr, Pfas, Phgdh, Pipox, Ppat, Prdx4, Prodh, Prodh2, Psat1, Psph, Pycr1, Pycr2, Pycrl, Sardh, Sds, Shmt1, Shmt2, Sirt4, Slc1a3, Slc6a4, Spr, Srr, Stat5a, Stat5b, Tacr1, Tat, Tdh, Tdo2, Th, Thnsl2, Tinagl1, Tph2, Txnrd1, Tyrp1, Uroc1, hph-1]	FALSE
GO:1901659	GO_BiologicalProcess_20.03.2014_19h52	glycosyl compound biosynthetic process	[4]	[Group12]	4	4.4444447	0.006375824526428675	0.008713626852785856	{Group12=8.381153552084281E-8}	{Group12=1.2571730328126422E-6}	[Ctps, Dhodh, Gmps, Stoml2]	[ATPASE6, Ada, Adal, Adk, Adsl, Adss, Adssl1, Ak2, Ak3, Ak4, Ak9, Aldoa, Aprt, Atp12a, Atp1a1, Atp1a2, Atp1a3, Atp1a4, Atp4a, Atp5a1, Atp5b, Atp5c1, Atp5d, Atp5e, Atp5f1, Atp5g1, Atp5g3, Atp5h, Atp5j, Atp5j2, Atp5k, Atp5l, Atp5o, Atp5s, Cad, Chchd10, Cmpk1, Coasy, Ctps, Dcakd, Dhodh, Dpyd, Flcn, Gbas, Gmps, Guk1, Hprt, Impdh1, Impdh2, Ldhc, Ldhd, Mat1a, Mat2a, Mat2b, Mtap, Myc, Nme1, Nme2, Nme3, Nme4, Nme5, Nme6, Nme7, Nme8, Nt5e, Pank1, Pank2, Pank3, Pank4, Papss1, Pid1, Pklr, Pkm, Pnp, Ppargc1a, Ppcdc, Ppcs, Prps1, Prps2, Qtrt1, Qtrtd1, Rp2h, Slc25a13, Stoml2, Surf1, Tgfb1, Tyw5, URFA6L, Umps, Uprt]	FALSE
REACTOME:5416757	REACTOME_21.03.2014	Purine metabolism	[-1]	[Group12]	3	7.894737	0.0036622931546228385	0.005775154589982168	{Group12=8.381153552084281E-8}	{Group12=1.2571730328126422E-6}	[Atic, Gmps, Ldha]	[100045567, 100046995, Ada, Adal, Adk, Adsl, Adss, Adssl1, Ampd2, Ampd3, Aprt, Atic, Cat, Dck, Dguok, Gart, Gda, Gm15210, Gm7282, Gmpr, Gmpr2, Gmps, Gpx1, Hprt, Impdh1, Impdh2, Ldha, Nt5c, Nt5c1a, Nt5c1b, Nt5c2, Nt5e, Paics, Pfas, Pnp, Pnp2, Ppat, Xdh]	FALSE
REACTOME:5416758	REACTOME_21.03.2014	Metabolism of nucleotides	[-1]	[Group12]	9	9.89011	5.952162222482272E-8	4.8807730224354636E-6	{Group12=8.381153552084281E-8}	{Group12=1.2571730328126422E-6}	[Atic, Ctps, Ctps2, Dctd, Dhodh, Glrx, Gmps, Ldha, Tyms]	[100044298, 100045567, 100046344, 100046995, 100047005, 100048375, 630729, Ada, Adal, Adk, Adsl, Adss, Adssl1, Agxt2, Ak1, Ak2, Ak5, Ampd2, Ampd3, Aprt, Atic, Cad, Cat, Cda, Cmpk1, Ctps, Ctps2, Dck, Dctd, Dguok, Dhodh, Dpyd, Dpys, Dtymk, Dut, Gart, Gda, Glrx, Gm15210, Gm4482, Gm5566, Gm6091, Gm7282, Gmpr, Gmpr2, Gmps, Gpx1, Gsr, Guk1, Hprt, Impdh1, Impdh2, Itpa, Ldha, Nme1, Nme2, Nme4, Nt5c, Nt5c1a, Nt5c1b, Nt5c2, Nt5c3, Nt5e, Nt5m, Nudt1, Nudt15, Nudt16, Nudt18, Nudt5, Nudt9, Paics, Pfas, Pnp, Pnp2, Ppat, Rrm1, Rrm2, Rrm2b, Tk1, Tk2, Txn1, Txnrd1, Tymp, Tyms, Uck1, Uck2, Umps, Upb1, Upp1, Upp2, Xdh]	TRUE
REACTOME:5416760	REACTOME_21.03.2014	Synthesis and interconversion of nucleotide di- and triphosphates	[-1]	[Group12]	3	13.636364	7.358182826972978E-4	0.0021548963993278008	{Group12=8.381153552084281E-8}	{Group12=1.2571730328126422E-6}	[Ctps, Ctps2, Glrx]	[100046344, 100047005, 630729, Ak1, Ak2, Ak5, Cmpk1, Ctps, Ctps2, Dtymk, Glrx, Gm5566, Gsr, Guk1, Nme1, Nme2, Nme4, Rrm1, Rrm2, Rrm2b, Txn1, Txnrd1]	FALSE
REACTOME:5416787	REACTOME_21.03.2014	Pyrimidine biosynthesis	[-1]	[Group12]	3	50.0	1.0523812178010595E-5	2.8765086619895623E-4	{Group12=8.381153552084281E-8}	{Group12=1.2571730328126422E-6}	[Dctd, Dhodh, Tyms]	[Cad, Dctd, Dhodh, Dut, Tyms, Umps]	FALSE
REACTOME:5416788	REACTOME_21.03.2014	Pyrimidine metabolism	[-1]	[Group12]	3	11.111111	0.0013562416663202659	0.003005724774007076	{Group12=8.381153552084281E-8}	{Group12=1.2571730328126422E-6}	[Dctd, Dhodh, Tyms]	[100048375, Agxt2, Cad, Cda, Dck, Dctd, Dhodh, Dpyd, Dpys, Dut, Gm4482, Gm6091, Nt5c, Nt5c1a, Nt5c3, Nt5e, Nt5m, Tk1, Tk2, Tymp, Tyms, Uck1, Uck2, Umps, Upb1, Upp1, Upp2]	FALSE
REACTOME:5416898	REACTOME_21.03.2014	Triglyceride Biosynthesis	[-1]	[None]	3	8.1081085	0.003393375316709435	0.005565135519403474	{None=NaN}	{None=NaN}	[Acaca, Agpat5, Elovl6]	[100043671, Acaca, Acly, Acsl1, Acsl4, Acsl5, Acsl6, Agpat1, Agpat2, Agpat3, Agpat4, Agpat5, Agpat6, Agpat9, Dgat1, Dgat2, Elovl1, Elovl2, Elovl3, Elovl4, Elovl5, Elovl6, Elovl7, Fasn, Gpam, Gpd1, Gpd1l, Gyk, Gykl1, Hsd17b12, Lclat1, Lpcat1, Lpcat4, Lpin1, Lpin2, Slc25a1, Tecr]	TRUE
REACTOME:5417060	REACTOME_21.03.2014	Intrinsic Pathway for Apoptosis	[-1]	[Group2]	3	6.521739	0.0062830594058877086	0.008732387648860883	{Group2=7.43395994630947E-5}	{Group2=1.8584899865773676E-4}	[Bcl2, Casp9, Cycs]	[100045925, 100046608, 100047666, Akt1, Apaf1, Bad, Bak1, Bax, Bcl2, Bcl2l1, Bcl2l11, Bid, Bmf, Casp3, Casp7, Casp8, Casp9, Cycs, Diablo, Dynll1, Dynll2, Gm10053, Gm10108, Gm2423, Gm3655, Gm6788, Gzmb, Gzmc, Gzmd, Gzme, Gzmf, Gzmg, Gzmn, Mapk8, Nmt1, Pmaip1, Ppp3cc, Ppp3r1, Sfn, Xiap, Ywhab, Ywhae, Ywhag, Ywhah, Ywhaq, Ywhaz]	FALSE
REACTOME:5417074	REACTOME_21.03.2014	Response to elevated platelet cytosolic Ca2+	[-1]	[Group1]	4	4.255319	0.007420389814419663	0.009658285155276386	{Group1=0.007420389814419663}	{Group1=0.007950417658306782}	[Plek, Psap, Srgn, Vegfa]	[100044675, 100046120, 100046740, 100047211, 100048143, 100048522, 545845, 640441, A2m, Actn1, Actn4, Alb, Aldoa, Apoa1, App, Brpf3, Calm1, Calm2, Calm3, Calu, Cap1, Cd36, Cd63, Cd9, Cfd, Cfl1, Clu, Egf, F13a1, F5, F8, Fga, Fgb, Fgg, Figf, Flna, Fn1, Gas6, Gm8566, Habp4, Hgf, Hrg, Hspa5, Igf1, Igf2, Itga2b, Itgb3, Kng1, Kng2, Lamp2, Lefty1, Lefty2, Pdgfa, Pdgfb, Pf4, Pfn1, Plek, Plg, Ppbp, Prkca, Prkcb, Prkcg, Pros1, Psap, Scg3, Selp, Serpina1a, Serpina1b, Serpina1c, Serpina1d, Serpina1e, Serpinf2, Serping1, Sod1, Sparc, Srgn, Stx4a, Stxbp3a, Tgfb1, Tgfb2, Tgfb3, Thbs1, Timp1, Tln1, Tmsb4x, Trf, Ttn, Tuba4a, Vcl, Vegfa, Vegfb, Vegfc, Vwf, Wdr1]	FALSE
REACTOME:5417311	REACTOME_21.03.2014	GAB1 signalosome	[-1]	[Group2]	4	4.4444447	0.006375824526428675	0.008713626852785856	{Group2=7.43395994630947E-5}	{Group2=1.8584899865773676E-4}	[Casp9, Foxo1, Gsk3b, Rictor]	[100044675, 100045947, 100047666, 100048681, Akt1, Akt1s1, Bad, Btc, Casp9, Cd19, Cd80, Cd86, Cdkn1a, Cdkn1b, Chuk, Creb1, Csk, Egf, Egfr, Erbb2, Erbb3, Erbb4, Ereg, Fgf1, Fgf10, Fgf15, Fgf17, Fgf18, Fgf2, Fgf20, Fgf22, Fgf23, Fgf3, Fgf4, Fgf5, Fgf6, Fgf7, Fgf8, Fgf9, Fgfr1, Fgfr3, Fgfr4, Foxo1, Foxo3, Foxo4, Frs2, Fyn, Gab1, Grb2, Gsk3a, Gsk3b, Hbegf, Irs1, Irs2, Kit, Kitl, Kl, Klb, Lck, Mapkap1, Mdm2, Mlst8, Mtor, Nr4a1, Nrg1, Nrg2, Nrg4, Pag1, Pdgfa, Pdgfb, Pdgfra, Pdpk1, Phlpp1, Phlpp2, Pik3ca, Pik3cb, Pik3cd, Pik3r1, Pik3r2, Pten, Ptpn11, Pxn, Rictor, Rps6kb2, Src, Them4, Trat1, Trib3, Tsc2, Vav1]	FALSE
REACTOME:5417312	REACTOME_21.03.2014	PI-3K cascade	[-1]	[Group2]	4	4.6511626	0.005433805991236164	0.007817054233006411	{Group2=7.43395994630947E-5}	{Group2=1.8584899865773676E-4}	[Casp9, Foxo1, Gsk3b, Rictor]	[100044675, 100045947, 100047666, 100048681, Akt1, Akt1s1, Bad, Btc, Casp9, Cd19, Cd80, Cd86, Cdkn1a, Cdkn1b, Chuk, Creb1, Egf, Egfr, Erbb2, Erbb3, Erbb4, Ereg, Fgf1, Fgf10, Fgf15, Fgf17, Fgf18, Fgf2, Fgf20, Fgf22, Fgf23, Fgf3, Fgf4, Fgf5, Fgf6, Fgf7, Fgf8, Fgf9, Fgfr1, Fgfr3, Fgfr4, Foxo1, Foxo3, Foxo4, Frs2, Fyn, Gab1, Grb2, Gsk3a, Gsk3b, Hbegf, Irs1, Irs2, Kit, Kitl, Kl, Klb, Lck, Mapkap1, Mdm2, Mlst8, Mtor, Nr4a1, Nrg1, Nrg2, Nrg4, Pdgfa, Pdgfb, Pdgfra, Pdpk1, Phlpp1, Phlpp2, Pik3ca, Pik3cb, Pik3cd, Pik3r1, Pik3r2, Pten, Ptpn11, Rictor, Rps6kb2, Them4, Trat1, Trib3, Tsc2, Vav1]	FALSE
REACTOME:5417402	REACTOME_21.03.2014	PI3K/AKT activation	[-1]	[Group2]	4	4.3956046	0.006627176556669874	0.008908663567982452	{Group2=7.43395994630947E-5}	{Group2=1.8584899865773676E-4}	[Casp9, Foxo1, Gsk3b, Rictor]	[100044675, 100045947, 100047666, 100048681, 631743, Akt1, Akt1s1, Bad, Btc, Casp9, Cd19, Cd80, Cd86, Cdkn1a, Cdkn1b, Chuk, Creb1, Egf, Egfr, Erbb2, Erbb3, Erbb4, Ereg, Fgf1, Fgf10, Fgf15, Fgf17, Fgf18, Fgf2, Fgf20, Fgf22, Fgf23, Fgf3, Fgf4, Fgf5, Fgf6, Fgf7, Fgf8, Fgf9, Fgfr1, Fgfr3, Fgfr4, Foxo1, Foxo3, Foxo4, Frs2, Fyn, Gab1, Gm12844, Grb2, Gsk3a, Gsk3b, Hbegf, Irs1, Irs2, Kit, Kitl, Kl, Klb, Lck, Mapkap1, Mdm2, Mlst8, Mtor, Ngf, Nr4a1, Nrg1, Nrg2, Nrg4, Ntrk1, Pdgfa, Pdgfb, Pdgfra, Pdpk1, Phlpp1, Phlpp2, Pik3ca, Pik3cb, Pik3cd, Pik3r1, Pik3r2, Pten, Ptpn11, Rhoa, Rictor, Rps6kb2, Them4, Trat1, Trib3, Tsc2, Vav1]	FALSE
REACTOME:5417406	REACTOME_21.03.2014	PIP3 activates AKT signaling	[-1]	[Group2]	4	4.6511626	0.005433805991236164	0.007817054233006411	{Group2=7.43395994630947E-5}	{Group2=1.8584899865773676E-4}	[Casp9, Foxo1, Gsk3b, Rictor]	[100044675, 100045947, 100047666, 100048681, Akt1, Akt1s1, Bad, Btc, Casp9, Cd19, Cd80, Cd86, Cdkn1a, Cdkn1b, Chuk, Creb1, Egf, Egfr, Erbb2, Erbb3, Erbb4, Ereg, Fgf1, Fgf10, Fgf15, Fgf17, Fgf18, Fgf2, Fgf20, Fgf22, Fgf23, Fgf3, Fgf4, Fgf5, Fgf6, Fgf7, Fgf8, Fgf9, Fgfr1, Fgfr3, Fgfr4, Foxo1, Foxo3, Foxo4, Frs2, Fyn, Gab1, Grb2, Gsk3a, Gsk3b, Hbegf, Irs1, Irs2, Kit, Kitl, Kl, Klb, Lck, Mapkap1, Mdm2, Mlst8, Mtor, Nr4a1, Nrg1, Nrg2, Nrg4, Pdgfa, Pdgfb, Pdgfra, Pdpk1, Phlpp1, Phlpp2, Pik3ca, Pik3cb, Pik3cd, Pik3r1, Pik3r2, Pten, Ptpn11, Rictor, Rps6kb2, Them4, Trat1, Trib3, Tsc2, Vav1]	FALSE
REACTOME:5417408	REACTOME_21.03.2014	PI3K events in ERBB4 signaling	[-1]	[Group2]	4	4.6511626	0.005433805991236164	0.007817054233006411	{Group2=7.43395994630947E-5}	{Group2=1.8584899865773676E-4}	[Casp9, Foxo1, Gsk3b, Rictor]	[100044675, 100045947, 100047666, 100048681, Akt1, Akt1s1, Bad, Btc, Casp9, Cd19, Cd80, Cd86, Cdkn1a, Cdkn1b, Chuk, Creb1, Egf, Egfr, Erbb2, Erbb3, Erbb4, Ereg, Fgf1, Fgf10, Fgf15, Fgf17, Fgf18, Fgf2, Fgf20, Fgf22, Fgf23, Fgf3, Fgf4, Fgf5, Fgf6, Fgf7, Fgf8, Fgf9, Fgfr1, Fgfr3, Fgfr4, Foxo1, Foxo3, Foxo4, Frs2, Fyn, Gab1, Grb2, Gsk3a, Gsk3b, Hbegf, Irs1, Irs2, Kit, Kitl, Kl, Klb, Lck, Mapkap1, Mdm2, Mlst8, Mtor, Nr4a1, Nrg1, Nrg2, Nrg4, Pdgfa, Pdgfb, Pdgfra, Pdpk1, Phlpp1, Phlpp2, Pik3ca, Pik3cb, Pik3cd, Pik3r1, Pik3r2, Pten, Ptpn11, Rictor, Rps6kb2, Them4, Trat1, Trib3, Tsc2, Vav1]	FALSE
REACTOME:5417409	REACTOME_21.03.2014	PI3K events in ERBB2 signaling	[-1]	[Group2]	4	4.6511626	0.005433805991236164	0.007817054233006411	{Group2=7.43395994630947E-5}	{Group2=1.8584899865773676E-4}	[Casp9, Foxo1, Gsk3b, Rictor]	[100044675, 100045947, 100047666, 100048681, Akt1, Akt1s1, Bad, Btc, Casp9, Cd19, Cd80, Cd86, Cdkn1a, Cdkn1b, Chuk, Creb1, Egf, Egfr, Erbb2, Erbb3, Erbb4, Ereg, Fgf1, Fgf10, Fgf15, Fgf17, Fgf18, Fgf2, Fgf20, Fgf22, Fgf23, Fgf3, Fgf4, Fgf5, Fgf6, Fgf7, Fgf8, Fgf9, Fgfr1, Fgfr3, Fgfr4, Foxo1, Foxo3, Foxo4, Frs2, Fyn, Gab1, Grb2, Gsk3a, Gsk3b, Hbegf, Irs1, Irs2, Kit, Kitl, Kl, Klb, Lck, Mapkap1, Mdm2, Mlst8, Mtor, Nr4a1, Nrg1, Nrg2, Nrg4, Pdgfa, Pdgfb, Pdgfra, Pdpk1, Phlpp1, Phlpp2, Pik3ca, Pik3cb, Pik3cd, Pik3r1, Pik3r2, Pten, Ptpn11, Rictor, Rps6kb2, Them4, Trat1, Trib3, Tsc2, Vav1]	FALSE
REACTOME:5417410	REACTOME_21.03.2014	PI3K/AKT Signaling in Cancer	[-1]	[Group2]	4	4.6511626	0.005433805991236164	0.007817054233006411	{Group2=7.43395994630947E-5}	{Group2=1.8584899865773676E-4}	[Casp9, Foxo1, Gsk3b, Rictor]	[100044675, 100045947, 100047666, 100048681, Akt1, Akt1s1, Bad, Btc, Casp9, Cd19, Cd80, Cd86, Cdkn1a, Cdkn1b, Chuk, Creb1, Egf, Egfr, Erbb2, Erbb3, Erbb4, Ereg, Fgf1, Fgf10, Fgf15, Fgf17, Fgf18, Fgf2, Fgf20, Fgf22, Fgf23, Fgf3, Fgf4, Fgf5, Fgf6, Fgf7, Fgf8, Fgf9, Fgfr1, Fgfr3, Fgfr4, Foxo1, Foxo3, Foxo4, Frs2, Fyn, Gab1, Grb2, Gsk3a, Gsk3b, Hbegf, Irs1, Irs2, Kit, Kitl, Kl, Klb, Lck, Mapkap1, Mdm2, Mlst8, Mtor, Nr4a1, Nrg1, Nrg2, Nrg4, Pdgfa, Pdgfb, Pdgfra, Pdpk1, Phlpp1, Phlpp2, Pik3ca, Pik3cb, Pik3cd, Pik3r1, Pik3r2, Pten, Ptpn11, Rictor, Rps6kb2, Them4, Trat1, Trib3, Tsc2, Vav1]	FALSE
REACTOME:5417506	REACTOME_21.03.2014	Platelet degranulation	[-1]	[Group1]	4	4.494382	0.0061308828514666765	0.008667799893452887	{Group1=0.007420389814419663}	{Group1=0.007950417658306782}	[Plek, Psap, Srgn, Vegfa]	[100044675, 100046120, 100046740, 100047211, 100048143, 100048522, 545845, 640441, A2m, Actn1, Actn4, Alb, Aldoa, Apoa1, App, Brpf3, Calm1, Calm2, Calm3, Calu, Cap1, Cd36, Cd63, Cd9, Cfd, Cfl1, Clu, Egf, F13a1, F5, F8, Fga, Fgb, Fgg, Figf, Flna, Fn1, Gas6, Gm8566, Habp4, Hgf, Hrg, Hspa5, Igf1, Igf2, Itga2b, Itgb3, Kng1, Kng2, Lamp2, Lefty1, Lefty2, Pdgfa, Pdgfb, Pf4, Pfn1, Plek, Plg, Ppbp, Pros1, Psap, Scg3, Selp, Serpina1a, Serpina1b, Serpina1c, Serpina1d, Serpina1e, Serpinf2, Serping1, Sod1, Sparc, Srgn, Tgfb1, Tgfb2, Tgfb3, Thbs1, Timp1, Tln1, Tmsb4x, Trf, Ttn, Tuba4a, Vcl, Vegfa, Vegfb, Vegfc, Vwf, Wdr1]	TRUE
REACTOME:5417511	REACTOME_21.03.2014	Transport of inorganic cations/anions and amino acids/oligopeptides	[-1]	[None]	4	4.2105265	0.007698073467008508	0.009863156629604651	{None=NaN}	{None=NaN}	[Slc17a5, Slc1a4, Slc4a8, Slc9a9]	[100040803, 100045485, 100045882, 100047521, AU018091, Slc12a1, Slc12a3, Slc12a4, Slc12a5, Slc12a6, Slc12a7, Slc15a1, Slc15a3, Slc15a4, Slc16a10, Slc17a1, Slc17a5, Slc17a6, Slc17a7, Slc17a8, Slc1a1, Slc1a2, Slc1a3, Slc1a4, Slc1a5, Slc1a6, Slc1a7, Slc20a1, Slc20a2, Slc24a1, Slc24a2, Slc24a3, Slc24a4, Slc24a5, Slc25a10, Slc26a1, Slc26a2, Slc26a3, Slc26a4, Slc26a6, Slc26a7, Slc26a9, Slc32a1, Slc34a1, Slc34a2, Slc34a3, Slc36a1, Slc36a2, Slc38a1, Slc38a2, Slc38a4, Slc38a5, Slc3a1, Slc3a2, Slc43a1, Slc43a2, Slc4a1, Slc4a10, Slc4a2, Slc4a3, Slc4a4, Slc4a5, Slc4a7, Slc4a8, Slc4a9, Slc5a8, Slc6a12, Slc6a14, Slc6a15, Slc6a18, Slc6a19, Slc6a20a, Slc6a20b, Slc6a6, Slc7a1, Slc7a10, Slc7a11, Slc7a3, Slc7a5, Slc7a6, Slc7a7, Slc7a8, Slc7a9, Slc8a1, Slc8a2, Slc8a3, Slc8b1, Slc9a1, Slc9a2, Slc9a3, Slc9a4, Slc9a6, Slc9a7, Slc9a8, Slc9a9]	TRUE
REACTOME:5417967	REACTOME_21.03.2014	Constitutive PI3K/AKT Signaling in Cancer	[-1]	[Group2]	4	4.878049	0.004589706792891734	0.006720642089591467	{Group2=7.43395994630947E-5}	{Group2=1.8584899865773676E-4}	[Casp9, Foxo1, Gsk3b, Rictor]	[100044675, 100045947, 100047666, 100048681, Akt1, Akt1s1, Bad, Btc, Casp9, Cd19, Cd80, Cd86, Cdkn1a, Cdkn1b, Chuk, Creb1, Egf, Egfr, Erbb2, Erbb3, Erbb4, Ereg, Fgf1, Fgf10, Fgf15, Fgf17, Fgf18, Fgf2, Fgf20, Fgf22, Fgf23, Fgf3, Fgf4, Fgf5, Fgf6, Fgf7, Fgf8, Fgf9, Fgfr1, Fgfr3, Fgfr4, Foxo1, Foxo3, Foxo4, Frs2, Fyn, Gab1, Grb2, Gsk3a, Gsk3b, Hbegf, Irs1, Irs2, Kit, Kitl, Kl, Klb, Lck, Mapkap1, Mdm2, Mlst8, Mtor, Nr4a1, Nrg1, Nrg2, Nrg4, Pdgfa, Pdgfb, Pdgfra, Pdpk1, Pik3ca, Pik3cb, Pik3cd, Pik3r1, Pik3r2, Pten, Ptpn11, Rictor, Rps6kb2, Trat1, Tsc2, Vav1]	FALSE
