0.712109902781
0.711719352244
0.711461309925
0.697744384674
0.702132266448
0.711161422906
0.712224975707
0.702119480568
0.712617850949
0.701927692358
0.709435329016
0.722467628475
0.711039375863
0.698601038678
0.70035270433
0.708944816139
0.698896276287
0.711730975772
0.714003375472
0.710225728911
0.700030732608
0.707455842218
0.705363607199
0.704339574393
0.715925906984
0.704735936694
0.708418270326
0.708955277314
0.707951004505
0.704782430805
0.698816073944
0.706658468205
0.709890971308
0.715975888154
0.701237254802
0.703606129784
0.71025013832
0.706996712866
0.708046317434
0.708075376254
0.708514745607
0.705056746063
0.705643734221
0.707150143434
0.70934117844
0.696468121312
0.709994420707
0.706157494153
0.702568148744
0.721659793287
0.703278346297
0.697782742316
0.70472198846
0.708798359688
0.695469660268
0.70590177654
0.709381860787
0.711966933388
0.708770463221
0.713818561379
0.702915692228
0.710937088818
0.718062311408
0.697725787029
0.707675526895
0.709245865511
0.709473686658
0.702369386417
0.701475537123
0.70374212506
0.709349314909
0.712565545074
0.705733235386
0.712335399222
0.70239960759
0.711175371139
0.708856477327
0.709414406665
0.707767352765
0.70768598807
0.703531739205
0.702900581641
0.709930491303
0.710080434813
0.708131169187
0.718514466643
0.708885536147
0.709278411389
0.707186176371
0.708883211441
0.694742027422
0.708148604479
0.713451257898
0.705877367131
0.696251923694
0.706636383502
0.703869983867
0.715735281127
0.711290444065
0.716387361041