1	Slc1a4
2	Wsb2
3	Serp1
4	Psap
5	Akirin1
6	Ccm2
7	Cd1d1
8	Chfr
9	Cr2
10	Gcn1l1
11	L2hgdh
12	Hivep1
13	Immt
14	Hspbap1
15	Trp53inp2
16	P4hb
17	Dennd5a
18	Slc4a8
19	Gsk3b
20	Smim14
21	Nrgn
22	Zfp260
23	Ypel2
24	Ndrg1
25	Rictor
26	Hmg20a
27	Il16
28	Eif4e
29	Entpd6
30	Pitpnm2
31	Etv5
32	Csnk1e
33	Arl5a
34	Nhp2
35	Atg12
36	Crebrf
37	Csad
38	Ublcp1
39	Hps3
40	Klf6
41	Vps54
42	Atp1b3
43	Rmnd5a
44	Cyb561d1
45	Elovl5
46	Bsn
47	Ccnd1
48	Dgkg
49	Sirt2
50	Gpbp1l1
51	Mesdc2
52	Kdm6b
53	Gapvd1
54	Ddx51
55	Zbtb18
56	Cd19
57	Nme1
58	Cyfip2
59	Dpp8
60	Foxo1
61	Chst3
62	Rapgef1
63	Irf1
64	Sepn1
65	Aff1
66	Clns1a
67	Hectd3
68	Ddx17
69	Shroom2
70	Bcl2
71	Serinc3
72	Ablim1
73	Sirpa
74	Higd1a
75	Ctdsp2
76	Iqgap1
77	Adpgk
78	Cyth3
79	Polr2e
80	Marcksl1
81	Tab2
82	Nudt16
83	Arnt
84	Setd8
85	Zfp316
86	Lgals8
87	Slc7a11
88	Arrdc3
89	Gdpd1
90	Car13
91	Guf1
92	Med13
93	Cdca7
94	Baz2a
95	Rps6ka2
96	Sun2
97	Ifit2
98	Stat3
99	Phldb1
100	Clcn3
101	Pemt
102	Rab43
103	Ube2r2
104	Bcl6
105	Evi5
106	Stc2
107	Bcl2l1
108	Gipc1
109	Tmem127
110	Zfp46
111	Tmem50b
112	Spef1
113	Kif21b
114	Dph5
115	Pus7l
116	Rap2a
117	Mrpl17
118	Ran
119	Ralgps1
120	Mpp6
121	Klhl42
122	Esf1
123	Idh3a
124	Exosc8
125	Hpse
126	Rpp14
127	Mrpl19
128	Tmem33
129	Gopc
130	Clpb
131	Zfp68
132	Dennd2c
133	Arrb1
134	Wdr46
135	Ddx11
136	Srprb
137	Nrarp
138	Grina
139	Mef2a
140	Qtrtd1
141	Cdc27
142	Npm3
143	Smad3
144	Elk4
145	Mllt3
146	Rere
147	Ncoa2
148	Uspl1
149	Eif2s1
150	Map1lc3b
151	Rxra
152	Jun
153	Amotl1
154	Ilf2
155	Elovl6
156	Vcp
157	Edil3
158	Chd9
159	Slc12a6
160	Cpsf2
161	Msi1
162	Hk2
163	Slc16a1
164	Ets2
165	Ahnak
166	Limk2
167	Ppa1
168	Agpat4
169	Camkk1
170	Ctse
171	Chm
172	Ezh2
173	Ece1
174	Gspt1
175	Fbxl22
176	Slc39a11
177	Cep41
178	Ap3m2
179	Cltb
180	Adat1
181	Pcbp4
182	Nxn
183	Znrf3
184	Actr1a
185	Bcl7a
186	Usp2
187	Pgm2l1
188	Limd2
189	Kcnab2
190	Canx
191	Pde4dip
192	Myb
193	Fryl
194	Gosr1
195	Napb
196	Cytip
197	Entpd7
198	Cd47
199	Comtd1
200	Ankrd49
201	Pnkd
202	Cks1b
203	Fdft1
204	Chek1
205	Bach1
206	Fgl2
207	Asah1
208	Luc7l
209	Fkbp5
210	Pde3b
211	Dync1li2
212	Itgam
213	Zmynd10
214	Aen
215	Ypel1
