1	Klf6
2	Ccnd2
3	Arvcf
4	Itga5
5	Gm2a
6	Serpinf1
7	Slc7a7
8	Ramp2
9	Itgb7
10	Sost
11	Stk38l
12	Il16
13	Rhoc
14	Rpl3l
15	Lcp2
16	Lamb1
17	Angptl2
18	Cacna1b
19	Ctse
20	Ndrg1
21	Epha2
22	Hfe
23	Crlf1
24	Spib
25	Fxyd5
26	2200002J24Rik
27	Gadd45b
28	Amdhd1
29	Rbpjl
30	Igfbp4
31	Etv4
32	Cyth3
33	Ypel2
34	Ybx2
35	Sparc
36	Ikzf1
37	Gm16515
38	Slc17a8
39	Arid5b
40	Enpp3
41	Fgd6
42	Nudt4
43	Tcp11l2
44	Mybpc1
45	Pcsk4
46	Kcnmb1
47	Cpm
48	Btg2
49	Itgb3
50	Tcam1
51	Gh
52	Tac4
53	Nr1d1
54	Prkch
55	Asb2
56	Otub2
57	Irf4
58	Susd3
59	Serinc5
60	Thrb
61	Samd4
62	Pnp
63	Epsti1
64	Osr2
65	Myc
66	Bcl6
67	Ypel1
68	Arhgap31
69	Fetub
70	Calcoco1
71	Fgd2
72	Myom1
73	Plin3
74	Anks1
75	H2-Oa
76	Spry4
77	Srfbp1
78	Cabp4
79	Gpam
80	Tspan4
81	Pde8a
82	Kdelc1
83	Bok
84	Lct
85	Atp2b4
86	Acbd3
87	Tbx19
88	Fcgr2b
89	Il2ra
90	Pkn3
91	Gtf3c5
92	Kynu
93	Stom
94	Ell3
95	Sema4a
96	Trp53inp1
97	Gem
98	Cdh17
99	Nbn
100	Gbp2
101	Epb4.1l4b
102	Eqtn
103	Pik3r3
104	Tal1
105	Pax7
106	Rhoh
107	Gbp9
108	Agpat9
109	Slc46a3
110	Ephb4
111	Rab43
112	Ret
113	Tuba8
114	Clec4d
115	Klrd1
116	Tmtc1
117	Ckm
118	Fam189a1
119	Cd22
120	Tyrobp
121	Tbx6
122	Lat
123	Itgam
124	Slc9a9
125	Ap3m2
126	Slc12a3
127	Sesn3
128	Ets1
129	Mpzl2
130	Mcam
131	Neil1
132	Aph1b
133	Parp16
134	Gas7
135	D930015E06Rik
136	Zdhhc14
137	Ramp1
138	Edil3
139	Pik3ip1
140	Fam214a
141	Egln3
142	Ccl2
143	Dok3
144	Cerk
145	Dnajb5
146	Csgalnact1
147	P2ry13
148	Gadd45a
149	Ttyh3
150	Mycn
151	Spry1
152	Mxd4
153	Endod1
154	Arid5a
155	Atoh8
156	Phf2
157	2410066E13Rik
158	Enpp6
159	Slamf7
160	Arl5c
161	Trp53inp2
162	Reep2
163	Akap12
164	Ctss
165	Fam117a
166	Slco4a1
167	Nexn
168	Ube2h
169	Rere
170	Cited2
171	Zc3h12d
172	Dtx4
173	Bmf
174	Bach2
175	Cd53
176	Elovl6
177	H2-Ob
178	Bivm
179	Card6
180	Xkr7
181	Ypel3
182	Lrrn4
183	Fam129c
184	Gls2
185	Olfr221
186	Scml4
187	Gm4779
188	Tubb2b
189	BC106179
190	Nyap1
191	Sh2d5
192	Slc16a5
193	Scn4b
194	Tifa
195	Ptgs1
196	Rnf150
197	Hes5
198	A630023P12Rik
199	Cyp4f16
200	Ccr2
201	Fzd9
202	Tifab
203	Lig4
204	Zfp831
205	Mrgpra1
206	Rtn4rl2
207	Pld4
208	Zfp608
209	Prkcb
210	Nrgn
211	H2-T24
212	Tmem119
213	Phactr1
214	Afp
215	C1ra
216	Irs1
217	Hoxb8
218	Tmem140
219	Lmcd1
220	Prtn3
221	Gstm1
222	Lilrb3
223	Vpreb2
224	Vpreb1
225	0610040J01Rik
226	Pla2g16
227	Blnk
228	Rag1
229	Tnnt3
230	Inadl
231	Klhl24
232	Sepp1
233	Cst7
234	Pnp2
235	Lyz2
236	Fat1
237	Ccnd1
238	Ccnb1ip1
239	Zhx2
240	Tuba1a
241	Vamp5
242	Thbd
243	5430417L22Rik
244	Bex6
245	A930003A15Rik
246	Igll1
247	Ass1
248	Ifi27l2a
249	8430423G03Rik
250	Zan
251	Gm14446
252	Klra1
253	Bambi-ps1
254	Mir22hg
255	Gm16252
256	Gm13091
257	Gm11695
258	Gm15326
259	Gm11755
260	Gm12248
261	Gm13431
262	A430035B10Rik
263	4930458D05Rik
264	D130062J21Rik
265	Lrrc32
266	Gm20413
267	
268	
269	
270	
271	
